	 {"LayName": "photo4_ani", "LayWidth": 0.335000, "LayHeight": 0.372917, "LayID": 487, "ParentID": 0, "LayIn": 18.52, "LayDur": 0.50, "CompIn": 0.00, "CompDur": 0.50, "Normalization": true,
		"SourcePath": "C:/Data/Projects/2010103DProjects/P2_LandscapeSweet_1124/photo_04_b.jpg",
		"Version": "210158194",
			 	"Marker": { 
				 }, 
				 "AnchorPoint": { 
					"X": 0.50, "Y": 0.50, "Z": -4.19
					 }, 
				 "Position": { 
					"Type":[ 4.00 , 4.00 ],
					"Time":[ 0.13 , 0.43 ],
					"X":[ 0.82 , 0.92 ],
					"Y":[ 0.41 , 0.90 ],
					"Z":[ -55.0 , -417.52 ],
					"InTanX":[ 0.01 , 0.01 ],
					"InTanY":[ -0.26 , 0.16 ],
					"InTanZ":[ 2.47 , 217.42 ],
					"OutTanX":[ -0.01 , -0.01 ],
					"OutTanY":[ 0.43 , -0.13 ],
					"OutTanZ":[ -4.01 , -174.38 ]
				}
,				 "Scale": { 
					"X": 100.00, "Y": 100.00, "Z": 100.00
					 }, 
				 "Orientation": { 
					"Type":[ 0.00 , 0.00 ],
					"Time":[ 0.13 , 0.43 ],
					"X":[ 0.00 , -100.00 ],
					"Y":[ 0.00 , 0.00 ],
					"Z":[ 10.00 , 0.00 ],
					"InTanX":[ 0.00 , 0.00 ],
					"InTanY":[ 0.00 , 0.00 ],
					"InTanZ":[ 0.00 , 0.00 ],
					"OutTanX":[ 0.00 , 0.00 ],
					"OutTanY":[ 0.00 , 0.00 ],
					"OutTanZ":[ 0.00 , 0.00 ]
				}
,				 "XRotation": { 
					"Val": 0.00
					 }, 
				 "YRotation": { 
					"Val": 0.00
					 }, 
				 "ZRotation": { 
					"Val": 0.00
					 }, 
				 "Opacity": { 
					"Val": 100.00
					 } 
	}
