	 {"LayName": "photo2_ani", "LayWidth": 0.335000, "LayHeight": 0.372917, "LayID": 431, "ParentID": 0, "LayIn": 17.95, "LayDur": 0.50, "CompIn": 0.00, "CompDur": 0.50, "Normalization": true,
		"SourcePath": "C:/Data/Projects/2010103DProjects/P2_LandscapeSweet_1124/photo_02_b.jpg",
		"Version": "210158194",
			 	"Marker": { 
				 }, 
				 "AnchorPoint": { 
					"X": 0.50, "Y": 0.50, "Z": 0.00
					 }, 
				 "Position": { 
					"Type":[ 4.00 , 4.00 ],
					"Time":[ 0.20 , 0.37 ],
					"X":[ 0.39 , 0.40 ],
					"Y":[ 0.09 , 0.38 ],
					"Z":[ -488.00 , -65.00 ],
					"InTanX":[ 0.00 , -0.00 ],
					"InTanY":[ 0.14 , 0.00 ],
					"InTanZ":[ -415.69 , -0.00 ],
					"OutTanX":[ -0.00 , 0.00 ],
					"OutTanY":[ -0.12 , -0.00 ],
					"OutTanZ":[ 357.23 , 0.00 ]
				}
,				 "Scale": { 
					"X": 100.00, "Y": 100.00, "Z": 100.00
					 }, 
				 "Orientation": { 
					"Type":[ 0.00 , 0.00 ],
					"Time":[ 0.20 , 0.37 ],
					"X":[ 70.00 , 0.00 ],
					"Y":[ 0.00 , 0.00 ],
					"Z":[ 0.00 , -10.00 ],
					"InTanX":[ 0.00 , 0.00 ],
					"InTanY":[ 0.00 , 0.00 ],
					"InTanZ":[ 0.00 , 0.00 ],
					"OutTanX":[ 0.00 , 0.00 ],
					"OutTanY":[ 0.00 , 0.00 ],
					"OutTanZ":[ 0.00 , 0.00 ]
				}
,				 "XRotation": { 
					"Val": 0.00
					 }, 
				 "YRotation": { 
					"Val": 0.00
					 }, 
				 "ZRotation": { 
					"Val": 0.00
					 }, 
				 "Opacity": { 
					"Val": 100.00
					 } 
	}
