	 {"LayName": "video2_ani", "LayWidth": 0.311250, "LayHeight": 0.475000, "LayID": 1339, "ParentID": 0, "LayIn": 17.92, "LayDur": 0.53, "CompIn": 0.00, "CompDur": 0.53, "Normalization": true,
		"SourcePath": "C:/Data/Projects/2010103DProjects/P2_LandscapeSweet_1124/icon_video_frame_temp.png",
		"Version": "210158194",
			 	"Marker": { 
				 }, 
				 "AnchorPoint": { 
					"X": 0.50, "Y": 0.50, "Z": 0.00
					 }, 
				 "Position": { 
					"Type":[ 4.00 , 4.00 ],
					"Time":[ 0.10 , 0.33 ],
					"X":[ 0.40 , 0.39 ],
					"Y":[ 0.38 , 0.06 ],
					"Z":[ -10.00 , -488.00 ],
					"InTanX":[ -0.00 , 0.00 ],
					"InTanY":[ 0.00 , 0.00 ],
					"InTanZ":[ -0.00 , 420.77 ],
					"OutTanX":[ 0.00 , -0.00 ],
					"OutTanY":[ -0.00 , -0.00 ],
					"OutTanZ":[ 0.00 , -52.77 ]
				}
,				 "Scale": { 
					"X": 100.00, "Y": 100.00, "Z": 100.00
					 }, 
				 "Orientation": { 
					"Type":[ 0.00 , 0.00 ],
					"Time":[ 0.10 , 0.33 ],
					"X":[ 0.00 , 70.00 ],
					"Y":[ 0.00 , 0.00 ],
					"Z":[ 350.00 , 360.00 ],
					"InTanX":[ 0.00 , 0.00 ],
					"InTanY":[ 0.00 , 0.00 ],
					"InTanZ":[ 0.00 , 0.00 ],
					"OutTanX":[ 0.00 , 0.00 ],
					"OutTanY":[ 0.00 , 0.00 ],
					"OutTanZ":[ 0.00 , 0.00 ]
				}
,				 "XRotation": { 
					"Val": 0.00
					 }, 
				 "YRotation": { 
					"Val": 0.00
					 }, 
				 "ZRotation": { 
					"Val": 0.00
					 }, 
				 "Opacity": { 
					"Val": 100.00
					 } 
	}
