{
Name: "LandscapeSweet.aep", 
"Compositions": [{ "Name": "Landscape_Screen", "Dur": 20.02, "Curr": 18.32, "Width": 800, "Height": 480,"NumLayers": 23,
"Layers": [
{"LayName": "Camera1", "LayWidth": 0.000000, "LayHeight": 0.000000, "LayID": 68, "ParentID": 0, "LayIn": 0.00, "LayDur": 20.02, "CompIn": 0.00, "CompDur": 20.02, "Curr": 14.38, "NumEffects": 0, "ObjectType": 2,
		"SourcePath": null,
		"Parameters":{
			"Transform":{
				 "PointOfInterest": { 
					"X": 400.00, "Y": 240.00, "Z": 0.00, "Units": "pixels"
					 }, 
				 "Position": { 
					"X": 400.00, "Y": 240.00, "Z": -1111.00, "Units": "pixels"
					 }, 
				 "Orientation": { 
					"X": 0.00, "Y": 0.00, "Z": 0.00, "Units": "degrees"
					 }, 
				 "XRotation": { 
					"Val": 0.00, "Units": "degrees"
					 }, 
				 "YRotation": { 
					"Val": 0.00, "Units": "degrees"
					 }, 
				 "ZRotation": { 
					"Val": 0.00, "Units": "degrees"
					 }, 

					 "HIDDEN":{ "Val": null}			},
			"CameraOptions":[
				{"Name": "Zoom", 
					"Val": 1111.00, "Units": "pixels"
					 }, 
				{"Name": "DepthofField", 
					"Val": 0.00, "Units": ""
					 }, 
				{"Name": "FocusDistance", 
					"Val": 1111.00, "Units": "pixels"
					 }, 
				{"Name": "Aperture", 
					"Val": 25.31, "Units": "pixels"
					 }, 
				{"Name": "BlurLevel", 
					"Val": 100.00, "Units": "percent"
					 } 
			]
		}

	},
	 {"LayName": "w05_nightcloud.png", "LayWidth": 254.000000, "LayHeight": 120.000000, "LayID": 116, "ParentID": 0, "LayIn": 7.47, "LayDur": 4.84, "CompIn": 1.7, "CompDur": 7.54, "NumEffects": 0,
		"SourcePath": "//pc10110074/d$/AE_Project/LandscapeSweet_Lite/Paris_02/w05_nightcloud.png",
		"Parameters":{
			"Transform":{
				 "AnchorPoint": { 
					"X": 0.50, "Y": 0.50, "Z": 0.00
					 }, 
				 "Position": { 
					"Keyframes":[ 
					 { "Seq": 0, 	"X": 0.00, "Y": 165.00, "Z": 0.00	},
					 { "Seq": 1, 	"X": 145.00, "Y": 165.00, "Z": 0.00	}
					 ], 
					"Frames":[ 
					 {"Seq": 0, "X": 0.77, "Y": 165.00, "Z": 0.00},
					 {"Seq": 1, "X": 1.78, "Y": 165.00, "Z": 0.00},
					 {"Seq": 2, "X": 2.79, "Y": 165.00, "Z": 0.00},
					 {"Seq": 3, "X": 3.80, "Y": 165.00, "Z": 0.00},
					 {"Seq": 4, "X": 4.81, "Y": 165.00, "Z": 0.00},
					 {"Seq": 5, "X": 5.81, "Y": 165.00, "Z": 0.00},
					 {"Seq": 6, "X": 6.82, "Y": 165.00, "Z": 0.00},
					 {"Seq": 7, "X": 7.83, "Y": 165.00, "Z": 0.00},
					 {"Seq": 8, "X": 8.84, "Y": 165.00, "Z": 0.00},
					 {"Seq": 9, "X": 9.84, "Y": 165.00, "Z": 0.00},
					 {"Seq": 10, "X": 10.85, "Y": 165.00, "Z": 0.00},
					 {"Seq": 11, "X": 11.85, "Y": 165.00, "Z": 0.00},
					 {"Seq": 12, "X": 12.86, "Y": 165.00, "Z": 0.00},
					 {"Seq": 13, "X": 13.86, "Y": 165.00, "Z": 0.00},
					 {"Seq": 14, "X": 14.87, "Y": 165.00, "Z": 0.00},
					 {"Seq": 15, "X": 15.87, "Y": 165.00, "Z": 0.00},
					 {"Seq": 16, "X": 16.88, "Y": 165.00, "Z": 0.00},
					 {"Seq": 17, "X": 17.88, "Y": 165.00, "Z": 0.00},
					 {"Seq": 18, "X": 18.89, "Y": 165.00, "Z": 0.00},
					 {"Seq": 19, "X": 19.90, "Y": 165.00, "Z": 0.00},
					 {"Seq": 20, "X": 20.90, "Y": 165.00, "Z": 0.00},
					 {"Seq": 21, "X": 21.91, "Y": 165.00, "Z": 0.00},
					 {"Seq": 22, "X": 22.92, "Y": 165.00, "Z": 0.00},
					 {"Seq": 23, "X": 23.92, "Y": 165.00, "Z": 0.00},
					 {"Seq": 24, "X": 24.93, "Y": 165.00, "Z": 0.00},
					 {"Seq": 25, "X": 25.94, "Y": 165.00, "Z": 0.00},
					 {"Seq": 26, "X": 26.94, "Y": 165.00, "Z": 0.00},
					 {"Seq": 27, "X": 27.95, "Y": 165.00, "Z": 0.00},
					 {"Seq": 28, "X": 28.96, "Y": 165.00, "Z": 0.00},
					 {"Seq": 29, "X": 29.96, "Y": 165.00, "Z": 0.00},
					 {"Seq": 30, "X": 30.97, "Y": 165.00, "Z": 0.00},
					 {"Seq": 31, "X": 31.97, "Y": 165.00, "Z": 0.00},
					 {"Seq": 32, "X": 32.97, "Y": 165.00, "Z": 0.00},
					 {"Seq": 33, "X": 33.98, "Y": 165.00, "Z": 0.00},
					 {"Seq": 34, "X": 34.98, "Y": 165.00, "Z": 0.00},
					 {"Seq": 35, "X": 35.99, "Y": 165.00, "Z": 0.00},
					 {"Seq": 36, "X": 36.99, "Y": 165.00, "Z": 0.00},
					 {"Seq": 37, "X": 38.00, "Y": 165.00, "Z": 0.00},
					 {"Seq": 38, "X": 39.01, "Y": 165.00, "Z": 0.00},
					 {"Seq": 39, "X": 40.01, "Y": 165.00, "Z": 0.00},
					 {"Seq": 40, "X": 41.02, "Y": 165.00, "Z": 0.00},
					 {"Seq": 41, "X": 42.02, "Y": 165.00, "Z": 0.00},
					 {"Seq": 42, "X": 43.03, "Y": 165.00, "Z": 0.00},
					 {"Seq": 43, "X": 44.04, "Y": 165.00, "Z": 0.00},
					 {"Seq": 44, "X": 45.04, "Y": 165.00, "Z": 0.00},
					 {"Seq": 45, "X": 46.05, "Y": 165.00, "Z": 0.00},
					 {"Seq": 46, "X": 47.06, "Y": 165.00, "Z": 0.00},
					 {"Seq": 47, "X": 48.06, "Y": 165.00, "Z": 0.00},
					 {"Seq": 48, "X": 49.07, "Y": 165.00, "Z": 0.00},
					 {"Seq": 49, "X": 50.07, "Y": 165.00, "Z": 0.00},
					 {"Seq": 50, "X": 51.08, "Y": 165.00, "Z": 0.00},
					 {"Seq": 51, "X": 52.08, "Y": 165.00, "Z": 0.00},
					 {"Seq": 52, "X": 53.09, "Y": 165.00, "Z": 0.00},
					 {"Seq": 53, "X": 54.10, "Y": 165.00, "Z": 0.00},
					 {"Seq": 54, "X": 55.10, "Y": 165.00, "Z": 0.00},
					 {"Seq": 55, "X": 56.11, "Y": 165.00, "Z": 0.00},
					 {"Seq": 56, "X": 57.11, "Y": 165.00, "Z": 0.00},
					 {"Seq": 57, "X": 58.12, "Y": 165.00, "Z": 0.00},
					 {"Seq": 58, "X": 59.13, "Y": 165.00, "Z": 0.00},
					 {"Seq": 59, "X": 60.13, "Y": 165.00, "Z": 0.00},
					 {"Seq": 60, "X": 61.14, "Y": 165.00, "Z": 0.00},
					 {"Seq": 61, "X": 62.14, "Y": 165.00, "Z": 0.00},
					 {"Seq": 62, "X": 63.15, "Y": 165.00, "Z": 0.00},
					 {"Seq": 63, "X": 64.16, "Y": 165.00, "Z": 0.00},
					 {"Seq": 64, "X": 65.16, "Y": 165.00, "Z": 0.00},
					 {"Seq": 65, "X": 66.17, "Y": 165.00, "Z": 0.00},
					 {"Seq": 66, "X": 67.17, "Y": 165.00, "Z": 0.00},
					 {"Seq": 67, "X": 68.18, "Y": 165.00, "Z": 0.00},
					 {"Seq": 68, "X": 69.18, "Y": 165.00, "Z": 0.00},
					 {"Seq": 69, "X": 70.19, "Y": 165.00, "Z": 0.00},
					 {"Seq": 70, "X": 71.20, "Y": 165.00, "Z": 0.00},
					 {"Seq": 71, "X": 72.20, "Y": 165.00, "Z": 0.00},
					 {"Seq": 72, "X": 73.21, "Y": 165.00, "Z": 0.00},
					 {"Seq": 73, "X": 74.21, "Y": 165.00, "Z": 0.00},
					 {"Seq": 74, "X": 75.22, "Y": 165.00, "Z": 0.00},
					 {"Seq": 75, "X": 76.23, "Y": 165.00, "Z": 0.00},
					 {"Seq": 76, "X": 77.23, "Y": 165.00, "Z": 0.00},
					 {"Seq": 77, "X": 78.24, "Y": 165.00, "Z": 0.00},
					 {"Seq": 78, "X": 79.24, "Y": 165.00, "Z": 0.00},
					 {"Seq": 79, "X": 80.25, "Y": 165.00, "Z": 0.00},
					 {"Seq": 80, "X": 81.25, "Y": 165.00, "Z": 0.00},
					 {"Seq": 81, "X": 82.26, "Y": 165.00, "Z": 0.00},
					 {"Seq": 82, "X": 83.27, "Y": 165.00, "Z": 0.00},
					 {"Seq": 83, "X": 84.27, "Y": 165.00, "Z": 0.00},
					 {"Seq": 84, "X": 85.28, "Y": 165.00, "Z": 0.00},
					 {"Seq": 85, "X": 86.29, "Y": 165.00, "Z": 0.00},
					 {"Seq": 86, "X": 87.29, "Y": 165.00, "Z": 0.00},
					 {"Seq": 87, "X": 88.30, "Y": 165.00, "Z": 0.00},
					 {"Seq": 88, "X": 89.30, "Y": 165.00, "Z": 0.00},
					 {"Seq": 89, "X": 90.31, "Y": 165.00, "Z": 0.00},
					 {"Seq": 90, "X": 91.31, "Y": 165.00, "Z": 0.00},
					 {"Seq": 91, "X": 92.32, "Y": 165.00, "Z": 0.00},
					 {"Seq": 92, "X": 93.32, "Y": 165.00, "Z": 0.00},
					 {"Seq": 93, "X": 94.33, "Y": 165.00, "Z": 0.00},
					 {"Seq": 94, "X": 95.34, "Y": 165.00, "Z": 0.00},
					 {"Seq": 95, "X": 96.34, "Y": 165.00, "Z": 0.00},
					 {"Seq": 96, "X": 97.35, "Y": 165.00, "Z": 0.00},
					 {"Seq": 97, "X": 98.35, "Y": 165.00, "Z": 0.00},
					 {"Seq": 98, "X": 99.36, "Y": 165.00, "Z": 0.00},
					 {"Seq": 99, "X": 100.37, "Y": 165.00, "Z": 0.00},
					 {"Seq": 100, "X": 101.37, "Y": 165.00, "Z": 0.00},
					 {"Seq": 101, "X": 102.38, "Y": 165.00, "Z": 0.00},
					 {"Seq": 102, "X": 103.38, "Y": 165.00, "Z": 0.00},
					 {"Seq": 103, "X": 104.39, "Y": 165.00, "Z": 0.00},
					 {"Seq": 104, "X": 105.40, "Y": 165.00, "Z": 0.00},
					 {"Seq": 105, "X": 106.40, "Y": 165.00, "Z": 0.00},
					 {"Seq": 106, "X": 107.41, "Y": 165.00, "Z": 0.00},
					 {"Seq": 107, "X": 108.42, "Y": 165.00, "Z": 0.00},
					 {"Seq": 108, "X": 109.42, "Y": 165.00, "Z": 0.00},
					 {"Seq": 109, "X": 110.43, "Y": 165.00, "Z": 0.00},
					 {"Seq": 110, "X": 111.43, "Y": 165.00, "Z": 0.00},
					 {"Seq": 111, "X": 112.44, "Y": 165.00, "Z": 0.00},
					 {"Seq": 112, "X": 113.44, "Y": 165.00, "Z": 0.00},
					 {"Seq": 113, "X": 114.45, "Y": 165.00, "Z": 0.00},
					 {"Seq": 114, "X": 115.45, "Y": 165.00, "Z": 0.00},
					 {"Seq": 115, "X": 116.46, "Y": 165.00, "Z": 0.00},
					 {"Seq": 116, "X": 117.46, "Y": 165.00, "Z": 0.00},
					 {"Seq": 117, "X": 118.47, "Y": 165.00, "Z": 0.00},
					 {"Seq": 118, "X": 119.47, "Y": 165.00, "Z": 0.00},
					 {"Seq": 119, "X": 120.48, "Y": 165.00, "Z": 0.00},
					 {"Seq": 120, "X": 121.49, "Y": 165.00, "Z": 0.00},
					 {"Seq": 121, "X": 122.49, "Y": 165.00, "Z": 0.00},
					 {"Seq": 122, "X": 123.50, "Y": 165.00, "Z": 0.00},
					 {"Seq": 123, "X": 124.51, "Y": 165.00, "Z": 0.00},
					 {"Seq": 124, "X": 125.51, "Y": 165.00, "Z": 0.00},
					 {"Seq": 125, "X": 126.52, "Y": 165.00, "Z": 0.00},
					 {"Seq": 126, "X": 127.53, "Y": 165.00, "Z": 0.00},
					 {"Seq": 127, "X": 128.53, "Y": 165.00, "Z": 0.00},
					 {"Seq": 128, "X": 129.54, "Y": 165.00, "Z": 0.00},
					 {"Seq": 129, "X": 130.55, "Y": 165.00, "Z": 0.00},
					 {"Seq": 130, "X": 131.55, "Y": 165.00, "Z": 0.00},
					 {"Seq": 131, "X": 132.55, "Y": 165.00, "Z": 0.00},
					 {"Seq": 132, "X": 133.56, "Y": 165.00, "Z": 0.00},
					 {"Seq": 133, "X": 134.56, "Y": 165.00, "Z": 0.00},
					 {"Seq": 134, "X": 135.57, "Y": 165.00, "Z": 0.00},
					 {"Seq": 135, "X": 136.58, "Y": 165.00, "Z": 0.00},
					 {"Seq": 136, "X": 137.58, "Y": 165.00, "Z": 0.00},
					 {"Seq": 137, "X": 138.59, "Y": 165.00, "Z": 0.00},
					 {"Seq": 138, "X": 139.60, "Y": 165.00, "Z": 0.00},
					 {"Seq": 139, "X": 140.60, "Y": 165.00, "Z": 0.00},
					 {"Seq": 140, "X": 141.61, "Y": 165.00, "Z": 0.00},
					 {"Seq": 141, "X": 142.62, "Y": 165.00, "Z": 0.00},
					 {"Seq": 142, "X": 143.63, "Y": 165.00, "Z": 0.00},
					 {"Seq": 143, "X": 144.64, "Y": 165.00, "Z": 0.00},
					 {"Seq": 144, "X": 145.00, "Y": 165.00, "Z": 0.00}
					 ] 
				}
,				 "Scale": { 
					"X": 100.00, "Y": 100.00, "Z": 100.00
					 }, 
				 "Rotation": { 
					"Val": 0.00
					 }, 
				 "Opacity": { 
					"Keyframes":[ 
					 { "Seq": 0, 	"Val": 0.00	},
					 { "Seq": 1, 	"Val": 100.00	}
					 ], 
					"Frames":[ 
					 {"Seq": 0, "Val": 0.54},
					 {"Seq": 1, "Val": 1.23},
					 {"Seq": 2, "Val": 1.93},
					 {"Seq": 3, "Val": 2.62},
					 {"Seq": 4, "Val": 3.31},
					 {"Seq": 5, "Val": 4.01},
					 {"Seq": 6, "Val": 4.70},
					 {"Seq": 7, "Val": 5.39},
					 {"Seq": 8, "Val": 6.09},
					 {"Seq": 9, "Val": 6.78},
					 {"Seq": 10, "Val": 7.48},
					 {"Seq": 11, "Val": 8.17},
					 {"Seq": 12, "Val": 8.86},
					 {"Seq": 13, "Val": 9.56},
					 {"Seq": 14, "Val": 10.25},
					 {"Seq": 15, "Val": 10.94},
					 {"Seq": 16, "Val": 11.64},
					 {"Seq": 17, "Val": 12.33},
					 {"Seq": 18, "Val": 13.03},
					 {"Seq": 19, "Val": 13.72},
					 {"Seq": 20, "Val": 14.41},
					 {"Seq": 21, "Val": 15.11},
					 {"Seq": 22, "Val": 15.80},
					 {"Seq": 23, "Val": 16.49},
					 {"Seq": 24, "Val": 17.19},
					 {"Seq": 25, "Val": 17.88},
					 {"Seq": 26, "Val": 18.58},
					 {"Seq": 27, "Val": 19.27},
					 {"Seq": 28, "Val": 19.96},
					 {"Seq": 29, "Val": 20.66},
					 {"Seq": 30, "Val": 21.35},
					 {"Seq": 31, "Val": 22.04},
					 {"Seq": 32, "Val": 22.74},
					 {"Seq": 33, "Val": 23.43},
					 {"Seq": 34, "Val": 24.13},
					 {"Seq": 35, "Val": 24.82},
					 {"Seq": 36, "Val": 25.51},
					 {"Seq": 37, "Val": 26.21},
					 {"Seq": 38, "Val": 26.90},
					 {"Seq": 39, "Val": 27.59},
					 {"Seq": 40, "Val": 28.29},
					 {"Seq": 41, "Val": 28.98},
					 {"Seq": 42, "Val": 29.68},
					 {"Seq": 43, "Val": 30.37},
					 {"Seq": 44, "Val": 31.06},
					 {"Seq": 45, "Val": 31.76},
					 {"Seq": 46, "Val": 32.45},
					 {"Seq": 47, "Val": 33.14},
					 {"Seq": 48, "Val": 33.84},
					 {"Seq": 49, "Val": 34.53},
					 {"Seq": 50, "Val": 35.23},
					 {"Seq": 51, "Val": 35.92},
					 {"Seq": 52, "Val": 36.61},
					 {"Seq": 53, "Val": 37.31},
					 {"Seq": 54, "Val": 38.00},
					 {"Seq": 55, "Val": 38.69},
					 {"Seq": 56, "Val": 39.39},
					 {"Seq": 57, "Val": 40.08},
					 {"Seq": 58, "Val": 40.78},
					 {"Seq": 59, "Val": 41.47},
					 {"Seq": 60, "Val": 42.16},
					 {"Seq": 61, "Val": 42.86},
					 {"Seq": 62, "Val": 43.55},
					 {"Seq": 63, "Val": 44.24},
					 {"Seq": 64, "Val": 44.94},
					 {"Seq": 65, "Val": 45.63},
					 {"Seq": 66, "Val": 46.33},
					 {"Seq": 67, "Val": 47.02},
					 {"Seq": 68, "Val": 47.71},
					 {"Seq": 69, "Val": 48.41},
					 {"Seq": 70, "Val": 49.10},
					 {"Seq": 71, "Val": 49.79},
					 {"Seq": 72, "Val": 50.49},
					 {"Seq": 73, "Val": 51.18},
					 {"Seq": 74, "Val": 51.88},
					 {"Seq": 75, "Val": 52.57},
					 {"Seq": 76, "Val": 53.26},
					 {"Seq": 77, "Val": 53.96},
					 {"Seq": 78, "Val": 54.65},
					 {"Seq": 79, "Val": 55.34},
					 {"Seq": 80, "Val": 56.04},
					 {"Seq": 81, "Val": 56.73},
					 {"Seq": 82, "Val": 57.43},
					 {"Seq": 83, "Val": 58.12},
					 {"Seq": 84, "Val": 58.81},
					 {"Seq": 85, "Val": 59.51},
					 {"Seq": 86, "Val": 60.20},
					 {"Seq": 87, "Val": 60.89},
					 {"Seq": 88, "Val": 61.59},
					 {"Seq": 89, "Val": 62.28},
					 {"Seq": 90, "Val": 62.98},
					 {"Seq": 91, "Val": 63.67},
					 {"Seq": 92, "Val": 64.36},
					 {"Seq": 93, "Val": 65.06},
					 {"Seq": 94, "Val": 65.75},
					 {"Seq": 95, "Val": 66.44},
					 {"Seq": 96, "Val": 67.14},
					 {"Seq": 97, "Val": 67.83},
					 {"Seq": 98, "Val": 68.53},
					 {"Seq": 99, "Val": 69.22},
					 {"Seq": 100, "Val": 69.91},
					 {"Seq": 101, "Val": 70.61},
					 {"Seq": 102, "Val": 71.30},
					 {"Seq": 103, "Val": 71.99},
					 {"Seq": 104, "Val": 72.69},
					 {"Seq": 105, "Val": 73.38},
					 {"Seq": 106, "Val": 74.08},
					 {"Seq": 107, "Val": 74.77},
					 {"Seq": 108, "Val": 75.46},
					 {"Seq": 109, "Val": 76.16},
					 {"Seq": 110, "Val": 76.85},
					 {"Seq": 111, "Val": 77.54},
					 {"Seq": 112, "Val": 78.24},
					 {"Seq": 113, "Val": 78.93},
					 {"Seq": 114, "Val": 79.63},
					 {"Seq": 115, "Val": 80.32},
					 {"Seq": 116, "Val": 81.01},
					 {"Seq": 117, "Val": 81.71},
					 {"Seq": 118, "Val": 82.40},
					 {"Seq": 119, "Val": 83.09},
					 {"Seq": 120, "Val": 83.79},
					 {"Seq": 121, "Val": 84.48},
					 {"Seq": 122, "Val": 85.18},
					 {"Seq": 123, "Val": 85.87},
					 {"Seq": 124, "Val": 86.56},
					 {"Seq": 125, "Val": 87.26},
					 {"Seq": 126, "Val": 87.95},
					 {"Seq": 127, "Val": 88.64},
					 {"Seq": 128, "Val": 89.34},
					 {"Seq": 129, "Val": 90.03},
					 {"Seq": 130, "Val": 90.73},
					 {"Seq": 131, "Val": 91.42},
					 {"Seq": 132, "Val": 92.11},
					 {"Seq": 133, "Val": 92.81},
					 {"Seq": 134, "Val": 93.50},
					 {"Seq": 135, "Val": 94.19},
					 {"Seq": 136, "Val": 94.89},
					 {"Seq": 137, "Val": 95.58},
					 {"Seq": 138, "Val": 96.28},
					 {"Seq": 139, "Val": 96.97},
					 {"Seq": 140, "Val": 97.66},
					 {"Seq": 141, "Val": 98.36},
					 {"Seq": 142, "Val": 99.05},
					 {"Seq": 143, "Val": 99.74},
					 {"Seq": 144, "Val": 100.00}
					 ] 
				}
			}
		}

	},
	 {"LayName": "w02_location.png", "LayWidth": 234.000000, "LayHeight": 80.000000, "LayID": 115, "ParentID": 0, "LayIn": -0.47, "LayDur": 4.84, "CompIn": 1.7, "CompDur": 7.54, "NumEffects": 1,
		"SourcePath": "C:/Data/Projects/2010103DProjects/P2_LandscapeSweet_Lite/Paris_02/paris_location.png",
		"Parameters":{
			"Transform":{
				 "AnchorPoint": { 
					"X": 0.50, "Y": 0.50, "Z": 0.00
					 }, 
				 "Position": { 
					"Keyframes":[ 
					 { "Seq": 0, 	"X": 500.00, "Y": 420.00, "Z": 0.00	},
					 { "Seq": 1, 	"X": 560.00, "Y": 420.00, "Z": 0.00	}
					 ], 
					"Frames":[ 
					 {"Seq": 0, "X": 500.32, "Y": 420.00, "Z": 0.00},
					 {"Seq": 1, "X": 500.74, "Y": 420.00, "Z": 0.00},
					 {"Seq": 2, "X": 501.15, "Y": 420.00, "Z": 0.00},
					 {"Seq": 3, "X": 501.57, "Y": 420.00, "Z": 0.00},
					 {"Seq": 4, "X": 501.99, "Y": 420.00, "Z": 0.00},
					 {"Seq": 5, "X": 502.41, "Y": 420.00, "Z": 0.00},
					 {"Seq": 6, "X": 502.82, "Y": 420.00, "Z": 0.00},
					 {"Seq": 7, "X": 503.24, "Y": 420.00, "Z": 0.00},
					 {"Seq": 8, "X": 503.66, "Y": 420.00, "Z": 0.00},
					 {"Seq": 9, "X": 504.07, "Y": 420.00, "Z": 0.00},
					 {"Seq": 10, "X": 504.49, "Y": 420.00, "Z": 0.00},
					 {"Seq": 11, "X": 504.90, "Y": 420.00, "Z": 0.00},
					 {"Seq": 12, "X": 505.32, "Y": 420.00, "Z": 0.00},
					 {"Seq": 13, "X": 505.74, "Y": 420.00, "Z": 0.00},
					 {"Seq": 14, "X": 506.15, "Y": 420.00, "Z": 0.00},
					 {"Seq": 15, "X": 506.57, "Y": 420.00, "Z": 0.00},
					 {"Seq": 16, "X": 506.98, "Y": 420.00, "Z": 0.00},
					 {"Seq": 17, "X": 507.40, "Y": 420.00, "Z": 0.00},
					 {"Seq": 18, "X": 507.82, "Y": 420.00, "Z": 0.00},
					 {"Seq": 19, "X": 508.23, "Y": 420.00, "Z": 0.00},
					 {"Seq": 20, "X": 508.65, "Y": 420.00, "Z": 0.00},
					 {"Seq": 21, "X": 509.07, "Y": 420.00, "Z": 0.00},
					 {"Seq": 22, "X": 509.48, "Y": 420.00, "Z": 0.00},
					 {"Seq": 23, "X": 509.90, "Y": 420.00, "Z": 0.00},
					 {"Seq": 24, "X": 510.32, "Y": 420.00, "Z": 0.00},
					 {"Seq": 25, "X": 510.73, "Y": 420.00, "Z": 0.00},
					 {"Seq": 26, "X": 511.15, "Y": 420.00, "Z": 0.00},
					 {"Seq": 27, "X": 511.57, "Y": 420.00, "Z": 0.00},
					 {"Seq": 28, "X": 511.98, "Y": 420.00, "Z": 0.00},
					 {"Seq": 29, "X": 512.40, "Y": 420.00, "Z": 0.00},
					 {"Seq": 30, "X": 512.81, "Y": 420.00, "Z": 0.00},
					 {"Seq": 31, "X": 513.23, "Y": 420.00, "Z": 0.00},
					 {"Seq": 32, "X": 513.64, "Y": 420.00, "Z": 0.00},
					 {"Seq": 33, "X": 514.06, "Y": 420.00, "Z": 0.00},
					 {"Seq": 34, "X": 514.48, "Y": 420.00, "Z": 0.00},
					 {"Seq": 35, "X": 514.89, "Y": 420.00, "Z": 0.00},
					 {"Seq": 36, "X": 515.31, "Y": 420.00, "Z": 0.00},
					 {"Seq": 37, "X": 515.72, "Y": 420.00, "Z": 0.00},
					 {"Seq": 38, "X": 516.14, "Y": 420.00, "Z": 0.00},
					 {"Seq": 39, "X": 516.56, "Y": 420.00, "Z": 0.00},
					 {"Seq": 40, "X": 516.97, "Y": 420.00, "Z": 0.00},
					 {"Seq": 41, "X": 517.39, "Y": 420.00, "Z": 0.00},
					 {"Seq": 42, "X": 517.81, "Y": 420.00, "Z": 0.00},
					 {"Seq": 43, "X": 518.22, "Y": 420.00, "Z": 0.00},
					 {"Seq": 44, "X": 518.64, "Y": 420.00, "Z": 0.00},
					 {"Seq": 45, "X": 519.06, "Y": 420.00, "Z": 0.00},
					 {"Seq": 46, "X": 519.47, "Y": 420.00, "Z": 0.00},
					 {"Seq": 47, "X": 519.89, "Y": 420.00, "Z": 0.00},
					 {"Seq": 48, "X": 520.31, "Y": 420.00, "Z": 0.00},
					 {"Seq": 49, "X": 520.72, "Y": 420.00, "Z": 0.00},
					 {"Seq": 50, "X": 521.14, "Y": 420.00, "Z": 0.00},
					 {"Seq": 51, "X": 521.56, "Y": 420.00, "Z": 0.00},
					 {"Seq": 52, "X": 521.97, "Y": 420.00, "Z": 0.00},
					 {"Seq": 53, "X": 522.39, "Y": 420.00, "Z": 0.00},
					 {"Seq": 54, "X": 522.81, "Y": 420.00, "Z": 0.00},
					 {"Seq": 55, "X": 523.22, "Y": 420.00, "Z": 0.00},
					 {"Seq": 56, "X": 523.64, "Y": 420.00, "Z": 0.00},
					 {"Seq": 57, "X": 524.05, "Y": 420.00, "Z": 0.00},
					 {"Seq": 58, "X": 524.47, "Y": 420.00, "Z": 0.00},
					 {"Seq": 59, "X": 524.89, "Y": 420.00, "Z": 0.00},
					 {"Seq": 60, "X": 525.30, "Y": 420.00, "Z": 0.00},
					 {"Seq": 61, "X": 525.72, "Y": 420.00, "Z": 0.00},
					 {"Seq": 62, "X": 526.13, "Y": 420.00, "Z": 0.00},
					 {"Seq": 63, "X": 526.55, "Y": 420.00, "Z": 0.00},
					 {"Seq": 64, "X": 526.96, "Y": 420.00, "Z": 0.00},
					 {"Seq": 65, "X": 527.38, "Y": 420.00, "Z": 0.00},
					 {"Seq": 66, "X": 527.80, "Y": 420.00, "Z": 0.00},
					 {"Seq": 67, "X": 528.21, "Y": 420.00, "Z": 0.00},
					 {"Seq": 68, "X": 528.63, "Y": 420.00, "Z": 0.00},
					 {"Seq": 69, "X": 529.04, "Y": 420.00, "Z": 0.00},
					 {"Seq": 70, "X": 529.46, "Y": 420.00, "Z": 0.00},
					 {"Seq": 71, "X": 529.87, "Y": 420.00, "Z": 0.00},
					 {"Seq": 72, "X": 530.29, "Y": 420.00, "Z": 0.00},
					 {"Seq": 73, "X": 530.70, "Y": 420.00, "Z": 0.00},
					 {"Seq": 74, "X": 531.12, "Y": 420.00, "Z": 0.00},
					 {"Seq": 75, "X": 531.53, "Y": 420.00, "Z": 0.00},
					 {"Seq": 76, "X": 531.95, "Y": 420.00, "Z": 0.00},
					 {"Seq": 77, "X": 532.36, "Y": 420.00, "Z": 0.00},
					 {"Seq": 78, "X": 532.78, "Y": 420.00, "Z": 0.00},
					 {"Seq": 79, "X": 533.20, "Y": 420.00, "Z": 0.00},
					 {"Seq": 80, "X": 533.61, "Y": 420.00, "Z": 0.00},
					 {"Seq": 81, "X": 534.03, "Y": 420.00, "Z": 0.00},
					 {"Seq": 82, "X": 534.44, "Y": 420.00, "Z": 0.00},
					 {"Seq": 83, "X": 534.86, "Y": 420.00, "Z": 0.00},
					 {"Seq": 84, "X": 535.28, "Y": 420.00, "Z": 0.00},
					 {"Seq": 85, "X": 535.69, "Y": 420.00, "Z": 0.00},
					 {"Seq": 86, "X": 536.11, "Y": 420.00, "Z": 0.00},
					 {"Seq": 87, "X": 536.52, "Y": 420.00, "Z": 0.00},
					 {"Seq": 88, "X": 536.94, "Y": 420.00, "Z": 0.00},
					 {"Seq": 89, "X": 537.36, "Y": 420.00, "Z": 0.00},
					 {"Seq": 90, "X": 537.77, "Y": 420.00, "Z": 0.00},
					 {"Seq": 91, "X": 538.19, "Y": 420.00, "Z": 0.00},
					 {"Seq": 92, "X": 538.61, "Y": 420.00, "Z": 0.00},
					 {"Seq": 93, "X": 539.02, "Y": 420.00, "Z": 0.00},
					 {"Seq": 94, "X": 539.44, "Y": 420.00, "Z": 0.00},
					 {"Seq": 95, "X": 539.86, "Y": 420.00, "Z": 0.00},
					 {"Seq": 96, "X": 540.27, "Y": 420.00, "Z": 0.00},
					 {"Seq": 97, "X": 540.69, "Y": 420.00, "Z": 0.00},
					 {"Seq": 98, "X": 541.11, "Y": 420.00, "Z": 0.00},
					 {"Seq": 99, "X": 541.53, "Y": 420.00, "Z": 0.00},
					 {"Seq": 100, "X": 541.94, "Y": 420.00, "Z": 0.00},
					 {"Seq": 101, "X": 542.36, "Y": 420.00, "Z": 0.00},
					 {"Seq": 102, "X": 542.78, "Y": 420.00, "Z": 0.00},
					 {"Seq": 103, "X": 543.19, "Y": 420.00, "Z": 0.00},
					 {"Seq": 104, "X": 543.61, "Y": 420.00, "Z": 0.00},
					 {"Seq": 105, "X": 544.03, "Y": 420.00, "Z": 0.00},
					 {"Seq": 106, "X": 544.44, "Y": 420.00, "Z": 0.00},
					 {"Seq": 107, "X": 544.86, "Y": 420.00, "Z": 0.00},
					 {"Seq": 108, "X": 545.28, "Y": 420.00, "Z": 0.00},
					 {"Seq": 109, "X": 545.69, "Y": 420.00, "Z": 0.00},
					 {"Seq": 110, "X": 546.11, "Y": 420.00, "Z": 0.00},
					 {"Seq": 111, "X": 546.53, "Y": 420.00, "Z": 0.00},
					 {"Seq": 112, "X": 546.94, "Y": 420.00, "Z": 0.00},
					 {"Seq": 113, "X": 547.36, "Y": 420.00, "Z": 0.00},
					 {"Seq": 114, "X": 547.77, "Y": 420.00, "Z": 0.00},
					 {"Seq": 115, "X": 548.19, "Y": 420.00, "Z": 0.00},
					 {"Seq": 116, "X": 548.60, "Y": 420.00, "Z": 0.00},
					 {"Seq": 117, "X": 549.02, "Y": 420.00, "Z": 0.00},
					 {"Seq": 118, "X": 549.44, "Y": 420.00, "Z": 0.00},
					 {"Seq": 119, "X": 549.85, "Y": 420.00, "Z": 0.00},
					 {"Seq": 120, "X": 550.27, "Y": 420.00, "Z": 0.00},
					 {"Seq": 121, "X": 550.69, "Y": 420.00, "Z": 0.00},
					 {"Seq": 122, "X": 551.10, "Y": 420.00, "Z": 0.00},
					 {"Seq": 123, "X": 551.52, "Y": 420.00, "Z": 0.00},
					 {"Seq": 124, "X": 551.94, "Y": 420.00, "Z": 0.00},
					 {"Seq": 125, "X": 552.35, "Y": 420.00, "Z": 0.00},
					 {"Seq": 126, "X": 552.77, "Y": 420.00, "Z": 0.00},
					 {"Seq": 127, "X": 553.19, "Y": 420.00, "Z": 0.00},
					 {"Seq": 128, "X": 553.60, "Y": 420.00, "Z": 0.00},
					 {"Seq": 129, "X": 554.02, "Y": 420.00, "Z": 0.00},
					 {"Seq": 130, "X": 554.43, "Y": 420.00, "Z": 0.00},
					 {"Seq": 131, "X": 554.85, "Y": 420.00, "Z": 0.00},
					 {"Seq": 132, "X": 555.27, "Y": 420.00, "Z": 0.00},
					 {"Seq": 133, "X": 555.68, "Y": 420.00, "Z": 0.00},
					 {"Seq": 134, "X": 556.10, "Y": 420.00, "Z": 0.00},
					 {"Seq": 135, "X": 556.51, "Y": 420.00, "Z": 0.00},
					 {"Seq": 136, "X": 556.93, "Y": 420.00, "Z": 0.00},
					 {"Seq": 137, "X": 557.35, "Y": 420.00, "Z": 0.00},
					 {"Seq": 138, "X": 557.76, "Y": 420.00, "Z": 0.00},
					 {"Seq": 139, "X": 558.18, "Y": 420.00, "Z": 0.00},
					 {"Seq": 140, "X": 558.60, "Y": 420.00, "Z": 0.00},
					 {"Seq": 141, "X": 559.02, "Y": 420.00, "Z": 0.00},
					 {"Seq": 142, "X": 559.43, "Y": 420.00, "Z": 0.00},
					 {"Seq": 143, "X": 559.85, "Y": 420.00, "Z": 0.00},
					 {"Seq": 144, "X": 560.00, "Y": 420.00, "Z": 0.00}
					 ] 
				}
,				 "Scale": { 
					"X": 100.00, "Y": 100.00, "Z": 100.00
					 }, 
				 "Rotation": { 
					"Val": 0.00
					 }, 
				 "Opacity": { 
					"Keyframes":[ 
					 { "Seq": 0, 	"Val": 0.00	},
					 { "Seq": 1, 	"Val": 100.00	}
					 ], 
					"Frames":[ 
					 {"Seq": 0, "Val": 3.23},
					 {"Seq": 1, "Val": 7.39},
					 {"Seq": 2, "Val": 11.55},
					 {"Seq": 3, "Val": 15.72},
					 {"Seq": 4, "Val": 19.88},
					 {"Seq": 5, "Val": 24.04},
					 {"Seq": 6, "Val": 28.20},
					 {"Seq": 7, "Val": 32.36},
					 {"Seq": 8, "Val": 36.53},
					 {"Seq": 9, "Val": 40.69},
					 {"Seq": 10, "Val": 44.85},
					 {"Seq": 11, "Val": 49.02},
					 {"Seq": 12, "Val": 53.18},
					 {"Seq": 13, "Val": 57.34},
					 {"Seq": 14, "Val": 61.51},
					 {"Seq": 15, "Val": 65.67},
					 {"Seq": 16, "Val": 69.83},
					 {"Seq": 17, "Val": 73.99},
					 {"Seq": 18, "Val": 78.16},
					 {"Seq": 19, "Val": 82.32},
					 {"Seq": 20, "Val": 86.48},
					 {"Seq": 21, "Val": 90.64},
					 {"Seq": 22, "Val": 94.80},
					 {"Seq": 23, "Val": 98.97},
					 {"Seq": 24, "Val": 100.00},
					 {"Seq": 25, "Val": 100.00},
					 {"Seq": 26, "Val": 100.00},
					 {"Seq": 27, "Val": 100.00},
					 {"Seq": 28, "Val": 100.00},
					 {"Seq": 29, "Val": 100.00},
					 {"Seq": 30, "Val": 100.00},
					 {"Seq": 31, "Val": 100.00},
					 {"Seq": 32, "Val": 100.00},
					 {"Seq": 33, "Val": 100.00},
					 {"Seq": 34, "Val": 100.00},
					 {"Seq": 35, "Val": 100.00},
					 {"Seq": 36, "Val": 100.00},
					 {"Seq": 37, "Val": 100.00},
					 {"Seq": 38, "Val": 100.00},
					 {"Seq": 39, "Val": 100.00},
					 {"Seq": 40, "Val": 100.00},
					 {"Seq": 41, "Val": 100.00},
					 {"Seq": 42, "Val": 100.00},
					 {"Seq": 43, "Val": 100.00},
					 {"Seq": 44, "Val": 100.00},
					 {"Seq": 45, "Val": 100.00},
					 {"Seq": 46, "Val": 100.00},
					 {"Seq": 47, "Val": 100.00},
					 {"Seq": 48, "Val": 100.00},
					 {"Seq": 49, "Val": 100.00},
					 {"Seq": 50, "Val": 100.00},
					 {"Seq": 51, "Val": 100.00},
					 {"Seq": 52, "Val": 100.00},
					 {"Seq": 53, "Val": 100.00},
					 {"Seq": 54, "Val": 100.00},
					 {"Seq": 55, "Val": 100.00},
					 {"Seq": 56, "Val": 100.00},
					 {"Seq": 57, "Val": 100.00},
					 {"Seq": 58, "Val": 100.00},
					 {"Seq": 59, "Val": 100.00},
					 {"Seq": 60, "Val": 100.00},
					 {"Seq": 61, "Val": 100.00},
					 {"Seq": 62, "Val": 100.00},
					 {"Seq": 63, "Val": 100.00},
					 {"Seq": 64, "Val": 100.00},
					 {"Seq": 65, "Val": 100.00},
					 {"Seq": 66, "Val": 100.00},
					 {"Seq": 67, "Val": 100.00},
					 {"Seq": 68, "Val": 100.00},
					 {"Seq": 69, "Val": 100.00},
					 {"Seq": 70, "Val": 100.00},
					 {"Seq": 71, "Val": 100.00},
					 {"Seq": 72, "Val": 100.00},
					 {"Seq": 73, "Val": 100.00},
					 {"Seq": 74, "Val": 100.00},
					 {"Seq": 75, "Val": 100.00},
					 {"Seq": 76, "Val": 100.00},
					 {"Seq": 77, "Val": 100.00},
					 {"Seq": 78, "Val": 100.00},
					 {"Seq": 79, "Val": 100.00},
					 {"Seq": 80, "Val": 100.00},
					 {"Seq": 81, "Val": 100.00},
					 {"Seq": 82, "Val": 100.00},
					 {"Seq": 83, "Val": 100.00},
					 {"Seq": 84, "Val": 100.00},
					 {"Seq": 85, "Val": 100.00},
					 {"Seq": 86, "Val": 100.00},
					 {"Seq": 87, "Val": 100.00},
					 {"Seq": 88, "Val": 100.00},
					 {"Seq": 89, "Val": 100.00},
					 {"Seq": 90, "Val": 100.00},
					 {"Seq": 91, "Val": 100.00},
					 {"Seq": 92, "Val": 100.00},
					 {"Seq": 93, "Val": 100.00},
					 {"Seq": 94, "Val": 100.00},
					 {"Seq": 95, "Val": 100.00},
					 {"Seq": 96, "Val": 100.00},
					 {"Seq": 97, "Val": 100.00},
					 {"Seq": 98, "Val": 100.00},
					 {"Seq": 99, "Val": 100.00},
					 {"Seq": 100, "Val": 100.00},
					 {"Seq": 101, "Val": 100.00},
					 {"Seq": 102, "Val": 100.00},
					 {"Seq": 103, "Val": 100.00},
					 {"Seq": 104, "Val": 100.00},
					 {"Seq": 105, "Val": 100.00},
					 {"Seq": 106, "Val": 100.00},
					 {"Seq": 107, "Val": 100.00},
					 {"Seq": 108, "Val": 100.00},
					 {"Seq": 109, "Val": 100.00},
					 {"Seq": 110, "Val": 100.00},
					 {"Seq": 111, "Val": 100.00},
					 {"Seq": 112, "Val": 100.00},
					 {"Seq": 113, "Val": 100.00},
					 {"Seq": 114, "Val": 100.00},
					 {"Seq": 115, "Val": 100.00},
					 {"Seq": 116, "Val": 100.00},
					 {"Seq": 117, "Val": 100.00},
					 {"Seq": 118, "Val": 100.00},
					 {"Seq": 119, "Val": 100.00},
					 {"Seq": 120, "Val": 100.00},
					 {"Seq": 121, "Val": 100.00},
					 {"Seq": 122, "Val": 100.00},
					 {"Seq": 123, "Val": 100.00},
					 {"Seq": 124, "Val": 100.00},
					 {"Seq": 125, "Val": 100.00},
					 {"Seq": 126, "Val": 100.00},
					 {"Seq": 127, "Val": 100.00},
					 {"Seq": 128, "Val": 100.00},
					 {"Seq": 129, "Val": 100.00},
					 {"Seq": 130, "Val": 100.00},
					 {"Seq": 131, "Val": 100.00},
					 {"Seq": 132, "Val": 100.00},
					 {"Seq": 133, "Val": 100.00},
					 {"Seq": 134, "Val": 100.00},
					 {"Seq": 135, "Val": 100.00},
					 {"Seq": 136, "Val": 100.00},
					 {"Seq": 137, "Val": 100.00},
					 {"Seq": 138, "Val": 100.00},
					 {"Seq": 139, "Val": 100.00},
					 {"Seq": 140, "Val": 100.00},
					 {"Seq": 141, "Val": 100.00},
					 {"Seq": 142, "Val": 100.00},
					 {"Seq": 143, "Val": 100.00},
					 {"Seq": 144, "Val": 100.00}
					 ] 
				}
			}
		}

	},
	 {"LayName": "w03_tempture.png", "LayWidth": 202.000000, "LayHeight": 74.000000, "LayID": 114, "ParentID": 0, "LayIn": -0.47, "LayDur": 4.84, "CompIn": 1.7, "CompDur": 7.54, "NumEffects": 1,
		"SourcePath": "C:/Data/Projects/2010103DProjects/P2_LandscapeSweet_Lite/Paris_02/paris_tempture.png",
		"Parameters":{
			"Transform":{
				 "AnchorPoint": { 
					"X": 0.50, "Y": 0.50, "Z": 0.00
					 }, 
				 "Position": { 
					"Keyframes":[ 
					 { "Seq": 0, 	"X": 360.00, "Y": 320.00, "Z": 0.00	},
					 { "Seq": 1, 	"X": 300.00, "Y": 320.00, "Z": 0.00	}
					 ], 
					"Frames":[ 
					 {"Seq": 0, "X": 359.68, "Y": 320.00, "Z": 0.00},
					 {"Seq": 1, "X": 359.26, "Y": 320.00, "Z": 0.00},
					 {"Seq": 2, "X": 358.85, "Y": 320.00, "Z": 0.00},
					 {"Seq": 3, "X": 358.43, "Y": 320.00, "Z": 0.00},
					 {"Seq": 4, "X": 358.01, "Y": 320.00, "Z": 0.00},
					 {"Seq": 5, "X": 357.59, "Y": 320.00, "Z": 0.00},
					 {"Seq": 6, "X": 357.18, "Y": 320.00, "Z": 0.00},
					 {"Seq": 7, "X": 356.76, "Y": 320.00, "Z": 0.00},
					 {"Seq": 8, "X": 356.34, "Y": 320.00, "Z": 0.00},
					 {"Seq": 9, "X": 355.93, "Y": 320.00, "Z": 0.00},
					 {"Seq": 10, "X": 355.51, "Y": 320.00, "Z": 0.00},
					 {"Seq": 11, "X": 355.10, "Y": 320.00, "Z": 0.00},
					 {"Seq": 12, "X": 354.68, "Y": 320.00, "Z": 0.00},
					 {"Seq": 13, "X": 354.26, "Y": 320.00, "Z": 0.00},
					 {"Seq": 14, "X": 353.85, "Y": 320.00, "Z": 0.00},
					 {"Seq": 15, "X": 353.43, "Y": 320.00, "Z": 0.00},
					 {"Seq": 16, "X": 353.02, "Y": 320.00, "Z": 0.00},
					 {"Seq": 17, "X": 352.60, "Y": 320.00, "Z": 0.00},
					 {"Seq": 18, "X": 352.18, "Y": 320.00, "Z": 0.00},
					 {"Seq": 19, "X": 351.77, "Y": 320.00, "Z": 0.00},
					 {"Seq": 20, "X": 351.35, "Y": 320.00, "Z": 0.00},
					 {"Seq": 21, "X": 350.93, "Y": 320.00, "Z": 0.00},
					 {"Seq": 22, "X": 350.52, "Y": 320.00, "Z": 0.00},
					 {"Seq": 23, "X": 350.10, "Y": 320.00, "Z": 0.00},
					 {"Seq": 24, "X": 349.68, "Y": 320.00, "Z": 0.00},
					 {"Seq": 25, "X": 349.27, "Y": 320.00, "Z": 0.00},
					 {"Seq": 26, "X": 348.85, "Y": 320.00, "Z": 0.00},
					 {"Seq": 27, "X": 348.44, "Y": 320.00, "Z": 0.00},
					 {"Seq": 28, "X": 348.02, "Y": 320.00, "Z": 0.00},
					 {"Seq": 29, "X": 347.60, "Y": 320.00, "Z": 0.00},
					 {"Seq": 30, "X": 347.19, "Y": 320.00, "Z": 0.00},
					 {"Seq": 31, "X": 346.77, "Y": 320.00, "Z": 0.00},
					 {"Seq": 32, "X": 346.36, "Y": 320.00, "Z": 0.00},
					 {"Seq": 33, "X": 345.94, "Y": 320.00, "Z": 0.00},
					 {"Seq": 34, "X": 345.52, "Y": 320.00, "Z": 0.00},
					 {"Seq": 35, "X": 345.11, "Y": 320.00, "Z": 0.00},
					 {"Seq": 36, "X": 344.69, "Y": 320.00, "Z": 0.00},
					 {"Seq": 37, "X": 344.28, "Y": 320.00, "Z": 0.00},
					 {"Seq": 38, "X": 343.86, "Y": 320.00, "Z": 0.00},
					 {"Seq": 39, "X": 343.44, "Y": 320.00, "Z": 0.00},
					 {"Seq": 40, "X": 343.02, "Y": 320.00, "Z": 0.00},
					 {"Seq": 41, "X": 342.61, "Y": 320.00, "Z": 0.00},
					 {"Seq": 42, "X": 342.19, "Y": 320.00, "Z": 0.00},
					 {"Seq": 43, "X": 341.77, "Y": 320.00, "Z": 0.00},
					 {"Seq": 44, "X": 341.36, "Y": 320.00, "Z": 0.00},
					 {"Seq": 45, "X": 340.94, "Y": 320.00, "Z": 0.00},
					 {"Seq": 46, "X": 340.52, "Y": 320.00, "Z": 0.00},
					 {"Seq": 47, "X": 340.10, "Y": 320.00, "Z": 0.00},
					 {"Seq": 48, "X": 339.69, "Y": 320.00, "Z": 0.00},
					 {"Seq": 49, "X": 339.27, "Y": 320.00, "Z": 0.00},
					 {"Seq": 50, "X": 338.85, "Y": 320.00, "Z": 0.00},
					 {"Seq": 51, "X": 338.44, "Y": 320.00, "Z": 0.00},
					 {"Seq": 52, "X": 338.02, "Y": 320.00, "Z": 0.00},
					 {"Seq": 53, "X": 337.60, "Y": 320.00, "Z": 0.00},
					 {"Seq": 54, "X": 337.19, "Y": 320.00, "Z": 0.00},
					 {"Seq": 55, "X": 336.77, "Y": 320.00, "Z": 0.00},
					 {"Seq": 56, "X": 336.35, "Y": 320.00, "Z": 0.00},
					 {"Seq": 57, "X": 335.94, "Y": 320.00, "Z": 0.00},
					 {"Seq": 58, "X": 335.52, "Y": 320.00, "Z": 0.00},
					 {"Seq": 59, "X": 335.11, "Y": 320.00, "Z": 0.00},
					 {"Seq": 60, "X": 334.69, "Y": 320.00, "Z": 0.00},
					 {"Seq": 61, "X": 334.27, "Y": 320.00, "Z": 0.00},
					 {"Seq": 62, "X": 333.86, "Y": 320.00, "Z": 0.00},
					 {"Seq": 63, "X": 333.44, "Y": 320.00, "Z": 0.00},
					 {"Seq": 64, "X": 333.03, "Y": 320.00, "Z": 0.00},
					 {"Seq": 65, "X": 332.61, "Y": 320.00, "Z": 0.00},
					 {"Seq": 66, "X": 332.20, "Y": 320.00, "Z": 0.00},
					 {"Seq": 67, "X": 331.78, "Y": 320.00, "Z": 0.00},
					 {"Seq": 68, "X": 331.36, "Y": 320.00, "Z": 0.00},
					 {"Seq": 69, "X": 330.95, "Y": 320.00, "Z": 0.00},
					 {"Seq": 70, "X": 330.53, "Y": 320.00, "Z": 0.00},
					 {"Seq": 71, "X": 330.12, "Y": 320.00, "Z": 0.00},
					 {"Seq": 72, "X": 329.70, "Y": 320.00, "Z": 0.00},
					 {"Seq": 73, "X": 329.29, "Y": 320.00, "Z": 0.00},
					 {"Seq": 74, "X": 328.87, "Y": 320.00, "Z": 0.00},
					 {"Seq": 75, "X": 328.46, "Y": 320.00, "Z": 0.00},
					 {"Seq": 76, "X": 328.04, "Y": 320.00, "Z": 0.00},
					 {"Seq": 77, "X": 327.63, "Y": 320.00, "Z": 0.00},
					 {"Seq": 78, "X": 327.21, "Y": 320.00, "Z": 0.00},
					 {"Seq": 79, "X": 326.79, "Y": 320.00, "Z": 0.00},
					 {"Seq": 80, "X": 326.38, "Y": 320.00, "Z": 0.00},
					 {"Seq": 81, "X": 325.96, "Y": 320.00, "Z": 0.00},
					 {"Seq": 82, "X": 325.55, "Y": 320.00, "Z": 0.00},
					 {"Seq": 83, "X": 325.13, "Y": 320.00, "Z": 0.00},
					 {"Seq": 84, "X": 324.72, "Y": 320.00, "Z": 0.00},
					 {"Seq": 85, "X": 324.30, "Y": 320.00, "Z": 0.00},
					 {"Seq": 86, "X": 323.88, "Y": 320.00, "Z": 0.00},
					 {"Seq": 87, "X": 323.47, "Y": 320.00, "Z": 0.00},
					 {"Seq": 88, "X": 323.05, "Y": 320.00, "Z": 0.00},
					 {"Seq": 89, "X": 322.64, "Y": 320.00, "Z": 0.00},
					 {"Seq": 90, "X": 322.22, "Y": 320.00, "Z": 0.00},
					 {"Seq": 91, "X": 321.80, "Y": 320.00, "Z": 0.00},
					 {"Seq": 92, "X": 321.39, "Y": 320.00, "Z": 0.00},
					 {"Seq": 93, "X": 320.97, "Y": 320.00, "Z": 0.00},
					 {"Seq": 94, "X": 320.55, "Y": 320.00, "Z": 0.00},
					 {"Seq": 95, "X": 320.14, "Y": 320.00, "Z": 0.00},
					 {"Seq": 96, "X": 319.72, "Y": 320.00, "Z": 0.00},
					 {"Seq": 97, "X": 319.30, "Y": 320.00, "Z": 0.00},
					 {"Seq": 98, "X": 318.89, "Y": 320.00, "Z": 0.00},
					 {"Seq": 99, "X": 318.47, "Y": 320.00, "Z": 0.00},
					 {"Seq": 100, "X": 318.05, "Y": 320.00, "Z": 0.00},
					 {"Seq": 101, "X": 317.64, "Y": 320.00, "Z": 0.00},
					 {"Seq": 102, "X": 317.22, "Y": 320.00, "Z": 0.00},
					 {"Seq": 103, "X": 316.80, "Y": 320.00, "Z": 0.00},
					 {"Seq": 104, "X": 316.39, "Y": 320.00, "Z": 0.00},
					 {"Seq": 105, "X": 315.97, "Y": 320.00, "Z": 0.00},
					 {"Seq": 106, "X": 315.55, "Y": 320.00, "Z": 0.00},
					 {"Seq": 107, "X": 315.14, "Y": 320.00, "Z": 0.00},
					 {"Seq": 108, "X": 314.72, "Y": 320.00, "Z": 0.00},
					 {"Seq": 109, "X": 314.31, "Y": 320.00, "Z": 0.00},
					 {"Seq": 110, "X": 313.89, "Y": 320.00, "Z": 0.00},
					 {"Seq": 111, "X": 313.48, "Y": 320.00, "Z": 0.00},
					 {"Seq": 112, "X": 313.06, "Y": 320.00, "Z": 0.00},
					 {"Seq": 113, "X": 312.64, "Y": 320.00, "Z": 0.00},
					 {"Seq": 114, "X": 312.23, "Y": 320.00, "Z": 0.00},
					 {"Seq": 115, "X": 311.81, "Y": 320.00, "Z": 0.00},
					 {"Seq": 116, "X": 311.40, "Y": 320.00, "Z": 0.00},
					 {"Seq": 117, "X": 310.98, "Y": 320.00, "Z": 0.00},
					 {"Seq": 118, "X": 310.56, "Y": 320.00, "Z": 0.00},
					 {"Seq": 119, "X": 310.15, "Y": 320.00, "Z": 0.00},
					 {"Seq": 120, "X": 309.73, "Y": 320.00, "Z": 0.00},
					 {"Seq": 121, "X": 309.31, "Y": 320.00, "Z": 0.00},
					 {"Seq": 122, "X": 308.90, "Y": 320.00, "Z": 0.00},
					 {"Seq": 123, "X": 308.48, "Y": 320.00, "Z": 0.00},
					 {"Seq": 124, "X": 308.06, "Y": 320.00, "Z": 0.00},
					 {"Seq": 125, "X": 307.65, "Y": 320.00, "Z": 0.00},
					 {"Seq": 126, "X": 307.23, "Y": 320.00, "Z": 0.00},
					 {"Seq": 127, "X": 306.81, "Y": 320.00, "Z": 0.00},
					 {"Seq": 128, "X": 306.40, "Y": 320.00, "Z": 0.00},
					 {"Seq": 129, "X": 305.98, "Y": 320.00, "Z": 0.00},
					 {"Seq": 130, "X": 305.57, "Y": 320.00, "Z": 0.00},
					 {"Seq": 131, "X": 305.15, "Y": 320.00, "Z": 0.00},
					 {"Seq": 132, "X": 304.74, "Y": 320.00, "Z": 0.00},
					 {"Seq": 133, "X": 304.32, "Y": 320.00, "Z": 0.00},
					 {"Seq": 134, "X": 303.90, "Y": 320.00, "Z": 0.00},
					 {"Seq": 135, "X": 303.49, "Y": 320.00, "Z": 0.00},
					 {"Seq": 136, "X": 303.07, "Y": 320.00, "Z": 0.00},
					 {"Seq": 137, "X": 302.65, "Y": 320.00, "Z": 0.00},
					 {"Seq": 138, "X": 302.24, "Y": 320.00, "Z": 0.00},
					 {"Seq": 139, "X": 301.82, "Y": 320.00, "Z": 0.00},
					 {"Seq": 140, "X": 301.40, "Y": 320.00, "Z": 0.00},
					 {"Seq": 141, "X": 300.98, "Y": 320.00, "Z": 0.00},
					 {"Seq": 142, "X": 300.57, "Y": 320.00, "Z": 0.00},
					 {"Seq": 143, "X": 300.15, "Y": 320.00, "Z": 0.00},
					 {"Seq": 144, "X": 300.00, "Y": 320.00, "Z": 0.00}
					 ] 
				}
,				 "Scale": { 
					"X": 100.00, "Y": 100.00, "Z": 100.00
					 }, 
				 "Rotation": { 
					"Val": 0.00
					 }, 
				 "Opacity": { 
					"Keyframes":[ 
					 { "Seq": 0, 	"Val": 0.00	},
					 { "Seq": 1, 	"Val": 100.00	}
					 ], 
					"Frames":[ 
					 {"Seq": 0, "Val": 3.23},
					 {"Seq": 1, "Val": 7.39},
					 {"Seq": 2, "Val": 11.55},
					 {"Seq": 3, "Val": 15.72},
					 {"Seq": 4, "Val": 19.88},
					 {"Seq": 5, "Val": 24.04},
					 {"Seq": 6, "Val": 28.20},
					 {"Seq": 7, "Val": 32.36},
					 {"Seq": 8, "Val": 36.53},
					 {"Seq": 9, "Val": 40.69},
					 {"Seq": 10, "Val": 44.85},
					 {"Seq": 11, "Val": 49.02},
					 {"Seq": 12, "Val": 53.18},
					 {"Seq": 13, "Val": 57.34},
					 {"Seq": 14, "Val": 61.51},
					 {"Seq": 15, "Val": 65.67},
					 {"Seq": 16, "Val": 69.83},
					 {"Seq": 17, "Val": 73.99},
					 {"Seq": 18, "Val": 78.16},
					 {"Seq": 19, "Val": 82.32},
					 {"Seq": 20, "Val": 86.48},
					 {"Seq": 21, "Val": 90.64},
					 {"Seq": 22, "Val": 94.80},
					 {"Seq": 23, "Val": 98.97},
					 {"Seq": 24, "Val": 100.00},
					 {"Seq": 25, "Val": 100.00},
					 {"Seq": 26, "Val": 100.00},
					 {"Seq": 27, "Val": 100.00},
					 {"Seq": 28, "Val": 100.00},
					 {"Seq": 29, "Val": 100.00},
					 {"Seq": 30, "Val": 100.00},
					 {"Seq": 31, "Val": 100.00},
					 {"Seq": 32, "Val": 100.00},
					 {"Seq": 33, "Val": 100.00},
					 {"Seq": 34, "Val": 100.00},
					 {"Seq": 35, "Val": 100.00},
					 {"Seq": 36, "Val": 100.00},
					 {"Seq": 37, "Val": 100.00},
					 {"Seq": 38, "Val": 100.00},
					 {"Seq": 39, "Val": 100.00},
					 {"Seq": 40, "Val": 100.00},
					 {"Seq": 41, "Val": 100.00},
					 {"Seq": 42, "Val": 100.00},
					 {"Seq": 43, "Val": 100.00},
					 {"Seq": 44, "Val": 100.00},
					 {"Seq": 45, "Val": 100.00},
					 {"Seq": 46, "Val": 100.00},
					 {"Seq": 47, "Val": 100.00},
					 {"Seq": 48, "Val": 100.00},
					 {"Seq": 49, "Val": 100.00},
					 {"Seq": 50, "Val": 100.00},
					 {"Seq": 51, "Val": 100.00},
					 {"Seq": 52, "Val": 100.00},
					 {"Seq": 53, "Val": 100.00},
					 {"Seq": 54, "Val": 100.00},
					 {"Seq": 55, "Val": 100.00},
					 {"Seq": 56, "Val": 100.00},
					 {"Seq": 57, "Val": 100.00},
					 {"Seq": 58, "Val": 100.00},
					 {"Seq": 59, "Val": 100.00},
					 {"Seq": 60, "Val": 100.00},
					 {"Seq": 61, "Val": 100.00},
					 {"Seq": 62, "Val": 100.00},
					 {"Seq": 63, "Val": 100.00},
					 {"Seq": 64, "Val": 100.00},
					 {"Seq": 65, "Val": 100.00},
					 {"Seq": 66, "Val": 100.00},
					 {"Seq": 67, "Val": 100.00},
					 {"Seq": 68, "Val": 100.00},
					 {"Seq": 69, "Val": 100.00},
					 {"Seq": 70, "Val": 100.00},
					 {"Seq": 71, "Val": 100.00},
					 {"Seq": 72, "Val": 100.00},
					 {"Seq": 73, "Val": 100.00},
					 {"Seq": 74, "Val": 100.00},
					 {"Seq": 75, "Val": 100.00},
					 {"Seq": 76, "Val": 100.00},
					 {"Seq": 77, "Val": 100.00},
					 {"Seq": 78, "Val": 100.00},
					 {"Seq": 79, "Val": 100.00},
					 {"Seq": 80, "Val": 100.00},
					 {"Seq": 81, "Val": 100.00},
					 {"Seq": 82, "Val": 100.00},
					 {"Seq": 83, "Val": 100.00},
					 {"Seq": 84, "Val": 100.00},
					 {"Seq": 85, "Val": 100.00},
					 {"Seq": 86, "Val": 100.00},
					 {"Seq": 87, "Val": 100.00},
					 {"Seq": 88, "Val": 100.00},
					 {"Seq": 89, "Val": 100.00},
					 {"Seq": 90, "Val": 100.00},
					 {"Seq": 91, "Val": 100.00},
					 {"Seq": 92, "Val": 100.00},
					 {"Seq": 93, "Val": 100.00},
					 {"Seq": 94, "Val": 100.00},
					 {"Seq": 95, "Val": 100.00},
					 {"Seq": 96, "Val": 100.00},
					 {"Seq": 97, "Val": 100.00},
					 {"Seq": 98, "Val": 100.00},
					 {"Seq": 99, "Val": 100.00},
					 {"Seq": 100, "Val": 100.00},
					 {"Seq": 101, "Val": 100.00},
					 {"Seq": 102, "Val": 100.00},
					 {"Seq": 103, "Val": 100.00},
					 {"Seq": 104, "Val": 100.00},
					 {"Seq": 105, "Val": 100.00},
					 {"Seq": 106, "Val": 100.00},
					 {"Seq": 107, "Val": 100.00},
					 {"Seq": 108, "Val": 100.00},
					 {"Seq": 109, "Val": 100.00},
					 {"Seq": 110, "Val": 100.00},
					 {"Seq": 111, "Val": 100.00},
					 {"Seq": 112, "Val": 100.00},
					 {"Seq": 113, "Val": 100.00},
					 {"Seq": 114, "Val": 100.00},
					 {"Seq": 115, "Val": 100.00},
					 {"Seq": 116, "Val": 100.00},
					 {"Seq": 117, "Val": 100.00},
					 {"Seq": 118, "Val": 100.00},
					 {"Seq": 119, "Val": 100.00},
					 {"Seq": 120, "Val": 100.00},
					 {"Seq": 121, "Val": 100.00},
					 {"Seq": 122, "Val": 100.00},
					 {"Seq": 123, "Val": 100.00},
					 {"Seq": 124, "Val": 100.00},
					 {"Seq": 125, "Val": 100.00},
					 {"Seq": 126, "Val": 100.00},
					 {"Seq": 127, "Val": 100.00},
					 {"Seq": 128, "Val": 100.00},
					 {"Seq": 129, "Val": 100.00},
					 {"Seq": 130, "Val": 100.00},
					 {"Seq": 131, "Val": 100.00},
					 {"Seq": 132, "Val": 100.00},
					 {"Seq": 133, "Val": 100.00},
					 {"Seq": 134, "Val": 100.00},
					 {"Seq": 135, "Val": 100.00},
					 {"Seq": 136, "Val": 100.00},
					 {"Seq": 137, "Val": 100.00},
					 {"Seq": 138, "Val": 100.00},
					 {"Seq": 139, "Val": 100.00},
					 {"Seq": 140, "Val": 100.00},
					 {"Seq": 141, "Val": 100.00},
					 {"Seq": 142, "Val": 100.00},
					 {"Seq": 143, "Val": 100.00},
					 {"Seq": 144, "Val": 100.00}
					 ] 
				}
			}
		}

	},
	 {"LayName": "w06_EffileTower.png", "LayWidth": 233.000000, "LayHeight": 387.000000, "LayID": 113, "ParentID": 0, "LayIn": 0.00, "LayDur": 7.54, "CompIn": 0, "CompDur": 7.54, "NumEffects": 0,
		"SourcePath": "//pc10110074/d$/AE_Project/LandscapeSweet_Lite/Paris_02/w06_EffileTower.png",
		"Parameters":{
			"Transform":{
				 "AnchorPoint": { 
					"X": 0.00, "Y": 1.00, "Z": 0.00
					 }, 
				 "Position": { 
					"X": 0.00, "Y": 480.00, "Z": 0.00
					 }, 
				 "Scale": { 
					"X": 100.00, "Y": 100.00, "Z": 100.00
					 }, 
				 "Orientation": { 
					"Keyframes":[ 
					 { "Seq": 0, 	"X": 245.00, "Y": 0.00, "Z": 0.00	},
					 { "Seq": 1, 	"X": 10.00, "Y": 0.00, "Z": 0.00	},
					 { "Seq": 2, 	"X": 350.00, "Y": 0.00, "Z": 0.00	},
					 { "Seq": 3, 	"X": 5.00, "Y": 0.00, "Z": 0.00	},
					 { "Seq": 4, 	"X": 355.00, "Y": 0.00, "Z": 0.00	},
					 { "Seq": 5, 	"X": 0.00, "Y": 0.00, "Z": 0.00	},
					 { "Seq": 6, 	"X": 0.00, "Y": 0.00, "Z": 0.00	},
					 { "Seq": 7, 	"X": 0.00, "Y": 210.00, "Z": 0.00	}
					 ], 
					"Frames":[ 
					 {"Seq": 0, "X": 245.00, "Y": 0.00, "Z": 0.00},
					 {"Seq": 1, "X": 245.00, "Y": 0.00, "Z": 0.00},
					 {"Seq": 2, "X": 245.00, "Y": 0.00, "Z": 0.00},
					 {"Seq": 3, "X": 245.00, "Y": 0.00, "Z": 0.00},
					 {"Seq": 4, "X": 245.00, "Y": 0.00, "Z": 0.00},
					 {"Seq": 5, "X": 245.00, "Y": 0.00, "Z": 0.00},
					 {"Seq": 6, "X": 245.00, "Y": 0.00, "Z": 0.00},
					 {"Seq": 7, "X": 245.00, "Y": 0.00, "Z": 0.00},
					 {"Seq": 8, "X": 245.00, "Y": 0.00, "Z": 0.00},
					 {"Seq": 9, "X": 245.00, "Y": 0.00, "Z": 0.00},
					 {"Seq": 10, "X": 245.00, "Y": 0.00, "Z": 0.00},
					 {"Seq": 11, "X": 245.00, "Y": 0.00, "Z": 0.00},
					 {"Seq": 12, "X": 245.00, "Y": 0.00, "Z": 0.00},
					 {"Seq": 13, "X": 245.00, "Y": 0.00, "Z": 0.00},
					 {"Seq": 14, "X": 245.00, "Y": 0.00, "Z": 0.00},
					 {"Seq": 15, "X": 245.00, "Y": 0.00, "Z": 0.00},
					 {"Seq": 16, "X": 245.00, "Y": 0.00, "Z": 0.00},
					 {"Seq": 17, "X": 245.00, "Y": 0.00, "Z": 0.00},
					 {"Seq": 18, "X": 245.00, "Y": 0.00, "Z": 0.00},
					 {"Seq": 19, "X": 245.00, "Y": 0.00, "Z": 0.00},
					 {"Seq": 20, "X": 245.00, "Y": 0.00, "Z": 0.00},
					 {"Seq": 21, "X": 245.00, "Y": 0.00, "Z": 0.00},
					 {"Seq": 22, "X": 249.78, "Y": 0.00, "Z": 0.00},
					 {"Seq": 23, "X": 255.73, "Y": 0.00, "Z": 0.00},
					 {"Seq": 24, "X": 261.68, "Y": 0.00, "Z": 0.00},
					 {"Seq": 25, "X": 267.63, "Y": 0.00, "Z": 0.00},
					 {"Seq": 26, "X": 273.57, "Y": 0.00, "Z": 0.00},
					 {"Seq": 27, "X": 279.52, "Y": 0.00, "Z": 0.00},
					 {"Seq": 28, "X": 285.46, "Y": 0.00, "Z": 0.00},
					 {"Seq": 29, "X": 291.41, "Y": 0.00, "Z": 0.00},
					 {"Seq": 30, "X": 297.36, "Y": 0.00, "Z": 0.00},
					 {"Seq": 31, "X": 303.30, "Y": 0.00, "Z": 0.00},
					 {"Seq": 32, "X": 309.25, "Y": 0.00, "Z": 0.00},
					 {"Seq": 33, "X": 315.19, "Y": 0.00, "Z": 0.00},
					 {"Seq": 34, "X": 321.15, "Y": 0.00, "Z": 0.00},
					 {"Seq": 35, "X": 327.09, "Y": 0.00, "Z": 0.00},
					 {"Seq": 36, "X": 333.04, "Y": 0.00, "Z": 0.00},
					 {"Seq": 37, "X": 338.98, "Y": 0.00, "Z": 0.00},
					 {"Seq": 38, "X": 344.93, "Y": 0.00, "Z": 0.00},
					 {"Seq": 39, "X": 350.88, "Y": 0.00, "Z": 0.00},
					 {"Seq": 40, "X": 356.82, "Y": 0.00, "Z": 0.00},
					 {"Seq": 41, "X": 2.77, "Y": 0.00, "Z": 0.00},
					 {"Seq": 42, "X": 8.71, "Y": 0.00, "Z": 0.00},
					 {"Seq": 43, "X": 6.09, "Y": 0.00, "Z": 0.00},
					 {"Seq": 44, "X": 1.09, "Y": 0.00, "Z": 0.00},
					 {"Seq": 45, "X": 356.09, "Y": 0.00, "Z": 0.00},
					 {"Seq": 46, "X": 351.10, "Y": 0.00, "Z": 0.00},
					 {"Seq": 47, "X": 352.92, "Y": 0.00, "Z": 0.00},
					 {"Seq": 48, "X": 356.67, "Y": 0.00, "Z": 0.00},
					 {"Seq": 49, "X": 0.42, "Y": 0.00, "Z": 0.00},
					 {"Seq": 50, "X": 4.16, "Y": 0.00, "Z": 0.00},
					 {"Seq": 51, "X": 3.06, "Y": 0.00, "Z": 0.00},
					 {"Seq": 52, "X": 0.57, "Y": 0.00, "Z": 0.00},
					 {"Seq": 53, "X": 358.07, "Y": 0.00, "Z": 0.00},
					 {"Seq": 54, "X": 355.57, "Y": 0.00, "Z": 0.00},
					 {"Seq": 55, "X": 355.96, "Y": 0.00, "Z": 0.00},
					 {"Seq": 56, "X": 357.21, "Y": 0.00, "Z": 0.00},
					 {"Seq": 57, "X": 358.46, "Y": 0.00, "Z": 0.00},
					 {"Seq": 58, "X": 359.71, "Y": 0.00, "Z": 0.00},
					 {"Seq": 59, "X": 0.00, "Y": 0.00, "Z": 0.00},
					 {"Seq": 60, "X": 0.00, "Y": 0.00, "Z": 0.00},
					 {"Seq": 61, "X": 0.00, "Y": 0.00, "Z": 0.00},
					 {"Seq": 62, "X": 0.00, "Y": 0.00, "Z": 0.00},
					 {"Seq": 63, "X": 0.00, "Y": 0.00, "Z": 0.00},
					 {"Seq": 64, "X": 0.00, "Y": 0.00, "Z": 0.00},
					 {"Seq": 65, "X": 0.00, "Y": 0.00, "Z": 0.00},
					 {"Seq": 66, "X": 0.00, "Y": 0.00, "Z": 0.00},
					 {"Seq": 67, "X": 0.00, "Y": 0.00, "Z": 0.00},
					 {"Seq": 68, "X": 0.00, "Y": 0.00, "Z": 0.00},
					 {"Seq": 69, "X": 0.00, "Y": 0.00, "Z": 0.00},
					 {"Seq": 70, "X": 0.00, "Y": 0.00, "Z": 0.00},
					 {"Seq": 71, "X": 0.00, "Y": 0.00, "Z": 0.00},
					 {"Seq": 72, "X": 0.00, "Y": 0.00, "Z": 0.00},
					 {"Seq": 73, "X": 0.00, "Y": 0.00, "Z": 0.00},
					 {"Seq": 74, "X": 0.00, "Y": 0.00, "Z": 0.00},
					 {"Seq": 75, "X": 0.00, "Y": 0.00, "Z": 0.00},
					 {"Seq": 76, "X": 0.00, "Y": 0.00, "Z": 0.00},
					 {"Seq": 77, "X": 0.00, "Y": 0.00, "Z": 0.00},
					 {"Seq": 78, "X": 0.00, "Y": 0.00, "Z": 0.00},
					 {"Seq": 79, "X": 0.00, "Y": 0.00, "Z": 0.00},
					 {"Seq": 80, "X": 0.00, "Y": 0.00, "Z": 0.00},
					 {"Seq": 81, "X": 0.00, "Y": 0.00, "Z": 0.00},
					 {"Seq": 82, "X": 0.00, "Y": 0.00, "Z": 0.00},
					 {"Seq": 83, "X": 0.00, "Y": 0.00, "Z": 0.00},
					 {"Seq": 84, "X": 0.00, "Y": 0.00, "Z": 0.00},
					 {"Seq": 85, "X": 0.00, "Y": 0.00, "Z": 0.00},
					 {"Seq": 86, "X": 0.00, "Y": 0.00, "Z": 0.00},
					 {"Seq": 87, "X": 0.00, "Y": 0.00, "Z": 0.00},
					 {"Seq": 88, "X": 0.00, "Y": 0.00, "Z": 0.00},
					 {"Seq": 89, "X": 0.00, "Y": 0.00, "Z": 0.00},
					 {"Seq": 90, "X": 0.00, "Y": 0.00, "Z": 0.00},
					 {"Seq": 91, "X": 0.00, "Y": 0.00, "Z": 0.00},
					 {"Seq": 92, "X": 0.00, "Y": 0.00, "Z": 0.00},
					 {"Seq": 93, "X": 0.00, "Y": 0.00, "Z": 0.00},
					 {"Seq": 94, "X": 0.00, "Y": 0.00, "Z": 0.00},
					 {"Seq": 95, "X": 0.00, "Y": 0.00, "Z": 0.00},
					 {"Seq": 96, "X": 0.00, "Y": 0.00, "Z": 0.00},
					 {"Seq": 97, "X": 0.00, "Y": 0.00, "Z": 0.00},
					 {"Seq": 98, "X": 0.00, "Y": 0.00, "Z": 0.00},
					 {"Seq": 99, "X": 0.00, "Y": 0.00, "Z": 0.00},
					 {"Seq": 100, "X": 0.00, "Y": 0.00, "Z": 0.00},
					 {"Seq": 101, "X": 0.00, "Y": 0.00, "Z": 0.00},
					 {"Seq": 102, "X": 0.00, "Y": 0.00, "Z": 0.00},
					 {"Seq": 103, "X": 0.00, "Y": 0.00, "Z": 0.00},
					 {"Seq": 104, "X": 0.00, "Y": 0.00, "Z": 0.00},
					 {"Seq": 105, "X": 0.00, "Y": 0.00, "Z": 0.00},
					 {"Seq": 106, "X": 0.00, "Y": 0.00, "Z": 0.00},
					 {"Seq": 107, "X": 0.00, "Y": 0.00, "Z": 0.00},
					 {"Seq": 108, "X": 0.00, "Y": 0.00, "Z": 0.00},
					 {"Seq": 109, "X": 0.00, "Y": 0.00, "Z": 0.00},
					 {"Seq": 110, "X": 0.00, "Y": 0.00, "Z": 0.00},
					 {"Seq": 111, "X": 0.00, "Y": 0.00, "Z": 0.00},
					 {"Seq": 112, "X": 0.00, "Y": 0.00, "Z": 0.00},
					 {"Seq": 113, "X": 0.00, "Y": 0.00, "Z": 0.00},
					 {"Seq": 114, "X": 0.00, "Y": 0.00, "Z": 0.00},
					 {"Seq": 115, "X": 0.00, "Y": 0.00, "Z": 0.00},
					 {"Seq": 116, "X": 0.00, "Y": 0.00, "Z": 0.00},
					 {"Seq": 117, "X": 0.00, "Y": 0.00, "Z": 0.00},
					 {"Seq": 118, "X": 0.00, "Y": 0.00, "Z": 0.00},
					 {"Seq": 119, "X": 0.00, "Y": 0.00, "Z": 0.00},
					 {"Seq": 120, "X": 0.00, "Y": 0.00, "Z": 0.00},
					 {"Seq": 121, "X": 0.00, "Y": 0.00, "Z": 0.00},
					 {"Seq": 122, "X": 0.00, "Y": 0.00, "Z": 0.00},
					 {"Seq": 123, "X": 0.00, "Y": 0.00, "Z": 0.00},
					 {"Seq": 124, "X": 0.00, "Y": 0.00, "Z": 0.00},
					 {"Seq": 125, "X": 0.00, "Y": 0.00, "Z": 0.00},
					 {"Seq": 126, "X": 0.00, "Y": 0.00, "Z": 0.00},
					 {"Seq": 127, "X": 0.00, "Y": 0.00, "Z": 0.00},
					 {"Seq": 128, "X": 0.00, "Y": 0.00, "Z": 0.00},
					 {"Seq": 129, "X": 0.00, "Y": 0.00, "Z": 0.00},
					 {"Seq": 130, "X": 0.00, "Y": 0.00, "Z": 0.00},
					 {"Seq": 131, "X": 0.00, "Y": 0.00, "Z": 0.00},
					 {"Seq": 132, "X": 0.00, "Y": 0.00, "Z": 0.00},
					 {"Seq": 133, "X": 0.00, "Y": 0.00, "Z": 0.00},
					 {"Seq": 134, "X": 0.00, "Y": 0.00, "Z": 0.00},
					 {"Seq": 135, "X": 0.00, "Y": 0.00, "Z": 0.00},
					 {"Seq": 136, "X": 0.00, "Y": 0.00, "Z": 0.00},
					 {"Seq": 137, "X": 0.00, "Y": 0.00, "Z": 0.00},
					 {"Seq": 138, "X": 0.00, "Y": 0.00, "Z": 0.00},
					 {"Seq": 139, "X": 0.00, "Y": 0.00, "Z": 0.00},
					 {"Seq": 140, "X": 0.00, "Y": 0.00, "Z": 0.00},
					 {"Seq": 141, "X": 0.00, "Y": 0.00, "Z": 0.00},
					 {"Seq": 142, "X": 0.00, "Y": 0.00, "Z": 0.00},
					 {"Seq": 143, "X": 0.00, "Y": 0.00, "Z": 0.00},
					 {"Seq": 144, "X": 0.00, "Y": 0.00, "Z": 0.00},
					 {"Seq": 145, "X": 0.00, "Y": 0.00, "Z": 0.00},
					 {"Seq": 146, "X": 0.00, "Y": 0.00, "Z": 0.00},
					 {"Seq": 147, "X": 0.00, "Y": 0.00, "Z": 0.00},
					 {"Seq": 148, "X": 0.00, "Y": 0.00, "Z": 0.00},
					 {"Seq": 149, "X": 0.00, "Y": 0.00, "Z": 0.00},
					 {"Seq": 150, "X": 0.00, "Y": 0.00, "Z": 0.00},
					 {"Seq": 151, "X": 0.00, "Y": 0.00, "Z": 0.00},
					 {"Seq": 152, "X": 0.00, "Y": 0.00, "Z": 0.00},
					 {"Seq": 153, "X": 0.00, "Y": 0.00, "Z": 0.00},
					 {"Seq": 154, "X": 0.00, "Y": 0.00, "Z": 0.00},
					 {"Seq": 155, "X": 0.00, "Y": 0.00, "Z": 0.00},
					 {"Seq": 156, "X": 0.00, "Y": 0.00, "Z": 0.00},
					 {"Seq": 157, "X": 0.00, "Y": 0.00, "Z": 0.00},
					 {"Seq": 158, "X": 0.00, "Y": 0.00, "Z": 0.00},
					 {"Seq": 159, "X": 0.00, "Y": 0.00, "Z": 0.00},
					 {"Seq": 160, "X": 0.00, "Y": 0.00, "Z": 0.00},
					 {"Seq": 161, "X": 0.00, "Y": 0.00, "Z": 0.00},
					 {"Seq": 162, "X": 0.00, "Y": 0.00, "Z": 0.00},
					 {"Seq": 163, "X": 0.00, "Y": 0.00, "Z": 0.00},
					 {"Seq": 164, "X": 0.00, "Y": 0.00, "Z": 0.00},
					 {"Seq": 165, "X": 0.00, "Y": 0.00, "Z": 0.00},
					 {"Seq": 166, "X": 0.00, "Y": 0.00, "Z": 0.00},
					 {"Seq": 167, "X": 0.00, "Y": 0.00, "Z": 0.00},
					 {"Seq": 168, "X": 0.00, "Y": 0.00, "Z": 0.00},
					 {"Seq": 169, "X": 0.00, "Y": 0.00, "Z": 0.00},
					 {"Seq": 170, "X": 0.00, "Y": 0.00, "Z": 0.00},
					 {"Seq": 171, "X": 0.00, "Y": 0.00, "Z": 0.00},
					 {"Seq": 172, "X": 0.00, "Y": 0.00, "Z": 0.00},
					 {"Seq": 173, "X": 0.00, "Y": 0.00, "Z": 0.00},
					 {"Seq": 174, "X": 0.00, "Y": 0.00, "Z": 0.00},
					 {"Seq": 175, "X": 0.00, "Y": 0.00, "Z": 0.00},
					 {"Seq": 176, "X": 0.00, "Y": 0.00, "Z": 0.00},
					 {"Seq": 177, "X": 0.00, "Y": 0.00, "Z": 0.00},
					 {"Seq": 178, "X": 0.00, "Y": 0.00, "Z": 0.00},
					 {"Seq": 179, "X": 0.00, "Y": 0.00, "Z": 0.00},
					 {"Seq": 180, "X": 0.00, "Y": 0.00, "Z": 0.00},
					 {"Seq": 181, "X": 0.00, "Y": 0.00, "Z": 0.00},
					 {"Seq": 182, "X": 0.00, "Y": 0.00, "Z": 0.00},
					 {"Seq": 183, "X": 0.00, "Y": 0.00, "Z": 0.00},
					 {"Seq": 184, "X": 0.00, "Y": 0.00, "Z": 0.00},
					 {"Seq": 185, "X": 0.00, "Y": 0.00, "Z": 0.00},
					 {"Seq": 186, "X": 0.00, "Y": 0.00, "Z": 0.00},
					 {"Seq": 187, "X": 0.00, "Y": 0.00, "Z": 0.00},
					 {"Seq": 188, "X": 0.00, "Y": 0.00, "Z": 0.00},
					 {"Seq": 189, "X": 0.00, "Y": 0.00, "Z": 0.00},
					 {"Seq": 190, "X": 0.00, "Y": 0.00, "Z": 0.00},
					 {"Seq": 191, "X": 0.00, "Y": 0.00, "Z": 0.00},
					 {"Seq": 192, "X": 0.00, "Y": 0.00, "Z": 0.00},
					 {"Seq": 193, "X": 0.00, "Y": 0.00, "Z": 0.00},
					 {"Seq": 194, "X": 0.00, "Y": 0.00, "Z": 0.00},
					 {"Seq": 195, "X": 0.00, "Y": 0.00, "Z": 0.00},
					 {"Seq": 196, "X": 0.00, "Y": 0.00, "Z": 0.00},
					 {"Seq": 197, "X": 0.00, "Y": 0.00, "Z": 0.00},
					 {"Seq": 198, "X": 0.00, "Y": 0.00, "Z": 0.00},
					 {"Seq": 199, "X": 0.00, "Y": 0.00, "Z": 0.00},
					 {"Seq": 200, "X": 0.00, "Y": 0.00, "Z": 0.00},
					 {"Seq": 201, "X": 0.00, "Y": 0.00, "Z": 0.00},
					 {"Seq": 202, "X": 0.00, "Y": 0.00, "Z": 0.00},
					 {"Seq": 203, "X": 0.00, "Y": 0.00, "Z": 0.00},
					 {"Seq": 204, "X": 0.00, "Y": 355.55, "Z": 0.00},
					 {"Seq": 205, "X": 0.00, "Y": 348.42, "Z": 0.00},
					 {"Seq": 206, "X": 0.00, "Y": 341.29, "Z": 0.00},
					 {"Seq": 207, "X": 0.00, "Y": 334.15, "Z": 0.00},
					 {"Seq": 208, "X": 0.00, "Y": 327.02, "Z": 0.00},
					 {"Seq": 209, "X": 0.00, "Y": 319.88, "Z": 0.00},
					 {"Seq": 210, "X": 0.00, "Y": 312.74, "Z": 0.00},
					 {"Seq": 211, "X": 0.00, "Y": 305.61, "Z": 0.00},
					 {"Seq": 212, "X": 0.00, "Y": 298.47, "Z": 0.00},
					 {"Seq": 213, "X": 0.00, "Y": 291.34, "Z": 0.00},
					 {"Seq": 214, "X": 0.00, "Y": 284.20, "Z": 0.00},
					 {"Seq": 215, "X": 0.00, "Y": 277.06, "Z": 0.00},
					 {"Seq": 216, "X": 0.00, "Y": 270.07, "Z": 0.00},
					 {"Seq": 217, "X": 0.00, "Y": 263.21, "Z": 0.00},
					 {"Seq": 218, "X": 0.00, "Y": 250.34, "Z": 0.00},
					 {"Seq": 219, "X": 0.00, "Y": 235.48, "Z": 0.00},
					 {"Seq": 220, "X": 0.00, "Y": 220.62, "Z": 0.00},
					 {"Seq": 221, "X": 0.00, "Y": 200.75, "Z": 0.00},
					 {"Seq": 222, "X": 0.00, "Y": 180.88, "Z": 0.00},
					 {"Seq": 223, "X": 0.00, "Y": 180.02, "Z": 0.00},
					 {"Seq": 224, "X": 0.00, "Y": 180.16, "Z": 0.00},
					 {"Seq": 225, "X": 0.00, "Y": 180.00, "Z": 0.00}
					 ] 
				}
,				 "XRotation": { 
					"Val": 0.00
					 }, 
				 "YRotation": { 
					"Val": 0.00
					 }, 
				 "ZRotation": { 
					"Val": 0.00
					 }, 
				 "Opacity": { 
					"Val": 100.00
					 } 
			}
		}

	},
	 {"LayName": "w04_moon.png", "LayWidth": 217.000000, "LayHeight": 217.000000, "LayID": 112, "ParentID": 0, "LayIn": 0.00, "LayDur": 7.54, "CompIn": 0, "CompDur": 7.54, "NumEffects": 0,
		"SourcePath": "//pc10110074/d$/AE_Project/LandscapeSweet_Lite/Paris_02/w04_moon.png",
		"Parameters":{
			"Transform":{
				 "AnchorPoint": { 
					"X": -0.18, "Y": 2.21, "Z": 0.00
					 }, 
				 "Position": { 
					"X": -40.00, "Y": 500.00, "Z": 100.00
					 }, 
				 "Scale": { 
					"X": 100.00, "Y": 100.00, "Z": 100.00
					 }, 
				 "Orientation": { 
					"Keyframes":[ 
					 { "Seq": 0, 	"X": 245.00, "Y": 0.00, "Z": 0.00	},
					 { "Seq": 1, 	"X": 10.00, "Y": 0.00, "Z": 0.00	},
					 { "Seq": 2, 	"X": 350.00, "Y": 0.00, "Z": 0.00	},
					 { "Seq": 3, 	"X": 5.00, "Y": 0.00, "Z": 0.00	},
					 { "Seq": 4, 	"X": 355.00, "Y": 0.00, "Z": 0.00	},
					 { "Seq": 5, 	"X": 0.00, "Y": 0.00, "Z": 0.00	},
					 { "Seq": 6, 	"X": 0.00, "Y": 0.00, "Z": 0.00	},
					 { "Seq": 7, 	"X": 0.00, "Y": 210.00, "Z": 0.00	}
					 ], 
					"Frames":[ 
					 {"Seq": 0, "X": 245.00, "Y": 0.00, "Z": 0.00},
					 {"Seq": 1, "X": 245.00, "Y": 0.00, "Z": 0.00},
					 {"Seq": 2, "X": 245.00, "Y": 0.00, "Z": 0.00},
					 {"Seq": 3, "X": 245.00, "Y": 0.00, "Z": 0.00},
					 {"Seq": 4, "X": 245.00, "Y": 0.00, "Z": 0.00},
					 {"Seq": 5, "X": 245.00, "Y": 0.00, "Z": 0.00},
					 {"Seq": 6, "X": 245.00, "Y": 0.00, "Z": 0.00},
					 {"Seq": 7, "X": 245.00, "Y": 0.00, "Z": 0.00},
					 {"Seq": 8, "X": 245.00, "Y": 0.00, "Z": 0.00},
					 {"Seq": 9, "X": 245.00, "Y": 0.00, "Z": 0.00},
					 {"Seq": 10, "X": 245.00, "Y": 0.00, "Z": 0.00},
					 {"Seq": 11, "X": 245.00, "Y": 0.00, "Z": 0.00},
					 {"Seq": 12, "X": 245.00, "Y": 0.00, "Z": 0.00},
					 {"Seq": 13, "X": 245.00, "Y": 0.00, "Z": 0.00},
					 {"Seq": 14, "X": 245.00, "Y": 0.00, "Z": 0.00},
					 {"Seq": 15, "X": 245.00, "Y": 0.00, "Z": 0.00},
					 {"Seq": 16, "X": 245.00, "Y": 0.00, "Z": 0.00},
					 {"Seq": 17, "X": 245.00, "Y": 0.00, "Z": 0.00},
					 {"Seq": 18, "X": 245.00, "Y": 0.00, "Z": 0.00},
					 {"Seq": 19, "X": 245.00, "Y": 0.00, "Z": 0.00},
					 {"Seq": 20, "X": 245.00, "Y": 0.00, "Z": 0.00},
					 {"Seq": 21, "X": 245.00, "Y": 0.00, "Z": 0.00},
					 {"Seq": 22, "X": 245.00, "Y": 0.00, "Z": 0.00},
					 {"Seq": 23, "X": 245.00, "Y": 0.00, "Z": 0.00},
					 {"Seq": 24, "X": 245.00, "Y": 0.00, "Z": 0.00},
					 {"Seq": 25, "X": 245.00, "Y": 0.00, "Z": 0.00},
					 {"Seq": 26, "X": 245.00, "Y": 0.00, "Z": 0.00},
					 {"Seq": 27, "X": 245.00, "Y": 0.00, "Z": 0.00},
					 {"Seq": 28, "X": 249.75, "Y": 0.00, "Z": 0.00},
					 {"Seq": 29, "X": 255.70, "Y": 0.00, "Z": 0.00},
					 {"Seq": 30, "X": 261.64, "Y": 0.00, "Z": 0.00},
					 {"Seq": 31, "X": 267.59, "Y": 0.00, "Z": 0.00},
					 {"Seq": 32, "X": 273.53, "Y": 0.00, "Z": 0.00},
					 {"Seq": 33, "X": 279.48, "Y": 0.00, "Z": 0.00},
					 {"Seq": 34, "X": 285.43, "Y": 0.00, "Z": 0.00},
					 {"Seq": 35, "X": 291.38, "Y": 0.00, "Z": 0.00},
					 {"Seq": 36, "X": 297.32, "Y": 0.00, "Z": 0.00},
					 {"Seq": 37, "X": 303.27, "Y": 0.00, "Z": 0.00},
					 {"Seq": 38, "X": 309.21, "Y": 0.00, "Z": 0.00},
					 {"Seq": 39, "X": 315.16, "Y": 0.00, "Z": 0.00},
					 {"Seq": 40, "X": 321.11, "Y": 0.00, "Z": 0.00},
					 {"Seq": 41, "X": 327.05, "Y": 0.00, "Z": 0.00},
					 {"Seq": 42, "X": 333.00, "Y": 0.00, "Z": 0.00},
					 {"Seq": 43, "X": 338.94, "Y": 0.00, "Z": 0.00},
					 {"Seq": 44, "X": 344.90, "Y": 0.00, "Z": 0.00},
					 {"Seq": 45, "X": 350.84, "Y": 0.00, "Z": 0.00},
					 {"Seq": 46, "X": 356.79, "Y": 0.00, "Z": 0.00},
					 {"Seq": 47, "X": 2.73, "Y": 0.00, "Z": 0.00},
					 {"Seq": 48, "X": 8.68, "Y": 0.00, "Z": 0.00},
					 {"Seq": 49, "X": 6.11, "Y": 0.00, "Z": 0.00},
					 {"Seq": 50, "X": 1.12, "Y": 0.00, "Z": 0.00},
					 {"Seq": 51, "X": 356.13, "Y": 0.00, "Z": 0.00},
					 {"Seq": 52, "X": 351.13, "Y": 0.00, "Z": 0.00},
					 {"Seq": 53, "X": 352.90, "Y": 0.00, "Z": 0.00},
					 {"Seq": 54, "X": 356.65, "Y": 0.00, "Z": 0.00},
					 {"Seq": 55, "X": 0.39, "Y": 0.00, "Z": 0.00},
					 {"Seq": 56, "X": 4.14, "Y": 0.00, "Z": 0.00},
					 {"Seq": 57, "X": 3.08, "Y": 0.00, "Z": 0.00},
					 {"Seq": 58, "X": 0.58, "Y": 0.00, "Z": 0.00},
					 {"Seq": 59, "X": 358.08, "Y": 0.00, "Z": 0.00},
					 {"Seq": 60, "X": 355.58, "Y": 0.00, "Z": 0.00},
					 {"Seq": 61, "X": 355.96, "Y": 0.00, "Z": 0.00},
					 {"Seq": 62, "X": 357.20, "Y": 0.00, "Z": 0.00},
					 {"Seq": 63, "X": 358.45, "Y": 0.00, "Z": 0.00},
					 {"Seq": 64, "X": 359.70, "Y": 0.00, "Z": 0.00},
					 {"Seq": 65, "X": 0.00, "Y": 0.00, "Z": 0.00},
					 {"Seq": 66, "X": 0.00, "Y": 0.00, "Z": 0.00},
					 {"Seq": 67, "X": 0.00, "Y": 0.00, "Z": 0.00},
					 {"Seq": 68, "X": 0.00, "Y": 0.00, "Z": 0.00},
					 {"Seq": 69, "X": 0.00, "Y": 0.00, "Z": 0.00},
					 {"Seq": 70, "X": 0.00, "Y": 0.00, "Z": 0.00},
					 {"Seq": 71, "X": 0.00, "Y": 0.00, "Z": 0.00},
					 {"Seq": 72, "X": 0.00, "Y": 0.00, "Z": 0.00},
					 {"Seq": 73, "X": 0.00, "Y": 0.00, "Z": 0.00},
					 {"Seq": 74, "X": 0.00, "Y": 0.00, "Z": 0.00},
					 {"Seq": 75, "X": 0.00, "Y": 0.00, "Z": 0.00},
					 {"Seq": 76, "X": 0.00, "Y": 0.00, "Z": 0.00},
					 {"Seq": 77, "X": 0.00, "Y": 0.00, "Z": 0.00},
					 {"Seq": 78, "X": 0.00, "Y": 0.00, "Z": 0.00},
					 {"Seq": 79, "X": 0.00, "Y": 0.00, "Z": 0.00},
					 {"Seq": 80, "X": 0.00, "Y": 0.00, "Z": 0.00},
					 {"Seq": 81, "X": 0.00, "Y": 0.00, "Z": 0.00},
					 {"Seq": 82, "X": 0.00, "Y": 0.00, "Z": 0.00},
					 {"Seq": 83, "X": 0.00, "Y": 0.00, "Z": 0.00},
					 {"Seq": 84, "X": 0.00, "Y": 0.00, "Z": 0.00},
					 {"Seq": 85, "X": 0.00, "Y": 0.00, "Z": 0.00},
					 {"Seq": 86, "X": 0.00, "Y": 0.00, "Z": 0.00},
					 {"Seq": 87, "X": 0.00, "Y": 0.00, "Z": 0.00},
					 {"Seq": 88, "X": 0.00, "Y": 0.00, "Z": 0.00},
					 {"Seq": 89, "X": 0.00, "Y": 0.00, "Z": 0.00},
					 {"Seq": 90, "X": 0.00, "Y": 0.00, "Z": 0.00},
					 {"Seq": 91, "X": 0.00, "Y": 0.00, "Z": 0.00},
					 {"Seq": 92, "X": 0.00, "Y": 0.00, "Z": 0.00},
					 {"Seq": 93, "X": 0.00, "Y": 0.00, "Z": 0.00},
					 {"Seq": 94, "X": 0.00, "Y": 0.00, "Z": 0.00},
					 {"Seq": 95, "X": 0.00, "Y": 0.00, "Z": 0.00},
					 {"Seq": 96, "X": 0.00, "Y": 0.00, "Z": 0.00},
					 {"Seq": 97, "X": 0.00, "Y": 0.00, "Z": 0.00},
					 {"Seq": 98, "X": 0.00, "Y": 0.00, "Z": 0.00},
					 {"Seq": 99, "X": 0.00, "Y": 0.00, "Z": 0.00},
					 {"Seq": 100, "X": 0.00, "Y": 0.00, "Z": 0.00},
					 {"Seq": 101, "X": 0.00, "Y": 0.00, "Z": 0.00},
					 {"Seq": 102, "X": 0.00, "Y": 0.00, "Z": 0.00},
					 {"Seq": 103, "X": 0.00, "Y": 0.00, "Z": 0.00},
					 {"Seq": 104, "X": 0.00, "Y": 0.00, "Z": 0.00},
					 {"Seq": 105, "X": 0.00, "Y": 0.00, "Z": 0.00},
					 {"Seq": 106, "X": 0.00, "Y": 0.00, "Z": 0.00},
					 {"Seq": 107, "X": 0.00, "Y": 0.00, "Z": 0.00},
					 {"Seq": 108, "X": 0.00, "Y": 0.00, "Z": 0.00},
					 {"Seq": 109, "X": 0.00, "Y": 0.00, "Z": 0.00},
					 {"Seq": 110, "X": 0.00, "Y": 0.00, "Z": 0.00},
					 {"Seq": 111, "X": 0.00, "Y": 0.00, "Z": 0.00},
					 {"Seq": 112, "X": 0.00, "Y": 0.00, "Z": 0.00},
					 {"Seq": 113, "X": 0.00, "Y": 0.00, "Z": 0.00},
					 {"Seq": 114, "X": 0.00, "Y": 0.00, "Z": 0.00},
					 {"Seq": 115, "X": 0.00, "Y": 0.00, "Z": 0.00},
					 {"Seq": 116, "X": 0.00, "Y": 0.00, "Z": 0.00},
					 {"Seq": 117, "X": 0.00, "Y": 0.00, "Z": 0.00},
					 {"Seq": 118, "X": 0.00, "Y": 0.00, "Z": 0.00},
					 {"Seq": 119, "X": 0.00, "Y": 0.00, "Z": 0.00},
					 {"Seq": 120, "X": 0.00, "Y": 0.00, "Z": 0.00},
					 {"Seq": 121, "X": 0.00, "Y": 0.00, "Z": 0.00},
					 {"Seq": 122, "X": 0.00, "Y": 0.00, "Z": 0.00},
					 {"Seq": 123, "X": 0.00, "Y": 0.00, "Z": 0.00},
					 {"Seq": 124, "X": 0.00, "Y": 0.00, "Z": 0.00},
					 {"Seq": 125, "X": 0.00, "Y": 0.00, "Z": 0.00},
					 {"Seq": 126, "X": 0.00, "Y": 0.00, "Z": 0.00},
					 {"Seq": 127, "X": 0.00, "Y": 0.00, "Z": 0.00},
					 {"Seq": 128, "X": 0.00, "Y": 0.00, "Z": 0.00},
					 {"Seq": 129, "X": 0.00, "Y": 0.00, "Z": 0.00},
					 {"Seq": 130, "X": 0.00, "Y": 0.00, "Z": 0.00},
					 {"Seq": 131, "X": 0.00, "Y": 0.00, "Z": 0.00},
					 {"Seq": 132, "X": 0.00, "Y": 0.00, "Z": 0.00},
					 {"Seq": 133, "X": 0.00, "Y": 0.00, "Z": 0.00},
					 {"Seq": 134, "X": 0.00, "Y": 0.00, "Z": 0.00},
					 {"Seq": 135, "X": 0.00, "Y": 0.00, "Z": 0.00},
					 {"Seq": 136, "X": 0.00, "Y": 0.00, "Z": 0.00},
					 {"Seq": 137, "X": 0.00, "Y": 0.00, "Z": 0.00},
					 {"Seq": 138, "X": 0.00, "Y": 0.00, "Z": 0.00},
					 {"Seq": 139, "X": 0.00, "Y": 0.00, "Z": 0.00},
					 {"Seq": 140, "X": 0.00, "Y": 0.00, "Z": 0.00},
					 {"Seq": 141, "X": 0.00, "Y": 0.00, "Z": 0.00},
					 {"Seq": 142, "X": 0.00, "Y": 0.00, "Z": 0.00},
					 {"Seq": 143, "X": 0.00, "Y": 0.00, "Z": 0.00},
					 {"Seq": 144, "X": 0.00, "Y": 0.00, "Z": 0.00},
					 {"Seq": 145, "X": 0.00, "Y": 0.00, "Z": 0.00},
					 {"Seq": 146, "X": 0.00, "Y": 0.00, "Z": 0.00},
					 {"Seq": 147, "X": 0.00, "Y": 0.00, "Z": 0.00},
					 {"Seq": 148, "X": 0.00, "Y": 0.00, "Z": 0.00},
					 {"Seq": 149, "X": 0.00, "Y": 0.00, "Z": 0.00},
					 {"Seq": 150, "X": 0.00, "Y": 0.00, "Z": 0.00},
					 {"Seq": 151, "X": 0.00, "Y": 0.00, "Z": 0.00},
					 {"Seq": 152, "X": 0.00, "Y": 0.00, "Z": 0.00},
					 {"Seq": 153, "X": 0.00, "Y": 0.00, "Z": 0.00},
					 {"Seq": 154, "X": 0.00, "Y": 0.00, "Z": 0.00},
					 {"Seq": 155, "X": 0.00, "Y": 0.00, "Z": 0.00},
					 {"Seq": 156, "X": 0.00, "Y": 0.00, "Z": 0.00},
					 {"Seq": 157, "X": 0.00, "Y": 0.00, "Z": 0.00},
					 {"Seq": 158, "X": 0.00, "Y": 0.00, "Z": 0.00},
					 {"Seq": 159, "X": 0.00, "Y": 0.00, "Z": 0.00},
					 {"Seq": 160, "X": 0.00, "Y": 0.00, "Z": 0.00},
					 {"Seq": 161, "X": 0.00, "Y": 0.00, "Z": 0.00},
					 {"Seq": 162, "X": 0.00, "Y": 0.00, "Z": 0.00},
					 {"Seq": 163, "X": 0.00, "Y": 0.00, "Z": 0.00},
					 {"Seq": 164, "X": 0.00, "Y": 0.00, "Z": 0.00},
					 {"Seq": 165, "X": 0.00, "Y": 0.00, "Z": 0.00},
					 {"Seq": 166, "X": 0.00, "Y": 0.00, "Z": 0.00},
					 {"Seq": 167, "X": 0.00, "Y": 0.00, "Z": 0.00},
					 {"Seq": 168, "X": 0.00, "Y": 0.00, "Z": 0.00},
					 {"Seq": 169, "X": 0.00, "Y": 0.00, "Z": 0.00},
					 {"Seq": 170, "X": 0.00, "Y": 0.00, "Z": 0.00},
					 {"Seq": 171, "X": 0.00, "Y": 0.00, "Z": 0.00},
					 {"Seq": 172, "X": 0.00, "Y": 0.00, "Z": 0.00},
					 {"Seq": 173, "X": 0.00, "Y": 0.00, "Z": 0.00},
					 {"Seq": 174, "X": 0.00, "Y": 0.00, "Z": 0.00},
					 {"Seq": 175, "X": 0.00, "Y": 0.00, "Z": 0.00},
					 {"Seq": 176, "X": 0.00, "Y": 0.00, "Z": 0.00},
					 {"Seq": 177, "X": 0.00, "Y": 0.00, "Z": 0.00},
					 {"Seq": 178, "X": 0.00, "Y": 0.00, "Z": 0.00},
					 {"Seq": 179, "X": 0.00, "Y": 0.00, "Z": 0.00},
					 {"Seq": 180, "X": 0.00, "Y": 0.00, "Z": 0.00},
					 {"Seq": 181, "X": 0.00, "Y": 0.00, "Z": 0.00},
					 {"Seq": 182, "X": 0.00, "Y": 0.00, "Z": 0.00},
					 {"Seq": 183, "X": 0.00, "Y": 0.00, "Z": 0.00},
					 {"Seq": 184, "X": 0.00, "Y": 0.00, "Z": 0.00},
					 {"Seq": 185, "X": 0.00, "Y": 0.00, "Z": 0.00},
					 {"Seq": 186, "X": 0.00, "Y": 0.00, "Z": 0.00},
					 {"Seq": 187, "X": 0.00, "Y": 0.00, "Z": 0.00},
					 {"Seq": 188, "X": 0.00, "Y": 0.00, "Z": 0.00},
					 {"Seq": 189, "X": 0.00, "Y": 0.00, "Z": 0.00},
					 {"Seq": 190, "X": 0.00, "Y": 0.00, "Z": 0.00},
					 {"Seq": 191, "X": 0.00, "Y": 0.00, "Z": 0.00},
					 {"Seq": 192, "X": 0.00, "Y": 0.00, "Z": 0.00},
					 {"Seq": 193, "X": 0.00, "Y": 0.00, "Z": 0.00},
					 {"Seq": 194, "X": 0.00, "Y": 0.00, "Z": 0.00},
					 {"Seq": 195, "X": 0.00, "Y": 0.00, "Z": 0.00},
					 {"Seq": 196, "X": 0.00, "Y": 0.00, "Z": 0.00},
					 {"Seq": 197, "X": 0.00, "Y": 0.00, "Z": 0.00},
					 {"Seq": 198, "X": 0.00, "Y": 0.00, "Z": 0.00},
					 {"Seq": 199, "X": 0.00, "Y": 0.00, "Z": 0.00},
					 {"Seq": 200, "X": 0.00, "Y": 355.53, "Z": 0.00},
					 {"Seq": 201, "X": 0.00, "Y": 348.39, "Z": 0.00},
					 {"Seq": 202, "X": 0.00, "Y": 341.26, "Z": 0.00},
					 {"Seq": 203, "X": 0.00, "Y": 334.13, "Z": 0.00},
					 {"Seq": 204, "X": 0.00, "Y": 326.98, "Z": 0.00},
					 {"Seq": 205, "X": 0.00, "Y": 319.85, "Z": 0.00},
					 {"Seq": 206, "X": 0.00, "Y": 312.71, "Z": 0.00},
					 {"Seq": 207, "X": 0.00, "Y": 305.58, "Z": 0.00},
					 {"Seq": 208, "X": 0.00, "Y": 298.45, "Z": 0.00},
					 {"Seq": 209, "X": 0.00, "Y": 291.30, "Z": 0.00},
					 {"Seq": 210, "X": 0.00, "Y": 284.17, "Z": 0.00},
					 {"Seq": 211, "X": 0.00, "Y": 277.04, "Z": 0.00},
					 {"Seq": 212, "X": 180.00, "Y": 270.10, "Z": 180.00},
					 {"Seq": 213, "X": 180.00, "Y": 277.23, "Z": 180.00},
					 {"Seq": 214, "X": 180.00, "Y": 284.37, "Z": 180.00},
					 {"Seq": 215, "X": 180.00, "Y": 291.51, "Z": 180.00},
					 {"Seq": 216, "X": 180.00, "Y": 298.64, "Z": 180.00},
					 {"Seq": 217, "X": 180.00, "Y": 305.78, "Z": 180.00},
					 {"Seq": 218, "X": 180.00, "Y": 312.91, "Z": 180.00},
					 {"Seq": 219, "X": 180.00, "Y": 320.05, "Z": 180.00},
					 {"Seq": 220, "X": 180.00, "Y": 327.19, "Z": 180.00},
					 {"Seq": 221, "X": 0.00, "Y": 210.00, "Z": 0.00},
					 {"Seq": 222, "X": 0.00, "Y": 210.00, "Z": 0.00},
					 {"Seq": 223, "X": 0.00, "Y": 210.00, "Z": 0.00},
					 {"Seq": 224, "X": 0.00, "Y": 210.00, "Z": 0.00},
					 {"Seq": 225, "X": 0.00, "Y": 210.00, "Z": 0.00}
					 ] 
				}
,				 "XRotation": { 
					"Val": 0.00
					 }, 
				 "YRotation": { 
					"Val": 0.00
					 }, 
				 "ZRotation": { 
					"Val": 0.00
					 }, 
				 "Opacity": { 
					"Val": 100.00
					 } 
			}
		}

	},
	 {"LayName": "w01_time.png", "LayWidth": 661.000000, "LayHeight": 244.000000, "LayID": 111, "ParentID": 0, "LayIn": 0.00, "LayDur": 7.54, "CompIn": 0, "CompDur": 7.54, "NumEffects": 0,
		"SourcePath": "C:/Data/Projects/2010103DProjects/P2_LandscapeSweet_Lite/Paris_02/paris_time.png",
		"Parameters":{
			"Transform":{
				 "AnchorPoint": { 
					"X": -0.23, "Y": 2.01, "Z": 0.00
					 }, 
				 "Position": { 
					"X": -80.00, "Y": 520.00, "Z": 200.00
					 }, 
				 "Scale": { 
					"X": 100.00, "Y": 100.00, "Z": 100.00
					 }, 
				 "Orientation": { 
					"Keyframes":[ 
					 { "Seq": 0, 	"X": 245.00, "Y": 0.00, "Z": 0.00	},
					 { "Seq": 1, 	"X": 10.00, "Y": 0.00, "Z": 0.00	},
					 { "Seq": 2, 	"X": 350.00, "Y": 0.00, "Z": 0.00	},
					 { "Seq": 3, 	"X": 5.00, "Y": 0.00, "Z": 0.00	},
					 { "Seq": 4, 	"X": 355.00, "Y": 0.00, "Z": 0.00	},
					 { "Seq": 5, 	"X": 0.00, "Y": 0.00, "Z": 0.00	},
					 { "Seq": 6, 	"X": 0.00, "Y": 0.00, "Z": 0.00	},
					 { "Seq": 7, 	"X": 0.00, "Y": 210.00, "Z": 0.00	}
					 ], 
					"Frames":[ 
					 {"Seq": 0, "X": 245.00, "Y": 0.00, "Z": 0.00},
					 {"Seq": 1, "X": 245.00, "Y": 0.00, "Z": 0.00},
					 {"Seq": 2, "X": 245.00, "Y": 0.00, "Z": 0.00},
					 {"Seq": 3, "X": 245.00, "Y": 0.00, "Z": 0.00},
					 {"Seq": 4, "X": 245.00, "Y": 0.00, "Z": 0.00},
					 {"Seq": 5, "X": 245.00, "Y": 0.00, "Z": 0.00},
					 {"Seq": 6, "X": 245.00, "Y": 0.00, "Z": 0.00},
					 {"Seq": 7, "X": 245.00, "Y": 0.00, "Z": 0.00},
					 {"Seq": 8, "X": 245.00, "Y": 0.00, "Z": 0.00},
					 {"Seq": 9, "X": 245.00, "Y": 0.00, "Z": 0.00},
					 {"Seq": 10, "X": 245.00, "Y": 0.00, "Z": 0.00},
					 {"Seq": 11, "X": 245.00, "Y": 0.00, "Z": 0.00},
					 {"Seq": 12, "X": 245.00, "Y": 0.00, "Z": 0.00},
					 {"Seq": 13, "X": 245.00, "Y": 0.00, "Z": 0.00},
					 {"Seq": 14, "X": 245.00, "Y": 0.00, "Z": 0.00},
					 {"Seq": 15, "X": 245.00, "Y": 0.00, "Z": 0.00},
					 {"Seq": 16, "X": 245.00, "Y": 0.00, "Z": 0.00},
					 {"Seq": 17, "X": 245.00, "Y": 0.00, "Z": 0.00},
					 {"Seq": 18, "X": 245.00, "Y": 0.00, "Z": 0.00},
					 {"Seq": 19, "X": 245.00, "Y": 0.00, "Z": 0.00},
					 {"Seq": 20, "X": 245.00, "Y": 0.00, "Z": 0.00},
					 {"Seq": 21, "X": 245.00, "Y": 0.00, "Z": 0.00},
					 {"Seq": 22, "X": 245.00, "Y": 0.00, "Z": 0.00},
					 {"Seq": 23, "X": 245.00, "Y": 0.00, "Z": 0.00},
					 {"Seq": 24, "X": 245.00, "Y": 0.00, "Z": 0.00},
					 {"Seq": 25, "X": 245.00, "Y": 0.00, "Z": 0.00},
					 {"Seq": 26, "X": 245.00, "Y": 0.00, "Z": 0.00},
					 {"Seq": 27, "X": 245.00, "Y": 0.00, "Z": 0.00},
					 {"Seq": 28, "X": 245.00, "Y": 0.00, "Z": 0.00},
					 {"Seq": 29, "X": 245.00, "Y": 0.00, "Z": 0.00},
					 {"Seq": 30, "X": 245.00, "Y": 0.00, "Z": 0.00},
					 {"Seq": 31, "X": 245.00, "Y": 0.00, "Z": 0.00},
					 {"Seq": 32, "X": 245.00, "Y": 0.00, "Z": 0.00},
					 {"Seq": 33, "X": 245.00, "Y": 0.00, "Z": 0.00},
					 {"Seq": 34, "X": 249.72, "Y": 0.00, "Z": 0.00},
					 {"Seq": 35, "X": 255.66, "Y": 0.00, "Z": 0.00},
					 {"Seq": 36, "X": 261.61, "Y": 0.00, "Z": 0.00},
					 {"Seq": 37, "X": 267.55, "Y": 0.00, "Z": 0.00},
					 {"Seq": 38, "X": 273.50, "Y": 0.00, "Z": 0.00},
					 {"Seq": 39, "X": 279.45, "Y": 0.00, "Z": 0.00},
					 {"Seq": 40, "X": 285.39, "Y": 0.00, "Z": 0.00},
					 {"Seq": 41, "X": 291.34, "Y": 0.00, "Z": 0.00},
					 {"Seq": 42, "X": 297.28, "Y": 0.00, "Z": 0.00},
					 {"Seq": 43, "X": 303.23, "Y": 0.00, "Z": 0.00},
					 {"Seq": 44, "X": 309.18, "Y": 0.00, "Z": 0.00},
					 {"Seq": 45, "X": 315.13, "Y": 0.00, "Z": 0.00},
					 {"Seq": 46, "X": 321.07, "Y": 0.00, "Z": 0.00},
					 {"Seq": 47, "X": 327.02, "Y": 0.00, "Z": 0.00},
					 {"Seq": 48, "X": 332.96, "Y": 0.00, "Z": 0.00},
					 {"Seq": 49, "X": 338.91, "Y": 0.00, "Z": 0.00},
					 {"Seq": 50, "X": 344.86, "Y": 0.00, "Z": 0.00},
					 {"Seq": 51, "X": 350.80, "Y": 0.00, "Z": 0.00},
					 {"Seq": 52, "X": 356.75, "Y": 0.00, "Z": 0.00},
					 {"Seq": 53, "X": 2.69, "Y": 0.00, "Z": 0.00},
					 {"Seq": 54, "X": 8.65, "Y": 0.00, "Z": 0.00},
					 {"Seq": 55, "X": 6.14, "Y": 0.00, "Z": 0.00},
					 {"Seq": 56, "X": 1.15, "Y": 0.00, "Z": 0.00},
					 {"Seq": 57, "X": 356.16, "Y": 0.00, "Z": 0.00},
					 {"Seq": 58, "X": 351.16, "Y": 0.00, "Z": 0.00},
					 {"Seq": 59, "X": 352.88, "Y": 0.00, "Z": 0.00},
					 {"Seq": 60, "X": 356.62, "Y": 0.00, "Z": 0.00},
					 {"Seq": 61, "X": 0.37, "Y": 0.00, "Z": 0.00},
					 {"Seq": 62, "X": 4.11, "Y": 0.00, "Z": 0.00},
					 {"Seq": 63, "X": 3.09, "Y": 0.00, "Z": 0.00},
					 {"Seq": 64, "X": 0.59, "Y": 0.00, "Z": 0.00},
					 {"Seq": 65, "X": 358.10, "Y": 0.00, "Z": 0.00},
					 {"Seq": 66, "X": 355.60, "Y": 0.00, "Z": 0.00},
					 {"Seq": 67, "X": 355.95, "Y": 0.00, "Z": 0.00},
					 {"Seq": 68, "X": 357.20, "Y": 0.00, "Z": 0.00},
					 {"Seq": 69, "X": 358.45, "Y": 0.00, "Z": 0.00},
					 {"Seq": 70, "X": 359.70, "Y": 0.00, "Z": 0.00},
					 {"Seq": 71, "X": 0.00, "Y": 0.00, "Z": 0.00},
					 {"Seq": 72, "X": 0.00, "Y": 0.00, "Z": 0.00},
					 {"Seq": 73, "X": 0.00, "Y": 0.00, "Z": 0.00},
					 {"Seq": 74, "X": 0.00, "Y": 0.00, "Z": 0.00},
					 {"Seq": 75, "X": 0.00, "Y": 0.00, "Z": 0.00},
					 {"Seq": 76, "X": 0.00, "Y": 0.00, "Z": 0.00},
					 {"Seq": 77, "X": 0.00, "Y": 0.00, "Z": 0.00},
					 {"Seq": 78, "X": 0.00, "Y": 0.00, "Z": 0.00},
					 {"Seq": 79, "X": 0.00, "Y": 0.00, "Z": 0.00},
					 {"Seq": 80, "X": 0.00, "Y": 0.00, "Z": 0.00},
					 {"Seq": 81, "X": 0.00, "Y": 0.00, "Z": 0.00},
					 {"Seq": 82, "X": 0.00, "Y": 0.00, "Z": 0.00},
					 {"Seq": 83, "X": 0.00, "Y": 0.00, "Z": 0.00},
					 {"Seq": 84, "X": 0.00, "Y": 0.00, "Z": 0.00},
					 {"Seq": 85, "X": 0.00, "Y": 0.00, "Z": 0.00},
					 {"Seq": 86, "X": 0.00, "Y": 0.00, "Z": 0.00},
					 {"Seq": 87, "X": 0.00, "Y": 0.00, "Z": 0.00},
					 {"Seq": 88, "X": 0.00, "Y": 0.00, "Z": 0.00},
					 {"Seq": 89, "X": 0.00, "Y": 0.00, "Z": 0.00},
					 {"Seq": 90, "X": 0.00, "Y": 0.00, "Z": 0.00},
					 {"Seq": 91, "X": 0.00, "Y": 0.00, "Z": 0.00},
					 {"Seq": 92, "X": 0.00, "Y": 0.00, "Z": 0.00},
					 {"Seq": 93, "X": 0.00, "Y": 0.00, "Z": 0.00},
					 {"Seq": 94, "X": 0.00, "Y": 0.00, "Z": 0.00},
					 {"Seq": 95, "X": 0.00, "Y": 0.00, "Z": 0.00},
					 {"Seq": 96, "X": 0.00, "Y": 0.00, "Z": 0.00},
					 {"Seq": 97, "X": 0.00, "Y": 0.00, "Z": 0.00},
					 {"Seq": 98, "X": 0.00, "Y": 0.00, "Z": 0.00},
					 {"Seq": 99, "X": 0.00, "Y": 0.00, "Z": 0.00},
					 {"Seq": 100, "X": 0.00, "Y": 0.00, "Z": 0.00},
					 {"Seq": 101, "X": 0.00, "Y": 0.00, "Z": 0.00},
					 {"Seq": 102, "X": 0.00, "Y": 0.00, "Z": 0.00},
					 {"Seq": 103, "X": 0.00, "Y": 0.00, "Z": 0.00},
					 {"Seq": 104, "X": 0.00, "Y": 0.00, "Z": 0.00},
					 {"Seq": 105, "X": 0.00, "Y": 0.00, "Z": 0.00},
					 {"Seq": 106, "X": 0.00, "Y": 0.00, "Z": 0.00},
					 {"Seq": 107, "X": 0.00, "Y": 0.00, "Z": 0.00},
					 {"Seq": 108, "X": 0.00, "Y": 0.00, "Z": 0.00},
					 {"Seq": 109, "X": 0.00, "Y": 0.00, "Z": 0.00},
					 {"Seq": 110, "X": 0.00, "Y": 0.00, "Z": 0.00},
					 {"Seq": 111, "X": 0.00, "Y": 0.00, "Z": 0.00},
					 {"Seq": 112, "X": 0.00, "Y": 0.00, "Z": 0.00},
					 {"Seq": 113, "X": 0.00, "Y": 0.00, "Z": 0.00},
					 {"Seq": 114, "X": 0.00, "Y": 0.00, "Z": 0.00},
					 {"Seq": 115, "X": 0.00, "Y": 0.00, "Z": 0.00},
					 {"Seq": 116, "X": 0.00, "Y": 0.00, "Z": 0.00},
					 {"Seq": 117, "X": 0.00, "Y": 0.00, "Z": 0.00},
					 {"Seq": 118, "X": 0.00, "Y": 0.00, "Z": 0.00},
					 {"Seq": 119, "X": 0.00, "Y": 0.00, "Z": 0.00},
					 {"Seq": 120, "X": 0.00, "Y": 0.00, "Z": 0.00},
					 {"Seq": 121, "X": 0.00, "Y": 0.00, "Z": 0.00},
					 {"Seq": 122, "X": 0.00, "Y": 0.00, "Z": 0.00},
					 {"Seq": 123, "X": 0.00, "Y": 0.00, "Z": 0.00},
					 {"Seq": 124, "X": 0.00, "Y": 0.00, "Z": 0.00},
					 {"Seq": 125, "X": 0.00, "Y": 0.00, "Z": 0.00},
					 {"Seq": 126, "X": 0.00, "Y": 0.00, "Z": 0.00},
					 {"Seq": 127, "X": 0.00, "Y": 0.00, "Z": 0.00},
					 {"Seq": 128, "X": 0.00, "Y": 0.00, "Z": 0.00},
					 {"Seq": 129, "X": 0.00, "Y": 0.00, "Z": 0.00},
					 {"Seq": 130, "X": 0.00, "Y": 0.00, "Z": 0.00},
					 {"Seq": 131, "X": 0.00, "Y": 0.00, "Z": 0.00},
					 {"Seq": 132, "X": 0.00, "Y": 0.00, "Z": 0.00},
					 {"Seq": 133, "X": 0.00, "Y": 0.00, "Z": 0.00},
					 {"Seq": 134, "X": 0.00, "Y": 0.00, "Z": 0.00},
					 {"Seq": 135, "X": 0.00, "Y": 0.00, "Z": 0.00},
					 {"Seq": 136, "X": 0.00, "Y": 0.00, "Z": 0.00},
					 {"Seq": 137, "X": 0.00, "Y": 0.00, "Z": 0.00},
					 {"Seq": 138, "X": 0.00, "Y": 0.00, "Z": 0.00},
					 {"Seq": 139, "X": 0.00, "Y": 0.00, "Z": 0.00},
					 {"Seq": 140, "X": 0.00, "Y": 0.00, "Z": 0.00},
					 {"Seq": 141, "X": 0.00, "Y": 0.00, "Z": 0.00},
					 {"Seq": 142, "X": 0.00, "Y": 0.00, "Z": 0.00},
					 {"Seq": 143, "X": 0.00, "Y": 0.00, "Z": 0.00},
					 {"Seq": 144, "X": 0.00, "Y": 0.00, "Z": 0.00},
					 {"Seq": 145, "X": 0.00, "Y": 0.00, "Z": 0.00},
					 {"Seq": 146, "X": 0.00, "Y": 0.00, "Z": 0.00},
					 {"Seq": 147, "X": 0.00, "Y": 0.00, "Z": 0.00},
					 {"Seq": 148, "X": 0.00, "Y": 0.00, "Z": 0.00},
					 {"Seq": 149, "X": 0.00, "Y": 0.00, "Z": 0.00},
					 {"Seq": 150, "X": 0.00, "Y": 0.00, "Z": 0.00},
					 {"Seq": 151, "X": 0.00, "Y": 0.00, "Z": 0.00},
					 {"Seq": 152, "X": 0.00, "Y": 0.00, "Z": 0.00},
					 {"Seq": 153, "X": 0.00, "Y": 0.00, "Z": 0.00},
					 {"Seq": 154, "X": 0.00, "Y": 0.00, "Z": 0.00},
					 {"Seq": 155, "X": 0.00, "Y": 0.00, "Z": 0.00},
					 {"Seq": 156, "X": 0.00, "Y": 0.00, "Z": 0.00},
					 {"Seq": 157, "X": 0.00, "Y": 0.00, "Z": 0.00},
					 {"Seq": 158, "X": 0.00, "Y": 0.00, "Z": 0.00},
					 {"Seq": 159, "X": 0.00, "Y": 0.00, "Z": 0.00},
					 {"Seq": 160, "X": 0.00, "Y": 0.00, "Z": 0.00},
					 {"Seq": 161, "X": 0.00, "Y": 0.00, "Z": 0.00},
					 {"Seq": 162, "X": 0.00, "Y": 0.00, "Z": 0.00},
					 {"Seq": 163, "X": 0.00, "Y": 0.00, "Z": 0.00},
					 {"Seq": 164, "X": 0.00, "Y": 0.00, "Z": 0.00},
					 {"Seq": 165, "X": 0.00, "Y": 0.00, "Z": 0.00},
					 {"Seq": 166, "X": 0.00, "Y": 0.00, "Z": 0.00},
					 {"Seq": 167, "X": 0.00, "Y": 0.00, "Z": 0.00},
					 {"Seq": 168, "X": 0.00, "Y": 0.00, "Z": 0.00},
					 {"Seq": 169, "X": 0.00, "Y": 0.00, "Z": 0.00},
					 {"Seq": 170, "X": 0.00, "Y": 0.00, "Z": 0.00},
					 {"Seq": 171, "X": 0.00, "Y": 0.00, "Z": 0.00},
					 {"Seq": 172, "X": 0.00, "Y": 0.00, "Z": 0.00},
					 {"Seq": 173, "X": 0.00, "Y": 0.00, "Z": 0.00},
					 {"Seq": 174, "X": 0.00, "Y": 0.00, "Z": 0.00},
					 {"Seq": 175, "X": 0.00, "Y": 0.00, "Z": 0.00},
					 {"Seq": 176, "X": 0.00, "Y": 0.00, "Z": 0.00},
					 {"Seq": 177, "X": 0.00, "Y": 0.00, "Z": 0.00},
					 {"Seq": 178, "X": 0.00, "Y": 0.00, "Z": 0.00},
					 {"Seq": 179, "X": 0.00, "Y": 0.00, "Z": 0.00},
					 {"Seq": 180, "X": 0.00, "Y": 0.00, "Z": 0.00},
					 {"Seq": 181, "X": 0.00, "Y": 0.00, "Z": 0.00},
					 {"Seq": 182, "X": 0.00, "Y": 0.00, "Z": 0.00},
					 {"Seq": 183, "X": 0.00, "Y": 0.00, "Z": 0.00},
					 {"Seq": 184, "X": 0.00, "Y": 0.00, "Z": 0.00},
					 {"Seq": 185, "X": 0.00, "Y": 0.00, "Z": 0.00},
					 {"Seq": 186, "X": 0.00, "Y": 0.00, "Z": 0.00},
					 {"Seq": 187, "X": 0.00, "Y": 0.00, "Z": 0.00},
					 {"Seq": 188, "X": 0.00, "Y": 0.00, "Z": 0.00},
					 {"Seq": 189, "X": 0.00, "Y": 0.00, "Z": 0.00},
					 {"Seq": 190, "X": 0.00, "Y": 0.00, "Z": 0.00},
					 {"Seq": 191, "X": 0.00, "Y": 0.00, "Z": 0.00},
					 {"Seq": 192, "X": 0.00, "Y": 0.00, "Z": 0.00},
					 {"Seq": 193, "X": 0.00, "Y": 0.00, "Z": 0.00},
					 {"Seq": 194, "X": 0.00, "Y": 0.00, "Z": 0.00},
					 {"Seq": 195, "X": 0.00, "Y": 355.49, "Z": 0.00},
					 {"Seq": 196, "X": 0.00, "Y": 348.36, "Z": 0.00},
					 {"Seq": 197, "X": 0.00, "Y": 341.22, "Z": 0.00},
					 {"Seq": 198, "X": 0.00, "Y": 334.09, "Z": 0.00},
					 {"Seq": 199, "X": 0.00, "Y": 326.95, "Z": 0.00},
					 {"Seq": 200, "X": 0.00, "Y": 319.81, "Z": 0.00},
					 {"Seq": 201, "X": 0.00, "Y": 312.68, "Z": 0.00},
					 {"Seq": 202, "X": 0.00, "Y": 305.54, "Z": 0.00},
					 {"Seq": 203, "X": 0.00, "Y": 298.41, "Z": 0.00},
					 {"Seq": 204, "X": 0.00, "Y": 291.27, "Z": 0.00},
					 {"Seq": 205, "X": 0.00, "Y": 284.13, "Z": 0.00},
					 {"Seq": 206, "X": 0.00, "Y": 277.00, "Z": 0.00},
					 {"Seq": 207, "X": 0.00, "Y": 270.13, "Z": 0.00},
					 {"Seq": 208, "X": 0.00, "Y": 263.27, "Z": 0.00},
					 {"Seq": 209, "X": 0.00, "Y": 256.41, "Z": 0.00},
					 {"Seq": 210, "X": 0.00, "Y": 249.54, "Z": 0.00},
					 {"Seq": 211, "X": 0.00, "Y": 242.68, "Z": 0.00},
					 {"Seq": 212, "X": 0.00, "Y": 235.81, "Z": 0.00},
					 {"Seq": 213, "X": 0.00, "Y": 228.95, "Z": 0.00},
					 {"Seq": 214, "X": 0.00, "Y": 221.09, "Z": 0.00},
					 {"Seq": 215, "X": 0.00, "Y": 214.22, "Z": 0.00},
					 {"Seq": 216, "X": 0.00, "Y": 207.00, "Z": 0.00},
					 {"Seq": 217, "X": 0.00, "Y": 200.00, "Z": 0.00},
					 {"Seq": 218, "X": 0.00, "Y": 193.00, "Z": 0.00},
					 {"Seq": 219, "X": 0.00, "Y": 186.00, "Z": 0.00},
					 {"Seq": 220, "X": 0.00, "Y": 180.00, "Z": 0.00},
					 {"Seq": 221, "X": 0.00, "Y": 210.00, "Z": 0.00},
					 {"Seq": 222, "X": 0.00, "Y": 210.00, "Z": 0.00},
					 {"Seq": 223, "X": 0.00, "Y": 210.00, "Z": 0.00},
					 {"Seq": 224, "X": 0.00, "Y": 210.00, "Z": 0.00},
					 {"Seq": 225, "X": 0.00, "Y": 210.00, "Z": 0.00}
					 ] 
				}
,				 "XRotation": { 
					"Val": 0.00
					 }, 
				 "YRotation": { 
					"Val": 0.00
					 }, 
				 "ZRotation": { 
					"Val": 0.00
					 }, 
				 "Opacity": { 
					"Val": 100.00
					 } 
			}
		}

	}
]
}
]}
}

