{
Name: "LandscapeSweet.aep", 
"Compositions": [{ "Name": "Landscape_Screen", "Dur": 20.02, "Curr": 18.32, "Width": 800, "Height": 480,"NumLayers": 23,
"Layers": [
{"LayName": "Camera1", "LayWidth": 0.000000, "LayHeight": 0.000000, "LayID": 68, "ParentID": 0, "LayIn": 0.00, "LayDur": 20.02, "CompIn": 0.00, "CompDur": 20.02, "Curr": 14.38, "NumEffects": 0, "ObjectType": 2,
		"SourcePath": null,
		"Parameters":{
			"Transform":{
				 "PointOfInterest": { 
					"X": 400.00, "Y": 240.00, "Z": 0.00, "Units": "pixels"
					 }, 
				 "Position": { 
					"X": 400.00, "Y": 240.00, "Z": -1111.00, "Units": "pixels"
					 }, 
				 "Orientation": { 
					"X": 0.00, "Y": 0.00, "Z": 0.00, "Units": "degrees"
					 }, 
				 "XRotation": { 
					"Val": 0.00, "Units": "degrees"
					 }, 
				 "YRotation": { 
					"Val": 0.00, "Units": "degrees"
					 }, 
				 "ZRotation": { 
					"Val": 0.00, "Units": "degrees"
					 }, 

					 "HIDDEN":{ "Val": null}			},
			"CameraOptions":[
				{"Name": "Zoom", 
					"Val": 1111.00, "Units": "pixels"
					 }, 
				{"Name": "DepthofField", 
					"Val": 0.00, "Units": ""
					 }, 
				{"Name": "FocusDistance", 
					"Val": 1111.00, "Units": "pixels"
					 }, 
				{"Name": "Aperture", 
					"Val": 25.31, "Units": "pixels"
					 }, 
				{"Name": "BlurLevel", 
					"Val": 100.00, "Units": "percent"
					 } 
			]
		}

	},
	{"LayName": "w04_location.png", "LayWidth": 289.000000, "LayHeight": 98.000000, "LayID": 122, "ParentID": 0, "LayIn": -0.47, "LayDur": 4.84, "CompIn": 1.70, "CompDur": 7.27, "NumEffects": 1,
		"SourcePath": "C:/Data/Projects/2010103DProjects/P2_LandscapeSweet_Lite/Taipei_01/taipei_location.png",
		"Parameters":{
			"Transform":{
				 "AnchorPoint": { 
					"X": 0.50, "Y": 0.50, "Z": 0.00
					 }, 
				 "Position": { 
					"Keyframes":[ 
					 { "Seq": 0, 	"X": 500.00, "Y": 420.00, "Z": 0.00	},
					 { "Seq": 1, 	"X": 560.00, "Y": 420.00, "Z": 0.00	}
					 ], 
					"Frames":[ 
					 {"Seq": 0, "X": 500.39, "Y": 420.00, "Z": 0.00},
					 {"Seq": 1, "X": 500.81, "Y": 420.00, "Z": 0.00},
					 {"Seq": 2, "X": 501.23, "Y": 420.00, "Z": 0.00},
					 {"Seq": 3, "X": 501.64, "Y": 420.00, "Z": 0.00},
					 {"Seq": 4, "X": 502.06, "Y": 420.00, "Z": 0.00},
					 {"Seq": 5, "X": 502.48, "Y": 420.00, "Z": 0.00},
					 {"Seq": 6, "X": 502.90, "Y": 420.00, "Z": 0.00},
					 {"Seq": 7, "X": 503.31, "Y": 420.00, "Z": 0.00},
					 {"Seq": 8, "X": 503.73, "Y": 420.00, "Z": 0.00},
					 {"Seq": 9, "X": 504.14, "Y": 420.00, "Z": 0.00},
					 {"Seq": 10, "X": 504.56, "Y": 420.00, "Z": 0.00},
					 {"Seq": 11, "X": 504.98, "Y": 420.00, "Z": 0.00},
					 {"Seq": 12, "X": 505.39, "Y": 420.00, "Z": 0.00},
					 {"Seq": 13, "X": 505.81, "Y": 420.00, "Z": 0.00},
					 {"Seq": 14, "X": 506.22, "Y": 420.00, "Z": 0.00},
					 {"Seq": 15, "X": 506.64, "Y": 420.00, "Z": 0.00},
					 {"Seq": 16, "X": 507.06, "Y": 420.00, "Z": 0.00},
					 {"Seq": 17, "X": 507.47, "Y": 420.00, "Z": 0.00},
					 {"Seq": 18, "X": 507.89, "Y": 420.00, "Z": 0.00},
					 {"Seq": 19, "X": 508.30, "Y": 420.00, "Z": 0.00},
					 {"Seq": 20, "X": 508.72, "Y": 420.00, "Z": 0.00},
					 {"Seq": 21, "X": 509.14, "Y": 420.00, "Z": 0.00},
					 {"Seq": 22, "X": 509.56, "Y": 420.00, "Z": 0.00},
					 {"Seq": 23, "X": 509.97, "Y": 420.00, "Z": 0.00},
					 {"Seq": 24, "X": 510.39, "Y": 420.00, "Z": 0.00},
					 {"Seq": 25, "X": 510.80, "Y": 420.00, "Z": 0.00},
					 {"Seq": 26, "X": 511.22, "Y": 420.00, "Z": 0.00},
					 {"Seq": 27, "X": 511.64, "Y": 420.00, "Z": 0.00},
					 {"Seq": 28, "X": 512.05, "Y": 420.00, "Z": 0.00},
					 {"Seq": 29, "X": 512.47, "Y": 420.00, "Z": 0.00},
					 {"Seq": 30, "X": 512.89, "Y": 420.00, "Z": 0.00},
					 {"Seq": 31, "X": 513.30, "Y": 420.00, "Z": 0.00},
					 {"Seq": 32, "X": 513.72, "Y": 420.00, "Z": 0.00},
					 {"Seq": 33, "X": 514.13, "Y": 420.00, "Z": 0.00},
					 {"Seq": 34, "X": 514.55, "Y": 420.00, "Z": 0.00},
					 {"Seq": 35, "X": 514.96, "Y": 420.00, "Z": 0.00},
					 {"Seq": 36, "X": 515.38, "Y": 420.00, "Z": 0.00},
					 {"Seq": 37, "X": 515.80, "Y": 420.00, "Z": 0.00},
					 {"Seq": 38, "X": 516.21, "Y": 420.00, "Z": 0.00},
					 {"Seq": 39, "X": 516.63, "Y": 420.00, "Z": 0.00},
					 {"Seq": 40, "X": 517.05, "Y": 420.00, "Z": 0.00},
					 {"Seq": 41, "X": 517.46, "Y": 420.00, "Z": 0.00},
					 {"Seq": 42, "X": 517.88, "Y": 420.00, "Z": 0.00},
					 {"Seq": 43, "X": 518.30, "Y": 420.00, "Z": 0.00},
					 {"Seq": 44, "X": 518.71, "Y": 420.00, "Z": 0.00},
					 {"Seq": 45, "X": 519.13, "Y": 420.00, "Z": 0.00},
					 {"Seq": 46, "X": 519.55, "Y": 420.00, "Z": 0.00},
					 {"Seq": 47, "X": 519.96, "Y": 420.00, "Z": 0.00},
					 {"Seq": 48, "X": 520.38, "Y": 420.00, "Z": 0.00},
					 {"Seq": 49, "X": 520.80, "Y": 420.00, "Z": 0.00},
					 {"Seq": 50, "X": 521.21, "Y": 420.00, "Z": 0.00},
					 {"Seq": 51, "X": 521.63, "Y": 420.00, "Z": 0.00},
					 {"Seq": 52, "X": 522.05, "Y": 420.00, "Z": 0.00},
					 {"Seq": 53, "X": 522.46, "Y": 420.00, "Z": 0.00},
					 {"Seq": 54, "X": 522.88, "Y": 420.00, "Z": 0.00},
					 {"Seq": 55, "X": 523.29, "Y": 420.00, "Z": 0.00},
					 {"Seq": 56, "X": 523.71, "Y": 420.00, "Z": 0.00},
					 {"Seq": 57, "X": 524.13, "Y": 420.00, "Z": 0.00},
					 {"Seq": 58, "X": 524.54, "Y": 420.00, "Z": 0.00},
					 {"Seq": 59, "X": 524.96, "Y": 420.00, "Z": 0.00},
					 {"Seq": 60, "X": 525.37, "Y": 420.00, "Z": 0.00},
					 {"Seq": 61, "X": 525.79, "Y": 420.00, "Z": 0.00},
					 {"Seq": 62, "X": 526.21, "Y": 420.00, "Z": 0.00},
					 {"Seq": 63, "X": 526.62, "Y": 420.00, "Z": 0.00},
					 {"Seq": 64, "X": 527.04, "Y": 420.00, "Z": 0.00},
					 {"Seq": 65, "X": 527.45, "Y": 420.00, "Z": 0.00},
					 {"Seq": 66, "X": 527.87, "Y": 420.00, "Z": 0.00},
					 {"Seq": 67, "X": 528.28, "Y": 420.00, "Z": 0.00},
					 {"Seq": 68, "X": 528.70, "Y": 420.00, "Z": 0.00},
					 {"Seq": 69, "X": 529.11, "Y": 420.00, "Z": 0.00},
					 {"Seq": 70, "X": 529.53, "Y": 420.00, "Z": 0.00},
					 {"Seq": 71, "X": 529.94, "Y": 420.00, "Z": 0.00},
					 {"Seq": 72, "X": 530.36, "Y": 420.00, "Z": 0.00},
					 {"Seq": 73, "X": 530.77, "Y": 420.00, "Z": 0.00},
					 {"Seq": 74, "X": 531.19, "Y": 420.00, "Z": 0.00},
					 {"Seq": 75, "X": 531.61, "Y": 420.00, "Z": 0.00},
					 {"Seq": 76, "X": 532.02, "Y": 420.00, "Z": 0.00},
					 {"Seq": 77, "X": 532.44, "Y": 420.00, "Z": 0.00},
					 {"Seq": 78, "X": 532.85, "Y": 420.00, "Z": 0.00},
					 {"Seq": 79, "X": 533.27, "Y": 420.00, "Z": 0.00},
					 {"Seq": 80, "X": 533.68, "Y": 420.00, "Z": 0.00},
					 {"Seq": 81, "X": 534.10, "Y": 420.00, "Z": 0.00},
					 {"Seq": 82, "X": 534.52, "Y": 420.00, "Z": 0.00},
					 {"Seq": 83, "X": 534.93, "Y": 420.00, "Z": 0.00},
					 {"Seq": 84, "X": 535.35, "Y": 420.00, "Z": 0.00},
					 {"Seq": 85, "X": 535.76, "Y": 420.00, "Z": 0.00},
					 {"Seq": 86, "X": 536.18, "Y": 420.00, "Z": 0.00},
					 {"Seq": 87, "X": 536.60, "Y": 420.00, "Z": 0.00},
					 {"Seq": 88, "X": 537.01, "Y": 420.00, "Z": 0.00},
					 {"Seq": 89, "X": 537.43, "Y": 420.00, "Z": 0.00},
					 {"Seq": 90, "X": 537.85, "Y": 420.00, "Z": 0.00},
					 {"Seq": 91, "X": 538.26, "Y": 420.00, "Z": 0.00},
					 {"Seq": 92, "X": 538.68, "Y": 420.00, "Z": 0.00},
					 {"Seq": 93, "X": 539.10, "Y": 420.00, "Z": 0.00},
					 {"Seq": 94, "X": 539.51, "Y": 420.00, "Z": 0.00},
					 {"Seq": 95, "X": 539.93, "Y": 420.00, "Z": 0.00},
					 {"Seq": 96, "X": 540.35, "Y": 420.00, "Z": 0.00},
					 {"Seq": 97, "X": 540.76, "Y": 420.00, "Z": 0.00},
					 {"Seq": 98, "X": 541.18, "Y": 420.00, "Z": 0.00},
					 {"Seq": 99, "X": 541.60, "Y": 420.00, "Z": 0.00},
					 {"Seq": 100, "X": 542.02, "Y": 420.00, "Z": 0.00},
					 {"Seq": 101, "X": 542.43, "Y": 420.00, "Z": 0.00},
					 {"Seq": 102, "X": 542.85, "Y": 420.00, "Z": 0.00},
					 {"Seq": 103, "X": 543.27, "Y": 420.00, "Z": 0.00},
					 {"Seq": 104, "X": 543.68, "Y": 420.00, "Z": 0.00},
					 {"Seq": 105, "X": 544.10, "Y": 420.00, "Z": 0.00},
					 {"Seq": 106, "X": 544.52, "Y": 420.00, "Z": 0.00},
					 {"Seq": 107, "X": 544.93, "Y": 420.00, "Z": 0.00},
					 {"Seq": 108, "X": 545.35, "Y": 420.00, "Z": 0.00},
					 {"Seq": 109, "X": 545.77, "Y": 420.00, "Z": 0.00},
					 {"Seq": 110, "X": 546.18, "Y": 420.00, "Z": 0.00},
					 {"Seq": 111, "X": 546.60, "Y": 420.00, "Z": 0.00},
					 {"Seq": 112, "X": 547.01, "Y": 420.00, "Z": 0.00},
					 {"Seq": 113, "X": 547.43, "Y": 420.00, "Z": 0.00},
					 {"Seq": 114, "X": 547.85, "Y": 420.00, "Z": 0.00},
					 {"Seq": 115, "X": 548.26, "Y": 420.00, "Z": 0.00},
					 {"Seq": 116, "X": 548.68, "Y": 420.00, "Z": 0.00},
					 {"Seq": 117, "X": 549.09, "Y": 420.00, "Z": 0.00},
					 {"Seq": 118, "X": 549.51, "Y": 420.00, "Z": 0.00},
					 {"Seq": 119, "X": 549.93, "Y": 420.00, "Z": 0.00},
					 {"Seq": 120, "X": 550.34, "Y": 420.00, "Z": 0.00},
					 {"Seq": 121, "X": 550.76, "Y": 420.00, "Z": 0.00},
					 {"Seq": 122, "X": 551.18, "Y": 420.00, "Z": 0.00},
					 {"Seq": 123, "X": 551.59, "Y": 420.00, "Z": 0.00},
					 {"Seq": 124, "X": 552.01, "Y": 420.00, "Z": 0.00},
					 {"Seq": 125, "X": 552.43, "Y": 420.00, "Z": 0.00},
					 {"Seq": 126, "X": 552.84, "Y": 420.00, "Z": 0.00},
					 {"Seq": 127, "X": 553.26, "Y": 420.00, "Z": 0.00},
					 {"Seq": 128, "X": 553.67, "Y": 420.00, "Z": 0.00},
					 {"Seq": 129, "X": 554.09, "Y": 420.00, "Z": 0.00},
					 {"Seq": 130, "X": 554.51, "Y": 420.00, "Z": 0.00},
					 {"Seq": 131, "X": 554.92, "Y": 420.00, "Z": 0.00},
					 {"Seq": 132, "X": 555.34, "Y": 420.00, "Z": 0.00},
					 {"Seq": 133, "X": 555.75, "Y": 420.00, "Z": 0.00},
					 {"Seq": 134, "X": 556.17, "Y": 420.00, "Z": 0.00},
					 {"Seq": 135, "X": 556.59, "Y": 420.00, "Z": 0.00},
					 {"Seq": 136, "X": 557.00, "Y": 420.00, "Z": 0.00},
					 {"Seq": 137, "X": 557.42, "Y": 420.00, "Z": 0.00},
					 {"Seq": 138, "X": 557.84, "Y": 420.00, "Z": 0.00},
					 {"Seq": 139, "X": 558.25, "Y": 420.00, "Z": 0.00},
					 {"Seq": 140, "X": 558.67, "Y": 420.00, "Z": 0.00},
					 {"Seq": 141, "X": 559.09, "Y": 420.00, "Z": 0.00},
					 {"Seq": 142, "X": 559.51, "Y": 420.00, "Z": 0.00},
					 {"Seq": 143, "X": 559.92, "Y": 420.00, "Z": 0.00},
					 {"Seq": 144, "X": 560.00, "Y": 420.00, "Z": 0.00}
					 ] 
				}
,				 "Scale": { 
					"X": 100.00, "Y": 100.00, "Z": 100.00
					 }, 
				 "Rotation": { 
					"Val": 0.00
					 }, 
				 "Opacity": { 
					"Keyframes":[ 
					 { "Seq": 0, 	"Val": 0.00	},
					 { "Seq": 1, 	"Val": 100.00	}
					 ], 
					"Frames":[ 
					 {"Seq": 0, "Val": 3.95},
					 {"Seq": 1, "Val": 8.11},
					 {"Seq": 2, "Val": 12.28},
					 {"Seq": 3, "Val": 16.44},
					 {"Seq": 4, "Val": 20.60},
					 {"Seq": 5, "Val": 24.76},
					 {"Seq": 6, "Val": 28.93},
					 {"Seq": 7, "Val": 33.09},
					 {"Seq": 8, "Val": 37.25},
					 {"Seq": 9, "Val": 41.41},
					 {"Seq": 10, "Val": 45.57},
					 {"Seq": 11, "Val": 49.74},
					 {"Seq": 12, "Val": 53.90},
					 {"Seq": 13, "Val": 58.06},
					 {"Seq": 14, "Val": 62.22},
					 {"Seq": 15, "Val": 66.39},
					 {"Seq": 16, "Val": 70.55},
					 {"Seq": 17, "Val": 74.71},
					 {"Seq": 18, "Val": 78.88},
					 {"Seq": 19, "Val": 83.04},
					 {"Seq": 20, "Val": 87.20},
					 {"Seq": 21, "Val": 91.36},
					 {"Seq": 22, "Val": 95.53},
					 {"Seq": 23, "Val": 99.69},
					 {"Seq": 24, "Val": 100.00},
					 {"Seq": 25, "Val": 100.00},
					 {"Seq": 26, "Val": 100.00},
					 {"Seq": 27, "Val": 100.00},
					 {"Seq": 28, "Val": 100.00},
					 {"Seq": 29, "Val": 100.00},
					 {"Seq": 30, "Val": 100.00},
					 {"Seq": 31, "Val": 100.00},
					 {"Seq": 32, "Val": 100.00},
					 {"Seq": 33, "Val": 100.00},
					 {"Seq": 34, "Val": 100.00},
					 {"Seq": 35, "Val": 100.00},
					 {"Seq": 36, "Val": 100.00},
					 {"Seq": 37, "Val": 100.00},
					 {"Seq": 38, "Val": 100.00},
					 {"Seq": 39, "Val": 100.00},
					 {"Seq": 40, "Val": 100.00},
					 {"Seq": 41, "Val": 100.00},
					 {"Seq": 42, "Val": 100.00},
					 {"Seq": 43, "Val": 100.00},
					 {"Seq": 44, "Val": 100.00},
					 {"Seq": 45, "Val": 100.00},
					 {"Seq": 46, "Val": 100.00},
					 {"Seq": 47, "Val": 100.00},
					 {"Seq": 48, "Val": 100.00},
					 {"Seq": 49, "Val": 100.00},
					 {"Seq": 50, "Val": 100.00},
					 {"Seq": 51, "Val": 100.00},
					 {"Seq": 52, "Val": 100.00},
					 {"Seq": 53, "Val": 100.00},
					 {"Seq": 54, "Val": 100.00},
					 {"Seq": 55, "Val": 100.00},
					 {"Seq": 56, "Val": 100.00},
					 {"Seq": 57, "Val": 100.00},
					 {"Seq": 58, "Val": 100.00},
					 {"Seq": 59, "Val": 100.00},
					 {"Seq": 60, "Val": 100.00},
					 {"Seq": 61, "Val": 100.00},
					 {"Seq": 62, "Val": 100.00},
					 {"Seq": 63, "Val": 100.00},
					 {"Seq": 64, "Val": 100.00},
					 {"Seq": 65, "Val": 100.00},
					 {"Seq": 66, "Val": 100.00},
					 {"Seq": 67, "Val": 100.00},
					 {"Seq": 68, "Val": 100.00},
					 {"Seq": 69, "Val": 100.00},
					 {"Seq": 70, "Val": 100.00},
					 {"Seq": 71, "Val": 100.00},
					 {"Seq": 72, "Val": 100.00},
					 {"Seq": 73, "Val": 100.00},
					 {"Seq": 74, "Val": 100.00},
					 {"Seq": 75, "Val": 100.00},
					 {"Seq": 76, "Val": 100.00},
					 {"Seq": 77, "Val": 100.00},
					 {"Seq": 78, "Val": 100.00},
					 {"Seq": 79, "Val": 100.00},
					 {"Seq": 80, "Val": 100.00},
					 {"Seq": 81, "Val": 100.00},
					 {"Seq": 82, "Val": 100.00},
					 {"Seq": 83, "Val": 100.00},
					 {"Seq": 84, "Val": 100.00},
					 {"Seq": 85, "Val": 100.00},
					 {"Seq": 86, "Val": 100.00},
					 {"Seq": 87, "Val": 100.00},
					 {"Seq": 88, "Val": 100.00},
					 {"Seq": 89, "Val": 100.00},
					 {"Seq": 90, "Val": 100.00},
					 {"Seq": 91, "Val": 100.00},
					 {"Seq": 92, "Val": 100.00},
					 {"Seq": 93, "Val": 100.00},
					 {"Seq": 94, "Val": 100.00},
					 {"Seq": 95, "Val": 100.00},
					 {"Seq": 96, "Val": 100.00},
					 {"Seq": 97, "Val": 100.00},
					 {"Seq": 98, "Val": 100.00},
					 {"Seq": 99, "Val": 100.00},
					 {"Seq": 100, "Val": 100.00},
					 {"Seq": 101, "Val": 100.00},
					 {"Seq": 102, "Val": 100.00},
					 {"Seq": 103, "Val": 100.00},
					 {"Seq": 104, "Val": 100.00},
					 {"Seq": 105, "Val": 100.00},
					 {"Seq": 106, "Val": 100.00},
					 {"Seq": 107, "Val": 100.00},
					 {"Seq": 108, "Val": 100.00},
					 {"Seq": 109, "Val": 100.00},
					 {"Seq": 110, "Val": 100.00},
					 {"Seq": 111, "Val": 100.00},
					 {"Seq": 112, "Val": 100.00},
					 {"Seq": 113, "Val": 100.00},
					 {"Seq": 114, "Val": 100.00},
					 {"Seq": 115, "Val": 100.00},
					 {"Seq": 116, "Val": 100.00},
					 {"Seq": 117, "Val": 100.00},
					 {"Seq": 118, "Val": 100.00},
					 {"Seq": 119, "Val": 100.00},
					 {"Seq": 120, "Val": 100.00},
					 {"Seq": 121, "Val": 100.00},
					 {"Seq": 122, "Val": 100.00},
					 {"Seq": 123, "Val": 100.00},
					 {"Seq": 124, "Val": 100.00},
					 {"Seq": 125, "Val": 100.00},
					 {"Seq": 126, "Val": 100.00},
					 {"Seq": 127, "Val": 100.00},
					 {"Seq": 128, "Val": 100.00},
					 {"Seq": 129, "Val": 100.00},
					 {"Seq": 130, "Val": 100.00},
					 {"Seq": 131, "Val": 100.00},
					 {"Seq": 132, "Val": 100.00},
					 {"Seq": 133, "Val": 100.00},
					 {"Seq": 134, "Val": 100.00},
					 {"Seq": 135, "Val": 100.00},
					 {"Seq": 136, "Val": 100.00},
					 {"Seq": 137, "Val": 100.00},
					 {"Seq": 138, "Val": 100.00},
					 {"Seq": 139, "Val": 100.00},
					 {"Seq": 140, "Val": 100.00},
					 {"Seq": 141, "Val": 100.00},
					 {"Seq": 142, "Val": 100.00},
					 {"Seq": 143, "Val": 100.00},
					 {"Seq": 144, "Val": 100.00}
					 ] 
				}
			}
		}

	},
	 {"LayName": "w03_tempture.png", "LayWidth": 200.000000, "LayHeight": 72.000000, "LayID": 121, "ParentID": 0, "LayIn": -0.47, "LayDur": 4.84, "CompIn": 1.70, "CompDur": 7.27, "NumEffects": 1,
		"SourcePath": "C:/Data/Projects/2010103DProjects/P2_LandscapeSweet_Lite/Taipei_01/taipei_tempture.png",
		"Parameters":{
			"Transform":{
				 "AnchorPoint": { 
					"X": 0.50, "Y": 0.50, "Z": 0.00
					 }, 
				 "Position": { 
					"Keyframes":[ 
					 { "Seq": 0, 	"X": 360.00, "Y": 320.00, "Z": 0.00	},
					 { "Seq": 1, 	"X": 300.00, "Y": 320.00, "Z": 0.00	}
					 ], 
					"Frames":[ 
					 {"Seq": 0, "X": 359.61, "Y": 320.00, "Z": 0.00},
					 {"Seq": 1, "X": 359.19, "Y": 320.00, "Z": 0.00},
					 {"Seq": 2, "X": 358.77, "Y": 320.00, "Z": 0.00},
					 {"Seq": 3, "X": 358.36, "Y": 320.00, "Z": 0.00},
					 {"Seq": 4, "X": 357.94, "Y": 320.00, "Z": 0.00},
					 {"Seq": 5, "X": 357.52, "Y": 320.00, "Z": 0.00},
					 {"Seq": 6, "X": 357.11, "Y": 320.00, "Z": 0.00},
					 {"Seq": 7, "X": 356.69, "Y": 320.00, "Z": 0.00},
					 {"Seq": 8, "X": 356.27, "Y": 320.00, "Z": 0.00},
					 {"Seq": 9, "X": 355.86, "Y": 320.00, "Z": 0.00},
					 {"Seq": 10, "X": 355.44, "Y": 320.00, "Z": 0.00},
					 {"Seq": 11, "X": 355.02, "Y": 320.00, "Z": 0.00},
					 {"Seq": 12, "X": 354.61, "Y": 320.00, "Z": 0.00},
					 {"Seq": 13, "X": 354.19, "Y": 320.00, "Z": 0.00},
					 {"Seq": 14, "X": 353.78, "Y": 320.00, "Z": 0.00},
					 {"Seq": 15, "X": 353.36, "Y": 320.00, "Z": 0.00},
					 {"Seq": 16, "X": 352.94, "Y": 320.00, "Z": 0.00},
					 {"Seq": 17, "X": 352.53, "Y": 320.00, "Z": 0.00},
					 {"Seq": 18, "X": 352.11, "Y": 320.00, "Z": 0.00},
					 {"Seq": 19, "X": 351.69, "Y": 320.00, "Z": 0.00},
					 {"Seq": 20, "X": 351.28, "Y": 320.00, "Z": 0.00},
					 {"Seq": 21, "X": 350.86, "Y": 320.00, "Z": 0.00},
					 {"Seq": 22, "X": 350.44, "Y": 320.00, "Z": 0.00},
					 {"Seq": 23, "X": 350.03, "Y": 320.00, "Z": 0.00},
					 {"Seq": 24, "X": 349.61, "Y": 320.00, "Z": 0.00},
					 {"Seq": 25, "X": 349.20, "Y": 320.00, "Z": 0.00},
					 {"Seq": 26, "X": 348.78, "Y": 320.00, "Z": 0.00},
					 {"Seq": 27, "X": 348.36, "Y": 320.00, "Z": 0.00},
					 {"Seq": 28, "X": 347.95, "Y": 320.00, "Z": 0.00},
					 {"Seq": 29, "X": 347.53, "Y": 320.00, "Z": 0.00},
					 {"Seq": 30, "X": 347.12, "Y": 320.00, "Z": 0.00},
					 {"Seq": 31, "X": 346.70, "Y": 320.00, "Z": 0.00},
					 {"Seq": 32, "X": 346.28, "Y": 320.00, "Z": 0.00},
					 {"Seq": 33, "X": 345.87, "Y": 320.00, "Z": 0.00},
					 {"Seq": 34, "X": 345.45, "Y": 320.00, "Z": 0.00},
					 {"Seq": 35, "X": 345.04, "Y": 320.00, "Z": 0.00},
					 {"Seq": 36, "X": 344.62, "Y": 320.00, "Z": 0.00},
					 {"Seq": 37, "X": 344.20, "Y": 320.00, "Z": 0.00},
					 {"Seq": 38, "X": 343.79, "Y": 320.00, "Z": 0.00},
					 {"Seq": 39, "X": 343.37, "Y": 320.00, "Z": 0.00},
					 {"Seq": 40, "X": 342.95, "Y": 320.00, "Z": 0.00},
					 {"Seq": 41, "X": 342.54, "Y": 320.00, "Z": 0.00},
					 {"Seq": 42, "X": 342.12, "Y": 320.00, "Z": 0.00},
					 {"Seq": 43, "X": 341.70, "Y": 320.00, "Z": 0.00},
					 {"Seq": 44, "X": 341.28, "Y": 320.00, "Z": 0.00},
					 {"Seq": 45, "X": 340.87, "Y": 320.00, "Z": 0.00},
					 {"Seq": 46, "X": 340.45, "Y": 320.00, "Z": 0.00},
					 {"Seq": 47, "X": 340.03, "Y": 320.00, "Z": 0.00},
					 {"Seq": 48, "X": 339.62, "Y": 320.00, "Z": 0.00},
					 {"Seq": 49, "X": 339.20, "Y": 320.00, "Z": 0.00},
					 {"Seq": 50, "X": 338.78, "Y": 320.00, "Z": 0.00},
					 {"Seq": 51, "X": 338.36, "Y": 320.00, "Z": 0.00},
					 {"Seq": 52, "X": 337.95, "Y": 320.00, "Z": 0.00},
					 {"Seq": 53, "X": 337.53, "Y": 320.00, "Z": 0.00},
					 {"Seq": 54, "X": 337.11, "Y": 320.00, "Z": 0.00},
					 {"Seq": 55, "X": 336.70, "Y": 320.00, "Z": 0.00},
					 {"Seq": 56, "X": 336.28, "Y": 320.00, "Z": 0.00},
					 {"Seq": 57, "X": 335.87, "Y": 320.00, "Z": 0.00},
					 {"Seq": 58, "X": 335.45, "Y": 320.00, "Z": 0.00},
					 {"Seq": 59, "X": 335.03, "Y": 320.00, "Z": 0.00},
					 {"Seq": 60, "X": 334.62, "Y": 320.00, "Z": 0.00},
					 {"Seq": 61, "X": 334.20, "Y": 320.00, "Z": 0.00},
					 {"Seq": 62, "X": 333.79, "Y": 320.00, "Z": 0.00},
					 {"Seq": 63, "X": 333.37, "Y": 320.00, "Z": 0.00},
					 {"Seq": 64, "X": 332.95, "Y": 320.00, "Z": 0.00},
					 {"Seq": 65, "X": 332.54, "Y": 320.00, "Z": 0.00},
					 {"Seq": 66, "X": 332.12, "Y": 320.00, "Z": 0.00},
					 {"Seq": 67, "X": 331.71, "Y": 320.00, "Z": 0.00},
					 {"Seq": 68, "X": 331.29, "Y": 320.00, "Z": 0.00},
					 {"Seq": 69, "X": 330.88, "Y": 320.00, "Z": 0.00},
					 {"Seq": 70, "X": 330.46, "Y": 320.00, "Z": 0.00},
					 {"Seq": 71, "X": 330.05, "Y": 320.00, "Z": 0.00},
					 {"Seq": 72, "X": 329.63, "Y": 320.00, "Z": 0.00},
					 {"Seq": 73, "X": 329.22, "Y": 320.00, "Z": 0.00},
					 {"Seq": 74, "X": 328.80, "Y": 320.00, "Z": 0.00},
					 {"Seq": 75, "X": 328.39, "Y": 320.00, "Z": 0.00},
					 {"Seq": 76, "X": 327.97, "Y": 320.00, "Z": 0.00},
					 {"Seq": 77, "X": 327.55, "Y": 320.00, "Z": 0.00},
					 {"Seq": 78, "X": 327.14, "Y": 320.00, "Z": 0.00},
					 {"Seq": 79, "X": 326.72, "Y": 320.00, "Z": 0.00},
					 {"Seq": 80, "X": 326.31, "Y": 320.00, "Z": 0.00},
					 {"Seq": 81, "X": 325.89, "Y": 320.00, "Z": 0.00},
					 {"Seq": 82, "X": 325.48, "Y": 320.00, "Z": 0.00},
					 {"Seq": 83, "X": 325.06, "Y": 320.00, "Z": 0.00},
					 {"Seq": 84, "X": 324.64, "Y": 320.00, "Z": 0.00},
					 {"Seq": 85, "X": 324.23, "Y": 320.00, "Z": 0.00},
					 {"Seq": 86, "X": 323.81, "Y": 320.00, "Z": 0.00},
					 {"Seq": 87, "X": 323.40, "Y": 320.00, "Z": 0.00},
					 {"Seq": 88, "X": 322.98, "Y": 320.00, "Z": 0.00},
					 {"Seq": 89, "X": 322.56, "Y": 320.00, "Z": 0.00},
					 {"Seq": 90, "X": 322.15, "Y": 320.00, "Z": 0.00},
					 {"Seq": 91, "X": 321.73, "Y": 320.00, "Z": 0.00},
					 {"Seq": 92, "X": 321.31, "Y": 320.00, "Z": 0.00},
					 {"Seq": 93, "X": 320.90, "Y": 320.00, "Z": 0.00},
					 {"Seq": 94, "X": 320.48, "Y": 320.00, "Z": 0.00},
					 {"Seq": 95, "X": 320.07, "Y": 320.00, "Z": 0.00},
					 {"Seq": 96, "X": 319.65, "Y": 320.00, "Z": 0.00},
					 {"Seq": 97, "X": 319.23, "Y": 320.00, "Z": 0.00},
					 {"Seq": 98, "X": 318.81, "Y": 320.00, "Z": 0.00},
					 {"Seq": 99, "X": 318.40, "Y": 320.00, "Z": 0.00},
					 {"Seq": 100, "X": 317.98, "Y": 320.00, "Z": 0.00},
					 {"Seq": 101, "X": 317.56, "Y": 320.00, "Z": 0.00},
					 {"Seq": 102, "X": 317.15, "Y": 320.00, "Z": 0.00},
					 {"Seq": 103, "X": 316.73, "Y": 320.00, "Z": 0.00},
					 {"Seq": 104, "X": 316.32, "Y": 320.00, "Z": 0.00},
					 {"Seq": 105, "X": 315.90, "Y": 320.00, "Z": 0.00},
					 {"Seq": 106, "X": 315.48, "Y": 320.00, "Z": 0.00},
					 {"Seq": 107, "X": 315.07, "Y": 320.00, "Z": 0.00},
					 {"Seq": 108, "X": 314.65, "Y": 320.00, "Z": 0.00},
					 {"Seq": 109, "X": 314.24, "Y": 320.00, "Z": 0.00},
					 {"Seq": 110, "X": 313.82, "Y": 320.00, "Z": 0.00},
					 {"Seq": 111, "X": 313.40, "Y": 320.00, "Z": 0.00},
					 {"Seq": 112, "X": 312.99, "Y": 320.00, "Z": 0.00},
					 {"Seq": 113, "X": 312.57, "Y": 320.00, "Z": 0.00},
					 {"Seq": 114, "X": 312.16, "Y": 320.00, "Z": 0.00},
					 {"Seq": 115, "X": 311.74, "Y": 320.00, "Z": 0.00},
					 {"Seq": 116, "X": 311.32, "Y": 320.00, "Z": 0.00},
					 {"Seq": 117, "X": 310.91, "Y": 320.00, "Z": 0.00},
					 {"Seq": 118, "X": 310.49, "Y": 320.00, "Z": 0.00},
					 {"Seq": 119, "X": 310.07, "Y": 320.00, "Z": 0.00},
					 {"Seq": 120, "X": 309.66, "Y": 320.00, "Z": 0.00},
					 {"Seq": 121, "X": 309.24, "Y": 320.00, "Z": 0.00},
					 {"Seq": 122, "X": 308.82, "Y": 320.00, "Z": 0.00},
					 {"Seq": 123, "X": 308.41, "Y": 320.00, "Z": 0.00},
					 {"Seq": 124, "X": 307.99, "Y": 320.00, "Z": 0.00},
					 {"Seq": 125, "X": 307.57, "Y": 320.00, "Z": 0.00},
					 {"Seq": 126, "X": 307.16, "Y": 320.00, "Z": 0.00},
					 {"Seq": 127, "X": 306.74, "Y": 320.00, "Z": 0.00},
					 {"Seq": 128, "X": 306.33, "Y": 320.00, "Z": 0.00},
					 {"Seq": 129, "X": 305.91, "Y": 320.00, "Z": 0.00},
					 {"Seq": 130, "X": 305.49, "Y": 320.00, "Z": 0.00},
					 {"Seq": 131, "X": 305.08, "Y": 320.00, "Z": 0.00},
					 {"Seq": 132, "X": 304.66, "Y": 320.00, "Z": 0.00},
					 {"Seq": 133, "X": 304.25, "Y": 320.00, "Z": 0.00},
					 {"Seq": 134, "X": 303.83, "Y": 320.00, "Z": 0.00},
					 {"Seq": 135, "X": 303.41, "Y": 320.00, "Z": 0.00},
					 {"Seq": 136, "X": 303.00, "Y": 320.00, "Z": 0.00},
					 {"Seq": 137, "X": 302.58, "Y": 320.00, "Z": 0.00},
					 {"Seq": 138, "X": 302.16, "Y": 320.00, "Z": 0.00},
					 {"Seq": 139, "X": 301.75, "Y": 320.00, "Z": 0.00},
					 {"Seq": 140, "X": 301.33, "Y": 320.00, "Z": 0.00},
					 {"Seq": 141, "X": 300.91, "Y": 320.00, "Z": 0.00},
					 {"Seq": 142, "X": 300.49, "Y": 320.00, "Z": 0.00},
					 {"Seq": 143, "X": 300.08, "Y": 320.00, "Z": 0.00},
					 {"Seq": 144, "X": 300.00, "Y": 320.00, "Z": 0.00}
					 ] 
				}
,				 "Scale": { 
					"X": 100.00, "Y": 100.00, "Z": 100.00
					 }, 
				 "Rotation": { 
					"Val": 0.00
					 }, 
				 "Opacity": { 
					"Keyframes":[ 
					 { "Seq": 0, 	"Val": 0.00	},
					 { "Seq": 1, 	"Val": 100.00	}
					 ], 
					"Frames":[ 
					 {"Seq": 0, "Val": 3.95},
					 {"Seq": 1, "Val": 8.11},
					 {"Seq": 2, "Val": 12.28},
					 {"Seq": 3, "Val": 16.44},
					 {"Seq": 4, "Val": 20.60},
					 {"Seq": 5, "Val": 24.76},
					 {"Seq": 6, "Val": 28.93},
					 {"Seq": 7, "Val": 33.09},
					 {"Seq": 8, "Val": 37.25},
					 {"Seq": 9, "Val": 41.41},
					 {"Seq": 10, "Val": 45.57},
					 {"Seq": 11, "Val": 49.74},
					 {"Seq": 12, "Val": 53.90},
					 {"Seq": 13, "Val": 58.06},
					 {"Seq": 14, "Val": 62.22},
					 {"Seq": 15, "Val": 66.39},
					 {"Seq": 16, "Val": 70.55},
					 {"Seq": 17, "Val": 74.71},
					 {"Seq": 18, "Val": 78.88},
					 {"Seq": 19, "Val": 83.04},
					 {"Seq": 20, "Val": 87.20},
					 {"Seq": 21, "Val": 91.36},
					 {"Seq": 22, "Val": 95.53},
					 {"Seq": 23, "Val": 99.69},
					 {"Seq": 24, "Val": 100.00},
					 {"Seq": 25, "Val": 100.00},
					 {"Seq": 26, "Val": 100.00},
					 {"Seq": 27, "Val": 100.00},
					 {"Seq": 28, "Val": 100.00},
					 {"Seq": 29, "Val": 100.00},
					 {"Seq": 30, "Val": 100.00},
					 {"Seq": 31, "Val": 100.00},
					 {"Seq": 32, "Val": 100.00},
					 {"Seq": 33, "Val": 100.00},
					 {"Seq": 34, "Val": 100.00},
					 {"Seq": 35, "Val": 100.00},
					 {"Seq": 36, "Val": 100.00},
					 {"Seq": 37, "Val": 100.00},
					 {"Seq": 38, "Val": 100.00},
					 {"Seq": 39, "Val": 100.00},
					 {"Seq": 40, "Val": 100.00},
					 {"Seq": 41, "Val": 100.00},
					 {"Seq": 42, "Val": 100.00},
					 {"Seq": 43, "Val": 100.00},
					 {"Seq": 44, "Val": 100.00},
					 {"Seq": 45, "Val": 100.00},
					 {"Seq": 46, "Val": 100.00},
					 {"Seq": 47, "Val": 100.00},
					 {"Seq": 48, "Val": 100.00},
					 {"Seq": 49, "Val": 100.00},
					 {"Seq": 50, "Val": 100.00},
					 {"Seq": 51, "Val": 100.00},
					 {"Seq": 52, "Val": 100.00},
					 {"Seq": 53, "Val": 100.00},
					 {"Seq": 54, "Val": 100.00},
					 {"Seq": 55, "Val": 100.00},
					 {"Seq": 56, "Val": 100.00},
					 {"Seq": 57, "Val": 100.00},
					 {"Seq": 58, "Val": 100.00},
					 {"Seq": 59, "Val": 100.00},
					 {"Seq": 60, "Val": 100.00},
					 {"Seq": 61, "Val": 100.00},
					 {"Seq": 62, "Val": 100.00},
					 {"Seq": 63, "Val": 100.00},
					 {"Seq": 64, "Val": 100.00},
					 {"Seq": 65, "Val": 100.00},
					 {"Seq": 66, "Val": 100.00},
					 {"Seq": 67, "Val": 100.00},
					 {"Seq": 68, "Val": 100.00},
					 {"Seq": 69, "Val": 100.00},
					 {"Seq": 70, "Val": 100.00},
					 {"Seq": 71, "Val": 100.00},
					 {"Seq": 72, "Val": 100.00},
					 {"Seq": 73, "Val": 100.00},
					 {"Seq": 74, "Val": 100.00},
					 {"Seq": 75, "Val": 100.00},
					 {"Seq": 76, "Val": 100.00},
					 {"Seq": 77, "Val": 100.00},
					 {"Seq": 78, "Val": 100.00},
					 {"Seq": 79, "Val": 100.00},
					 {"Seq": 80, "Val": 100.00},
					 {"Seq": 81, "Val": 100.00},
					 {"Seq": 82, "Val": 100.00},
					 {"Seq": 83, "Val": 100.00},
					 {"Seq": 84, "Val": 100.00},
					 {"Seq": 85, "Val": 100.00},
					 {"Seq": 86, "Val": 100.00},
					 {"Seq": 87, "Val": 100.00},
					 {"Seq": 88, "Val": 100.00},
					 {"Seq": 89, "Val": 100.00},
					 {"Seq": 90, "Val": 100.00},
					 {"Seq": 91, "Val": 100.00},
					 {"Seq": 92, "Val": 100.00},
					 {"Seq": 93, "Val": 100.00},
					 {"Seq": 94, "Val": 100.00},
					 {"Seq": 95, "Val": 100.00},
					 {"Seq": 96, "Val": 100.00},
					 {"Seq": 97, "Val": 100.00},
					 {"Seq": 98, "Val": 100.00},
					 {"Seq": 99, "Val": 100.00},
					 {"Seq": 100, "Val": 100.00},
					 {"Seq": 101, "Val": 100.00},
					 {"Seq": 102, "Val": 100.00},
					 {"Seq": 103, "Val": 100.00},
					 {"Seq": 104, "Val": 100.00},
					 {"Seq": 105, "Val": 100.00},
					 {"Seq": 106, "Val": 100.00},
					 {"Seq": 107, "Val": 100.00},
					 {"Seq": 108, "Val": 100.00},
					 {"Seq": 109, "Val": 100.00},
					 {"Seq": 110, "Val": 100.00},
					 {"Seq": 111, "Val": 100.00},
					 {"Seq": 112, "Val": 100.00},
					 {"Seq": 113, "Val": 100.00},
					 {"Seq": 114, "Val": 100.00},
					 {"Seq": 115, "Val": 100.00},
					 {"Seq": 116, "Val": 100.00},
					 {"Seq": 117, "Val": 100.00},
					 {"Seq": 118, "Val": 100.00},
					 {"Seq": 119, "Val": 100.00},
					 {"Seq": 120, "Val": 100.00},
					 {"Seq": 121, "Val": 100.00},
					 {"Seq": 122, "Val": 100.00},
					 {"Seq": 123, "Val": 100.00},
					 {"Seq": 124, "Val": 100.00},
					 {"Seq": 125, "Val": 100.00},
					 {"Seq": 126, "Val": 100.00},
					 {"Seq": 127, "Val": 100.00},
					 {"Seq": 128, "Val": 100.00},
					 {"Seq": 129, "Val": 100.00},
					 {"Seq": 130, "Val": 100.00},
					 {"Seq": 131, "Val": 100.00},
					 {"Seq": 132, "Val": 100.00},
					 {"Seq": 133, "Val": 100.00},
					 {"Seq": 134, "Val": 100.00},
					 {"Seq": 135, "Val": 100.00},
					 {"Seq": 136, "Val": 100.00},
					 {"Seq": 137, "Val": 100.00},
					 {"Seq": 138, "Val": 100.00},
					 {"Seq": 139, "Val": 100.00},
					 {"Seq": 140, "Val": 100.00},
					 {"Seq": 141, "Val": 100.00},
					 {"Seq": 142, "Val": 100.00},
					 {"Seq": 143, "Val": 100.00},
					 {"Seq": 144, "Val": 100.00}
					 ] 
				}
			}
		}

	},
	 {"LayName": "w06_sunlight.png", "LayWidth": 800.000000, "LayHeight": 800.000000, "LayID": 120, "ParentID": 0, "LayIn": 2.00, "LayDur": 4.37, "CompIn": 2.17, "CompDur": 7.27, "NumEffects": 0,
		"SourcePath": "//pc10110074/d$/AE_Project/LandscapeSweet_Lite/Taipei_01/w06_sunlight.png",
		"Parameters":{
			"Transform":{
				 "AnchorPoint": { 
					"X": 0.47, "Y": 0.47, "Z": 0.00
					 }, 
				 "Position": { 
					"X": 140.00, "Y": 144.00, "Z": 0.00
					 }, 
				 "Scale": { 
					"X": 100.00, "Y": 100.00, "Z": 100.00
					 }, 
				 "Rotation": { 
					"Keyframes":[ 
					 { "Seq": 0, 	"Val": 0.00	},
					 { "Seq": 1, 	"Val": 100.00	}
					 ], 
					"Frames":[ 
					 {"Seq": 0, "Val": 0.72},
					 {"Seq": 1, "Val": 1.49},
					 {"Seq": 2, "Val": 2.26},
					 {"Seq": 3, "Val": 3.02},
					 {"Seq": 4, "Val": 3.79},
					 {"Seq": 5, "Val": 4.56},
					 {"Seq": 6, "Val": 5.33},
					 {"Seq": 7, "Val": 6.10},
					 {"Seq": 8, "Val": 6.87},
					 {"Seq": 9, "Val": 7.63},
					 {"Seq": 10, "Val": 8.40},
					 {"Seq": 11, "Val": 9.17},
					 {"Seq": 12, "Val": 9.94},
					 {"Seq": 13, "Val": 10.71},
					 {"Seq": 14, "Val": 11.48},
					 {"Seq": 15, "Val": 12.25},
					 {"Seq": 16, "Val": 13.01},
					 {"Seq": 17, "Val": 13.78},
					 {"Seq": 18, "Val": 14.55},
					 {"Seq": 19, "Val": 15.32},
					 {"Seq": 20, "Val": 16.09},
					 {"Seq": 21, "Val": 16.86},
					 {"Seq": 22, "Val": 17.63},
					 {"Seq": 23, "Val": 18.39},
					 {"Seq": 24, "Val": 19.16},
					 {"Seq": 25, "Val": 19.93},
					 {"Seq": 26, "Val": 20.70},
					 {"Seq": 27, "Val": 21.47},
					 {"Seq": 28, "Val": 22.24},
					 {"Seq": 29, "Val": 23.00},
					 {"Seq": 30, "Val": 23.77},
					 {"Seq": 31, "Val": 24.54},
					 {"Seq": 32, "Val": 25.31},
					 {"Seq": 33, "Val": 26.08},
					 {"Seq": 34, "Val": 26.85},
					 {"Seq": 35, "Val": 27.61},
					 {"Seq": 36, "Val": 28.38},
					 {"Seq": 37, "Val": 29.15},
					 {"Seq": 38, "Val": 29.92},
					 {"Seq": 39, "Val": 30.69},
					 {"Seq": 40, "Val": 31.46},
					 {"Seq": 41, "Val": 32.23},
					 {"Seq": 42, "Val": 32.99},
					 {"Seq": 43, "Val": 33.76},
					 {"Seq": 44, "Val": 34.53},
					 {"Seq": 45, "Val": 35.30},
					 {"Seq": 46, "Val": 36.07},
					 {"Seq": 47, "Val": 36.84},
					 {"Seq": 48, "Val": 37.60},
					 {"Seq": 49, "Val": 38.37},
					 {"Seq": 50, "Val": 39.14},
					 {"Seq": 51, "Val": 39.91},
					 {"Seq": 52, "Val": 40.68},
					 {"Seq": 53, "Val": 41.45},
					 {"Seq": 54, "Val": 42.22},
					 {"Seq": 55, "Val": 42.98},
					 {"Seq": 56, "Val": 43.75},
					 {"Seq": 57, "Val": 44.52},
					 {"Seq": 58, "Val": 45.29},
					 {"Seq": 59, "Val": 46.06},
					 {"Seq": 60, "Val": 46.83},
					 {"Seq": 61, "Val": 47.59},
					 {"Seq": 62, "Val": 48.36},
					 {"Seq": 63, "Val": 49.13},
					 {"Seq": 64, "Val": 49.90},
					 {"Seq": 65, "Val": 50.67},
					 {"Seq": 66, "Val": 51.44},
					 {"Seq": 67, "Val": 52.21},
					 {"Seq": 68, "Val": 52.97},
					 {"Seq": 69, "Val": 53.74},
					 {"Seq": 70, "Val": 54.51},
					 {"Seq": 71, "Val": 55.28},
					 {"Seq": 72, "Val": 56.05},
					 {"Seq": 73, "Val": 56.82},
					 {"Seq": 74, "Val": 57.58},
					 {"Seq": 75, "Val": 58.35},
					 {"Seq": 76, "Val": 59.12},
					 {"Seq": 77, "Val": 59.89},
					 {"Seq": 78, "Val": 60.66},
					 {"Seq": 79, "Val": 61.43},
					 {"Seq": 80, "Val": 62.20},
					 {"Seq": 81, "Val": 62.96},
					 {"Seq": 82, "Val": 63.73},
					 {"Seq": 83, "Val": 64.50},
					 {"Seq": 84, "Val": 65.27},
					 {"Seq": 85, "Val": 66.04},
					 {"Seq": 86, "Val": 66.81},
					 {"Seq": 87, "Val": 67.58},
					 {"Seq": 88, "Val": 68.34},
					 {"Seq": 89, "Val": 69.11},
					 {"Seq": 90, "Val": 69.88},
					 {"Seq": 91, "Val": 70.65},
					 {"Seq": 92, "Val": 71.42},
					 {"Seq": 93, "Val": 72.19},
					 {"Seq": 94, "Val": 72.95},
					 {"Seq": 95, "Val": 73.72},
					 {"Seq": 96, "Val": 74.49},
					 {"Seq": 97, "Val": 75.26},
					 {"Seq": 98, "Val": 76.03},
					 {"Seq": 99, "Val": 76.80},
					 {"Seq": 100, "Val": 77.56},
					 {"Seq": 101, "Val": 78.33},
					 {"Seq": 102, "Val": 79.10},
					 {"Seq": 103, "Val": 79.87},
					 {"Seq": 104, "Val": 80.64},
					 {"Seq": 105, "Val": 81.41},
					 {"Seq": 106, "Val": 82.17},
					 {"Seq": 107, "Val": 82.94},
					 {"Seq": 108, "Val": 83.71},
					 {"Seq": 109, "Val": 84.48},
					 {"Seq": 110, "Val": 85.25},
					 {"Seq": 111, "Val": 86.02},
					 {"Seq": 112, "Val": 86.79},
					 {"Seq": 113, "Val": 87.55},
					 {"Seq": 114, "Val": 88.32},
					 {"Seq": 115, "Val": 89.09},
					 {"Seq": 116, "Val": 89.86},
					 {"Seq": 117, "Val": 90.63},
					 {"Seq": 118, "Val": 91.40},
					 {"Seq": 119, "Val": 92.17},
					 {"Seq": 120, "Val": 92.93},
					 {"Seq": 121, "Val": 93.70},
					 {"Seq": 122, "Val": 94.47},
					 {"Seq": 123, "Val": 95.24},
					 {"Seq": 124, "Val": 96.01},
					 {"Seq": 125, "Val": 96.78},
					 {"Seq": 126, "Val": 97.54},
					 {"Seq": 127, "Val": 98.31},
					 {"Seq": 128, "Val": 99.08},
					 {"Seq": 129, "Val": 99.85},
					 {"Seq": 130, "Val": 100.00}
					 ] 
				}
,				 "Opacity": { 
					"Keyframes":[ 
					 { "Seq": 0, 	"Val": 0.00	},
					 { "Seq": 1, 	"Val": 100.00	},
					 { "Seq": 2, 	"Val": 40.00	},
					 { "Seq": 3, 	"Val": 100.00	},
					 { "Seq": 4, 	"Val": 40.00	},
					 { "Seq": 5, 	"Val": 100.00	},
					 { "Seq": 6, 	"Val": 40.00	},
					 { "Seq": 7, 	"Val": 100.00	},
					 { "Seq": 8, 	"Val": 100.00	},
					 { "Seq": 9, 	"Val": 30.00	}
					 ], 
					"Frames":[ 
					 {"Seq": 0, "Val": 7.18},
					 {"Seq": 1, "Val": 14.87},
					 {"Seq": 2, "Val": 22.56},
					 {"Seq": 3, "Val": 30.24},
					 {"Seq": 4, "Val": 37.92},
					 {"Seq": 5, "Val": 45.61},
					 {"Seq": 6, "Val": 53.29},
					 {"Seq": 7, "Val": 60.98},
					 {"Seq": 8, "Val": 68.66},
					 {"Seq": 9, "Val": 76.35},
					 {"Seq": 10, "Val": 84.03},
					 {"Seq": 11, "Val": 91.71},
					 {"Seq": 12, "Val": 99.40},
					 {"Seq": 13, "Val": 81.58},
					 {"Seq": 14, "Val": 61.60},
					 {"Seq": 15, "Val": 41.63},
					 {"Seq": 16, "Val": 58.35},
					 {"Seq": 17, "Val": 78.35},
					 {"Seq": 18, "Val": 98.32},
					 {"Seq": 19, "Val": 81.70},
					 {"Seq": 20, "Val": 61.73},
					 {"Seq": 21, "Val": 41.75},
					 {"Seq": 22, "Val": 58.25},
					 {"Seq": 23, "Val": 78.22},
					 {"Seq": 24, "Val": 98.20},
					 {"Seq": 25, "Val": 81.83},
					 {"Seq": 26, "Val": 61.85},
					 {"Seq": 27, "Val": 41.85},
					 {"Seq": 28, "Val": 58.13},
					 {"Seq": 29, "Val": 78.10},
					 {"Seq": 30, "Val": 98.08},
					 {"Seq": 31, "Val": 100.00},
					 {"Seq": 32, "Val": 100.00},
					 {"Seq": 33, "Val": 100.00},
					 {"Seq": 34, "Val": 100.00},
					 {"Seq": 35, "Val": 100.00},
					 {"Seq": 36, "Val": 100.00},
					 {"Seq": 37, "Val": 100.00},
					 {"Seq": 38, "Val": 100.00},
					 {"Seq": 39, "Val": 100.00},
					 {"Seq": 40, "Val": 100.00},
					 {"Seq": 41, "Val": 100.00},
					 {"Seq": 42, "Val": 100.00},
					 {"Seq": 43, "Val": 100.00},
					 {"Seq": 44, "Val": 100.00},
					 {"Seq": 45, "Val": 100.00},
					 {"Seq": 46, "Val": 100.00},
					 {"Seq": 47, "Val": 100.00},
					 {"Seq": 48, "Val": 100.00},
					 {"Seq": 49, "Val": 100.00},
					 {"Seq": 50, "Val": 100.00},
					 {"Seq": 51, "Val": 100.00},
					 {"Seq": 52, "Val": 100.00},
					 {"Seq": 53, "Val": 100.00},
					 {"Seq": 54, "Val": 100.00},
					 {"Seq": 55, "Val": 100.00},
					 {"Seq": 56, "Val": 100.00},
					 {"Seq": 57, "Val": 100.00},
					 {"Seq": 58, "Val": 100.00},
					 {"Seq": 59, "Val": 100.00},
					 {"Seq": 60, "Val": 100.00},
					 {"Seq": 61, "Val": 100.00},
					 {"Seq": 62, "Val": 100.00},
					 {"Seq": 63, "Val": 100.00},
					 {"Seq": 64, "Val": 100.00},
					 {"Seq": 65, "Val": 100.00},
					 {"Seq": 66, "Val": 100.00},
					 {"Seq": 67, "Val": 100.00},
					 {"Seq": 68, "Val": 100.00},
					 {"Seq": 69, "Val": 100.00},
					 {"Seq": 70, "Val": 100.00},
					 {"Seq": 71, "Val": 100.00},
					 {"Seq": 72, "Val": 100.00},
					 {"Seq": 73, "Val": 100.00},
					 {"Seq": 74, "Val": 100.00},
					 {"Seq": 75, "Val": 100.00},
					 {"Seq": 76, "Val": 100.00},
					 {"Seq": 77, "Val": 100.00},
					 {"Seq": 78, "Val": 100.00},
					 {"Seq": 79, "Val": 100.00},
					 {"Seq": 80, "Val": 100.00},
					 {"Seq": 81, "Val": 100.00},
					 {"Seq": 82, "Val": 100.00},
					 {"Seq": 83, "Val": 100.00},
					 {"Seq": 84, "Val": 100.00},
					 {"Seq": 85, "Val": 100.00},
					 {"Seq": 86, "Val": 100.00},
					 {"Seq": 87, "Val": 100.00},
					 {"Seq": 88, "Val": 100.00},
					 {"Seq": 89, "Val": 100.00},
					 {"Seq": 90, "Val": 100.00},
					 {"Seq": 91, "Val": 100.00},
					 {"Seq": 92, "Val": 100.00},
					 {"Seq": 93, "Val": 100.00},
					 {"Seq": 94, "Val": 100.00},
					 {"Seq": 95, "Val": 100.00},
					 {"Seq": 96, "Val": 100.00},
					 {"Seq": 97, "Val": 100.00},
					 {"Seq": 98, "Val": 100.00},
					 {"Seq": 99, "Val": 100.00},
					 {"Seq": 100, "Val": 98.05},
					 {"Seq": 101, "Val": 95.72},
					 {"Seq": 102, "Val": 93.39},
					 {"Seq": 103, "Val": 91.06},
					 {"Seq": 104, "Val": 88.73},
					 {"Seq": 105, "Val": 86.40},
					 {"Seq": 106, "Val": 84.07},
					 {"Seq": 107, "Val": 81.74},
					 {"Seq": 108, "Val": 79.41},
					 {"Seq": 109, "Val": 77.08},
					 {"Seq": 110, "Val": 74.74},
					 {"Seq": 111, "Val": 72.41},
					 {"Seq": 112, "Val": 70.08},
					 {"Seq": 113, "Val": 67.75},
					 {"Seq": 114, "Val": 65.42},
					 {"Seq": 115, "Val": 63.09},
					 {"Seq": 116, "Val": 60.76},
					 {"Seq": 117, "Val": 58.43},
					 {"Seq": 118, "Val": 56.10},
					 {"Seq": 119, "Val": 53.77},
					 {"Seq": 120, "Val": 51.43},
					 {"Seq": 121, "Val": 49.10},
					 {"Seq": 122, "Val": 46.77},
					 {"Seq": 123, "Val": 44.44},
					 {"Seq": 124, "Val": 42.11},
					 {"Seq": 125, "Val": 39.78},
					 {"Seq": 126, "Val": 37.45},
					 {"Seq": 127, "Val": 35.12},
					 {"Seq": 128, "Val": 32.79},
					 {"Seq": 129, "Val": 0.00},
					 {"Seq": 130, "Val": 0.00}
					 ] 
				}
			}
		}

	},
	 {"LayName": "w02_building.png", "LayWidth": 144.000000, "LayHeight": 390.000000, "LayID": 119, "ParentID": 0, "LayIn": 0.00, "LayDur": 7.27, "CompIn": 0.00, "CompDur": 7.27, "NumEffects": 0,
		"SourcePath": "//pc10110074/d$/AE_Project/LandscapeSweet_Lite/Taipei_01/w02_building.png",
		"Parameters":{
			"Transform":{
				 "AnchorPoint": { 
					"X": 0.00, "Y": 1.00, "Z": 0.00
					 }, 
				 "Position": { 
					"X": 34.00, "Y": 480.00, "Z": 0.00
					 }, 
				 "Scale": { 
					"X": 100.00, "Y": 100.00, "Z": 100.00
					 }, 
				 "Orientation": { 
					"Keyframes":[ 
					 { "Seq": 0, 	"X": 245.00, "Y": 0.00, "Z": 0.00	},
					 { "Seq": 1, 	"X": 10.00, "Y": 0.00, "Z": 0.00	},
					 { "Seq": 2, 	"X": 350.00, "Y": 0.00, "Z": 0.00	},
					 { "Seq": 3, 	"X": 5.00, "Y": 0.00, "Z": 0.00	},
					 { "Seq": 4, 	"X": 355.00, "Y": 0.00, "Z": 0.00	},
					 { "Seq": 5, 	"X": 0.00, "Y": 0.00, "Z": 0.00	},
					 { "Seq": 6, 	"X": 0.00, "Y": 0.00, "Z": 0.00	},
					 { "Seq": 7, 	"X": 90.00, "Y": 0.00, "Z": 0.00	}
					 ], 
					"Frames":[ 
					 {"Seq": 0, "X": 245.00, "Y": 0.00, "Z": 0.00},
					 {"Seq": 1, "X": 245.00, "Y": 0.00, "Z": 0.00},
					 {"Seq": 2, "X": 245.00, "Y": 0.00, "Z": 0.00},
					 {"Seq": 3, "X": 245.00, "Y": 0.00, "Z": 0.00},
					 {"Seq": 4, "X": 245.00, "Y": 0.00, "Z": 0.00},
					 {"Seq": 5, "X": 245.00, "Y": 0.00, "Z": 0.00},
					 {"Seq": 6, "X": 245.00, "Y": 0.00, "Z": 0.00},
					 {"Seq": 7, "X": 245.00, "Y": 0.00, "Z": 0.00},
					 {"Seq": 8, "X": 245.00, "Y": 0.00, "Z": 0.00},
					 {"Seq": 9, "X": 245.00, "Y": 0.00, "Z": 0.00},
					 {"Seq": 10, "X": 245.00, "Y": 0.00, "Z": 0.00},
					 {"Seq": 11, "X": 245.00, "Y": 0.00, "Z": 0.00},
					 {"Seq": 12, "X": 245.00, "Y": 0.00, "Z": 0.00},
					 {"Seq": 13, "X": 245.00, "Y": 0.00, "Z": 0.00},
					 {"Seq": 14, "X": 245.00, "Y": 0.00, "Z": 0.00},
					 {"Seq": 15, "X": 245.00, "Y": 0.00, "Z": 0.00},
					 {"Seq": 16, "X": 245.00, "Y": 0.00, "Z": 0.00},
					 {"Seq": 17, "X": 245.00, "Y": 0.00, "Z": 0.00},
					 {"Seq": 18, "X": 245.00, "Y": 0.00, "Z": 0.00},
					 {"Seq": 19, "X": 245.00, "Y": 0.00, "Z": 0.00},
					 {"Seq": 20, "X": 245.00, "Y": 0.00, "Z": 0.00},
					 {"Seq": 21, "X": 245.00, "Y": 0.00, "Z": 0.00},
					 {"Seq": 22, "X": 250.82, "Y": 0.00, "Z": 0.00},
					 {"Seq": 23, "X": 256.76, "Y": 0.00, "Z": 0.00},
					 {"Seq": 24, "X": 262.71, "Y": 0.00, "Z": 0.00},
					 {"Seq": 25, "X": 268.65, "Y": 0.00, "Z": 0.00},
					 {"Seq": 26, "X": 274.60, "Y": 0.00, "Z": 0.00},
					 {"Seq": 27, "X": 280.55, "Y": 0.00, "Z": 0.00},
					 {"Seq": 28, "X": 286.50, "Y": 0.00, "Z": 0.00},
					 {"Seq": 29, "X": 292.44, "Y": 0.00, "Z": 0.00},
					 {"Seq": 30, "X": 298.39, "Y": 0.00, "Z": 0.00},
					 {"Seq": 31, "X": 304.33, "Y": 0.00, "Z": 0.00},
					 {"Seq": 32, "X": 310.28, "Y": 0.00, "Z": 0.00},
					 {"Seq": 33, "X": 316.23, "Y": 0.00, "Z": 0.00},
					 {"Seq": 34, "X": 322.17, "Y": 0.00, "Z": 0.00},
					 {"Seq": 35, "X": 328.12, "Y": 0.00, "Z": 0.00},
					 {"Seq": 36, "X": 334.06, "Y": 0.00, "Z": 0.00},
					 {"Seq": 37, "X": 340.01, "Y": 0.00, "Z": 0.00},
					 {"Seq": 38, "X": 345.96, "Y": 0.00, "Z": 0.00},
					 {"Seq": 39, "X": 351.90, "Y": 0.00, "Z": 0.00},
					 {"Seq": 40, "X": 357.85, "Y": 0.00, "Z": 0.00},
					 {"Seq": 41, "X": 3.79, "Y": 0.00, "Z": 0.00},
					 {"Seq": 42, "X": 9.75, "Y": 0.00, "Z": 0.00},
					 {"Seq": 43, "X": 5.22, "Y": 0.00, "Z": 0.00},
					 {"Seq": 44, "X": 0.22, "Y": 0.00, "Z": 0.00},
					 {"Seq": 45, "X": 355.23, "Y": 0.00, "Z": 0.00},
					 {"Seq": 46, "X": 350.24, "Y": 0.00, "Z": 0.00},
					 {"Seq": 47, "X": 353.57, "Y": 0.00, "Z": 0.00},
					 {"Seq": 48, "X": 357.32, "Y": 0.00, "Z": 0.00},
					 {"Seq": 49, "X": 1.06, "Y": 0.00, "Z": 0.00},
					 {"Seq": 50, "X": 4.81, "Y": 0.00, "Z": 0.00},
					 {"Seq": 51, "X": 2.63, "Y": 0.00, "Z": 0.00},
					 {"Seq": 52, "X": 0.13, "Y": 0.00, "Z": 0.00},
					 {"Seq": 53, "X": 357.63, "Y": 0.00, "Z": 0.00},
					 {"Seq": 54, "X": 355.14, "Y": 0.00, "Z": 0.00},
					 {"Seq": 55, "X": 356.18, "Y": 0.00, "Z": 0.00},
					 {"Seq": 56, "X": 357.43, "Y": 0.00, "Z": 0.00},
					 {"Seq": 57, "X": 358.68, "Y": 0.00, "Z": 0.00},
					 {"Seq": 58, "X": 359.93, "Y": 0.00, "Z": 0.00},
					 {"Seq": 59, "X": 0.00, "Y": 0.00, "Z": 0.00},
					 {"Seq": 60, "X": 0.00, "Y": 0.00, "Z": 0.00},
					 {"Seq": 61, "X": 0.00, "Y": 0.00, "Z": 0.00},
					 {"Seq": 62, "X": 0.00, "Y": 0.00, "Z": 0.00},
					 {"Seq": 63, "X": 0.00, "Y": 0.00, "Z": 0.00},
					 {"Seq": 64, "X": 0.00, "Y": 0.00, "Z": 0.00},
					 {"Seq": 65, "X": 0.00, "Y": 0.00, "Z": 0.00},
					 {"Seq": 66, "X": 0.00, "Y": 0.00, "Z": 0.00},
					 {"Seq": 67, "X": 0.00, "Y": 0.00, "Z": 0.00},
					 {"Seq": 68, "X": 0.00, "Y": 0.00, "Z": 0.00},
					 {"Seq": 69, "X": 0.00, "Y": 0.00, "Z": 0.00},
					 {"Seq": 70, "X": 0.00, "Y": 0.00, "Z": 0.00},
					 {"Seq": 71, "X": 0.00, "Y": 0.00, "Z": 0.00},
					 {"Seq": 72, "X": 0.00, "Y": 0.00, "Z": 0.00},
					 {"Seq": 73, "X": 0.00, "Y": 0.00, "Z": 0.00},
					 {"Seq": 74, "X": 0.00, "Y": 0.00, "Z": 0.00},
					 {"Seq": 75, "X": 0.00, "Y": 0.00, "Z": 0.00},
					 {"Seq": 76, "X": 0.00, "Y": 0.00, "Z": 0.00},
					 {"Seq": 77, "X": 0.00, "Y": 0.00, "Z": 0.00},
					 {"Seq": 78, "X": 0.00, "Y": 0.00, "Z": 0.00},
					 {"Seq": 79, "X": 0.00, "Y": 0.00, "Z": 0.00},
					 {"Seq": 80, "X": 0.00, "Y": 0.00, "Z": 0.00},
					 {"Seq": 81, "X": 0.00, "Y": 0.00, "Z": 0.00},
					 {"Seq": 82, "X": 0.00, "Y": 0.00, "Z": 0.00},
					 {"Seq": 83, "X": 0.00, "Y": 0.00, "Z": 0.00},
					 {"Seq": 84, "X": 0.00, "Y": 0.00, "Z": 0.00},
					 {"Seq": 85, "X": 0.00, "Y": 0.00, "Z": 0.00},
					 {"Seq": 86, "X": 0.00, "Y": 0.00, "Z": 0.00},
					 {"Seq": 87, "X": 0.00, "Y": 0.00, "Z": 0.00},
					 {"Seq": 88, "X": 0.00, "Y": 0.00, "Z": 0.00},
					 {"Seq": 89, "X": 0.00, "Y": 0.00, "Z": 0.00},
					 {"Seq": 90, "X": 0.00, "Y": 0.00, "Z": 0.00},
					 {"Seq": 91, "X": 0.00, "Y": 0.00, "Z": 0.00},
					 {"Seq": 92, "X": 0.00, "Y": 0.00, "Z": 0.00},
					 {"Seq": 93, "X": 0.00, "Y": 0.00, "Z": 0.00},
					 {"Seq": 94, "X": 0.00, "Y": 0.00, "Z": 0.00},
					 {"Seq": 95, "X": 0.00, "Y": 0.00, "Z": 0.00},
					 {"Seq": 96, "X": 0.00, "Y": 0.00, "Z": 0.00},
					 {"Seq": 97, "X": 0.00, "Y": 0.00, "Z": 0.00},
					 {"Seq": 98, "X": 0.00, "Y": 0.00, "Z": 0.00},
					 {"Seq": 99, "X": 0.00, "Y": 0.00, "Z": 0.00},
					 {"Seq": 100, "X": 0.00, "Y": 0.00, "Z": 0.00},
					 {"Seq": 101, "X": 0.00, "Y": 0.00, "Z": 0.00},
					 {"Seq": 102, "X": 0.00, "Y": 0.00, "Z": 0.00},
					 {"Seq": 103, "X": 0.00, "Y": 0.00, "Z": 0.00},
					 {"Seq": 104, "X": 0.00, "Y": 0.00, "Z": 0.00},
					 {"Seq": 105, "X": 0.00, "Y": 0.00, "Z": 0.00},
					 {"Seq": 106, "X": 0.00, "Y": 0.00, "Z": 0.00},
					 {"Seq": 107, "X": 0.00, "Y": 0.00, "Z": 0.00},
					 {"Seq": 108, "X": 0.00, "Y": 0.00, "Z": 0.00},
					 {"Seq": 109, "X": 0.00, "Y": 0.00, "Z": 0.00},
					 {"Seq": 110, "X": 0.00, "Y": 0.00, "Z": 0.00},
					 {"Seq": 111, "X": 0.00, "Y": 0.00, "Z": 0.00},
					 {"Seq": 112, "X": 0.00, "Y": 0.00, "Z": 0.00},
					 {"Seq": 113, "X": 0.00, "Y": 0.00, "Z": 0.00},
					 {"Seq": 114, "X": 0.00, "Y": 0.00, "Z": 0.00},
					 {"Seq": 115, "X": 0.00, "Y": 0.00, "Z": 0.00},
					 {"Seq": 116, "X": 0.00, "Y": 0.00, "Z": 0.00},
					 {"Seq": 117, "X": 0.00, "Y": 0.00, "Z": 0.00},
					 {"Seq": 118, "X": 0.00, "Y": 0.00, "Z": 0.00},
					 {"Seq": 119, "X": 0.00, "Y": 0.00, "Z": 0.00},
					 {"Seq": 120, "X": 0.00, "Y": 0.00, "Z": 0.00},
					 {"Seq": 121, "X": 0.00, "Y": 0.00, "Z": 0.00},
					 {"Seq": 122, "X": 0.00, "Y": 0.00, "Z": 0.00},
					 {"Seq": 123, "X": 0.00, "Y": 0.00, "Z": 0.00},
					 {"Seq": 124, "X": 0.00, "Y": 0.00, "Z": 0.00},
					 {"Seq": 125, "X": 0.00, "Y": 0.00, "Z": 0.00},
					 {"Seq": 126, "X": 0.00, "Y": 0.00, "Z": 0.00},
					 {"Seq": 127, "X": 0.00, "Y": 0.00, "Z": 0.00},
					 {"Seq": 128, "X": 0.00, "Y": 0.00, "Z": 0.00},
					 {"Seq": 129, "X": 0.00, "Y": 0.00, "Z": 0.00},
					 {"Seq": 130, "X": 0.00, "Y": 0.00, "Z": 0.00},
					 {"Seq": 131, "X": 0.00, "Y": 0.00, "Z": 0.00},
					 {"Seq": 132, "X": 0.00, "Y": 0.00, "Z": 0.00},
					 {"Seq": 133, "X": 0.00, "Y": 0.00, "Z": 0.00},
					 {"Seq": 134, "X": 0.00, "Y": 0.00, "Z": 0.00},
					 {"Seq": 135, "X": 0.00, "Y": 0.00, "Z": 0.00},
					 {"Seq": 136, "X": 0.00, "Y": 0.00, "Z": 0.00},
					 {"Seq": 137, "X": 0.00, "Y": 0.00, "Z": 0.00},
					 {"Seq": 138, "X": 0.00, "Y": 0.00, "Z": 0.00},
					 {"Seq": 139, "X": 0.00, "Y": 0.00, "Z": 0.00},
					 {"Seq": 140, "X": 0.00, "Y": 0.00, "Z": 0.00},
					 {"Seq": 141, "X": 0.00, "Y": 0.00, "Z": 0.00},
					 {"Seq": 142, "X": 0.00, "Y": 0.00, "Z": 0.00},
					 {"Seq": 143, "X": 0.00, "Y": 0.00, "Z": 0.00},
					 {"Seq": 144, "X": 0.00, "Y": 0.00, "Z": 0.00},
					 {"Seq": 145, "X": 0.00, "Y": 0.00, "Z": 0.00},
					 {"Seq": 146, "X": 0.00, "Y": 0.00, "Z": 0.00},
					 {"Seq": 147, "X": 0.00, "Y": 0.00, "Z": 0.00},
					 {"Seq": 148, "X": 0.00, "Y": 0.00, "Z": 0.00},
					 {"Seq": 149, "X": 0.00, "Y": 0.00, "Z": 0.00},
					 {"Seq": 150, "X": 0.00, "Y": 0.00, "Z": 0.00},
					 {"Seq": 151, "X": 0.00, "Y": 0.00, "Z": 0.00},
					 {"Seq": 152, "X": 0.00, "Y": 0.00, "Z": 0.00},
					 {"Seq": 153, "X": 0.00, "Y": 0.00, "Z": 0.00},
					 {"Seq": 154, "X": 0.00, "Y": 0.00, "Z": 0.00},
					 {"Seq": 155, "X": 0.00, "Y": 0.00, "Z": 0.00},
					 {"Seq": 156, "X": 0.00, "Y": 0.00, "Z": 0.00},
					 {"Seq": 157, "X": 0.00, "Y": 0.00, "Z": 0.00},
					 {"Seq": 158, "X": 0.00, "Y": 0.00, "Z": 0.00},
					 {"Seq": 159, "X": 0.00, "Y": 0.00, "Z": 0.00},
					 {"Seq": 160, "X": 0.00, "Y": 0.00, "Z": 0.00},
					 {"Seq": 161, "X": 0.00, "Y": 0.00, "Z": 0.00},
					 {"Seq": 162, "X": 0.00, "Y": 0.00, "Z": 0.00},
					 {"Seq": 163, "X": 0.00, "Y": 0.00, "Z": 0.00},
					 {"Seq": 164, "X": 0.00, "Y": 0.00, "Z": 0.00},
					 {"Seq": 165, "X": 0.00, "Y": 0.00, "Z": 0.00},
					 {"Seq": 166, "X": 0.00, "Y": 0.00, "Z": 0.00},
					 {"Seq": 167, "X": 0.00, "Y": 0.00, "Z": 0.00},
					 {"Seq": 168, "X": 0.00, "Y": 0.00, "Z": 0.00},
					 {"Seq": 169, "X": 0.00, "Y": 0.00, "Z": 0.00},
					 {"Seq": 170, "X": 0.00, "Y": 0.00, "Z": 0.00},
					 {"Seq": 171, "X": 0.00, "Y": 0.00, "Z": 0.00},
					 {"Seq": 172, "X": 0.00, "Y": 0.00, "Z": 0.00},
					 {"Seq": 173, "X": 0.00, "Y": 0.00, "Z": 0.00},
					 {"Seq": 174, "X": 0.00, "Y": 0.00, "Z": 0.00},
					 {"Seq": 175, "X": 0.00, "Y": 0.00, "Z": 0.00},
					 {"Seq": 176, "X": 0.00, "Y": 0.00, "Z": 0.00},
					 {"Seq": 177, "X": 0.00, "Y": 0.00, "Z": 0.00},
					 {"Seq": 178, "X": 0.00, "Y": 0.00, "Z": 0.00},
					 {"Seq": 179, "X": 0.00, "Y": 0.00, "Z": 0.00},
					 {"Seq": 180, "X": 0.00, "Y": 0.00, "Z": 0.00},
					 {"Seq": 181, "X": 0.00, "Y": 0.00, "Z": 0.00},
					 {"Seq": 182, "X": 0.00, "Y": 0.00, "Z": 0.00},
					 {"Seq": 183, "X": 0.00, "Y": 0.00, "Z": 0.00},
					 {"Seq": 184, "X": 0.00, "Y": 0.00, "Z": 0.00},
					 {"Seq": 185, "X": 0.00, "Y": 0.00, "Z": 0.00},
					 {"Seq": 186, "X": 0.00, "Y": 0.00, "Z": 0.00},
					 {"Seq": 187, "X": 0.00, "Y": 0.00, "Z": 0.00},
					 {"Seq": 188, "X": 0.00, "Y": 0.00, "Z": 0.00},
					 {"Seq": 189, "X": 0.00, "Y": 0.00, "Z": 0.00},
					 {"Seq": 190, "X": 0.00, "Y": 0.00, "Z": 0.00},
					 {"Seq": 190, "X": 0.00, "Y": 0.00, "Z": 0.00},
					 {"Seq": 190, "X": 0.00, "Y": 0.00, "Z": 0.00},
					 {"Seq": 190, "X": 0.00, "Y": 0.00, "Z": 0.00},
					 {"Seq": 190, "X": 0.00, "Y": 0.00, "Z": 0.00},
					 {"Seq": 190, "X": 0.00, "Y": 0.00, "Z": 0.00},	
					 {"Seq": 190, "X": 0.00, "Y": 0.00, "Z": 0.00},
					 {"Seq": 191, "X": 0.00, "Y": 0.00, "Z": 0.00},
					 {"Seq": 192, "X": 0.00, "Y": 0.00, "Z": 0.00},
					 {"Seq": 193, "X": 0.00, "Y": 0.00, "Z": 0.00},
					 {"Seq": 194, "X": 0.00, "Y": 0.00, "Z": 0.00},
					 {"Seq": 195, "X": 5.17, "Y": 0.00, "Z": 0.00},
					 {"Seq": 196, "X": 11.59, "Y": 0.00, "Z": 0.00},
					 {"Seq": 197, "X": 18.02, "Y": 0.00, "Z": 0.00},
					 {"Seq": 198, "X": 24.44, "Y": 0.00, "Z": 0.00},
					 {"Seq": 199, "X": 30.86, "Y": 0.00, "Z": 0.00},
					 {"Seq": 200, "X": 37.28, "Y": 0.00, "Z": 0.00},
					 {"Seq": 201, "X": 43.70, "Y": 0.00, "Z": 0.00},
					 {"Seq": 202, "X": 50.13, "Y": 0.00, "Z": 0.00},
					 {"Seq": 203, "X": 56.55, "Y": 0.00, "Z": 0.00},
					 {"Seq": 204, "X": 62.97, "Y": 0.00, "Z": 0.00},
					 {"Seq": 205, "X": 69.39, "Y": 0.00, "Z": 0.00},
					 {"Seq": 206, "X": 75.81, "Y": 0.00, "Z": 0.00},
					 {"Seq": 207, "X": 82.24, "Y": 0.00, "Z": 0.00},
					 {"Seq": 208, "X": 88.66, "Y": 0.00, "Z": 0.00},
					 {"Seq": 209, "X": 90.00, "Y": 0.00, "Z": 0.00},
					 {"Seq": 210, "X": 90.00, "Y": 0.00, "Z": 0.00},
					 {"Seq": 217, "X": 90.00, "Y": 0.00, "Z": 0.00}
					 ] 
				}
,				 "XRotation": { 
					"Val": 0.00
					 }, 
				 "YRotation": { 
					"Val": 0.00
					 }, 
				 "ZRotation": { 
					"Val": 0.00
					 }, 
				 "Opacity": { 
					"Val": 100.00
					 } 
			}
		}

	},
	 {"LayName": "w05_sun.png", "LayWidth": 240.000000, "LayHeight": 240.000000, "LayID": 118, "ParentID": 0, "LayIn": 0.00, "LayDur": 7.27, "CompIn": 0.00, "CompDur": 7.27, "NumEffects": 0,
		"SourcePath": "//pc10110074/d$/AE_Project/LandscapeSweet_Lite/Taipei_01/w05_sun.png",
		"Parameters":{
			"Transform":{
				 "AnchorPoint": { 
					"X": -0.17, "Y": 2.00, "Z": 0.00
					 }, 
				 "Position": { 
					"X": -40.00, "Y": 500.00, "Z": 100.00
					 }, 
				 "Scale": { 
					"X": 100.00, "Y": 100.00, "Z": 100.00
					 }, 
				 "Orientation": { 
					"Keyframes":[ 
					 { "Seq": 0, 	"X": 245.00, "Y": 0.00, "Z": 0.00	},
					 { "Seq": 1, 	"X": 10.00, "Y": 0.00, "Z": 0.00	},
					 { "Seq": 2, 	"X": 350.00, "Y": 0.00, "Z": 0.00	},
					 { "Seq": 3, 	"X": 5.00, "Y": 0.00, "Z": 0.00	},
					 { "Seq": 4, 	"X": 355.00, "Y": 0.00, "Z": 0.00	},
					 { "Seq": 5, 	"X": 0.00, "Y": 0.00, "Z": 0.00	},
					 { "Seq": 6, 	"X": 0.00, "Y": 0.00, "Z": 0.00	},
					 { "Seq": 7, 	"X": 90.00, "Y": 0.00, "Z": 0.00	}
					 ], 
					"Frames":[ 
					 {"Seq": 0, "X": 245.00, "Y": 0.00, "Z": 0.00},
					 {"Seq": 1, "X": 245.00, "Y": 0.00, "Z": 0.00},
					 {"Seq": 2, "X": 245.00, "Y": 0.00, "Z": 0.00},
					 {"Seq": 3, "X": 245.00, "Y": 0.00, "Z": 0.00},
					 {"Seq": 4, "X": 245.00, "Y": 0.00, "Z": 0.00},
					 {"Seq": 5, "X": 245.00, "Y": 0.00, "Z": 0.00},
					 {"Seq": 6, "X": 245.00, "Y": 0.00, "Z": 0.00},
					 {"Seq": 7, "X": 245.00, "Y": 0.00, "Z": 0.00},
					 {"Seq": 8, "X": 245.00, "Y": 0.00, "Z": 0.00},
					 {"Seq": 9, "X": 245.00, "Y": 0.00, "Z": 0.00},
					 {"Seq": 10, "X": 245.00, "Y": 0.00, "Z": 0.00},
					 {"Seq": 11, "X": 245.00, "Y": 0.00, "Z": 0.00},
					 {"Seq": 12, "X": 245.00, "Y": 0.00, "Z": 0.00},
					 {"Seq": 13, "X": 245.00, "Y": 0.00, "Z": 0.00},
					 {"Seq": 14, "X": 245.00, "Y": 0.00, "Z": 0.00},
					 {"Seq": 15, "X": 245.00, "Y": 0.00, "Z": 0.00},
					 {"Seq": 16, "X": 245.00, "Y": 0.00, "Z": 0.00},
					 {"Seq": 17, "X": 245.00, "Y": 0.00, "Z": 0.00},
					 {"Seq": 18, "X": 245.00, "Y": 0.00, "Z": 0.00},
					 {"Seq": 19, "X": 245.00, "Y": 0.00, "Z": 0.00},
					 {"Seq": 20, "X": 245.00, "Y": 0.00, "Z": 0.00},
					 {"Seq": 21, "X": 245.00, "Y": 0.00, "Z": 0.00},
					 {"Seq": 22, "X": 245.00, "Y": 0.00, "Z": 0.00},
					 {"Seq": 23, "X": 245.00, "Y": 0.00, "Z": 0.00},
					 {"Seq": 24, "X": 245.00, "Y": 0.00, "Z": 0.00},
					 {"Seq": 25, "X": 245.00, "Y": 0.00, "Z": 0.00},
					 {"Seq": 26, "X": 245.00, "Y": 0.00, "Z": 0.00},
					 {"Seq": 27, "X": 245.00, "Y": 0.00, "Z": 0.00},
					 {"Seq": 28, "X": 250.78, "Y": 0.00, "Z": 0.00},
					 {"Seq": 29, "X": 256.73, "Y": 0.00, "Z": 0.00},
					 {"Seq": 30, "X": 262.67, "Y": 0.00, "Z": 0.00},
					 {"Seq": 31, "X": 268.62, "Y": 0.00, "Z": 0.00},
					 {"Seq": 32, "X": 274.57, "Y": 0.00, "Z": 0.00},
					 {"Seq": 33, "X": 280.51, "Y": 0.00, "Z": 0.00},
					 {"Seq": 34, "X": 286.46, "Y": 0.00, "Z": 0.00},
					 {"Seq": 35, "X": 292.40, "Y": 0.00, "Z": 0.00},
					 {"Seq": 36, "X": 298.35, "Y": 0.00, "Z": 0.00},
					 {"Seq": 37, "X": 304.30, "Y": 0.00, "Z": 0.00},
					 {"Seq": 38, "X": 310.25, "Y": 0.00, "Z": 0.00},
					 {"Seq": 39, "X": 316.19, "Y": 0.00, "Z": 0.00},
					 {"Seq": 40, "X": 322.14, "Y": 0.00, "Z": 0.00},
					 {"Seq": 41, "X": 328.08, "Y": 0.00, "Z": 0.00},
					 {"Seq": 42, "X": 334.03, "Y": 0.00, "Z": 0.00},
					 {"Seq": 43, "X": 339.98, "Y": 0.00, "Z": 0.00},
					 {"Seq": 44, "X": 345.92, "Y": 0.00, "Z": 0.00},
					 {"Seq": 45, "X": 351.87, "Y": 0.00, "Z": 0.00},
					 {"Seq": 46, "X": 357.81, "Y": 0.00, "Z": 0.00},
					 {"Seq": 47, "X": 3.76, "Y": 0.00, "Z": 0.00},
					 {"Seq": 48, "X": 9.71, "Y": 0.00, "Z": 0.00},
					 {"Seq": 49, "X": 5.25, "Y": 0.00, "Z": 0.00},
					 {"Seq": 50, "X": 0.26, "Y": 0.00, "Z": 0.00},
					 {"Seq": 51, "X": 355.26, "Y": 0.00, "Z": 0.00},
					 {"Seq": 52, "X": 350.26, "Y": 0.00, "Z": 0.00},
					 {"Seq": 53, "X": 353.55, "Y": 0.00, "Z": 0.00},
					 {"Seq": 54, "X": 357.29, "Y": 0.00, "Z": 0.00},
					 {"Seq": 55, "X": 1.04, "Y": 0.00, "Z": 0.00},
					 {"Seq": 56, "X": 4.78, "Y": 0.00, "Z": 0.00},
					 {"Seq": 57, "X": 2.64, "Y": 0.00, "Z": 0.00},
					 {"Seq": 58, "X": 0.15, "Y": 0.00, "Z": 0.00},
					 {"Seq": 59, "X": 357.65, "Y": 0.00, "Z": 0.00},
					 {"Seq": 60, "X": 355.15, "Y": 0.00, "Z": 0.00},
					 {"Seq": 61, "X": 356.17, "Y": 0.00, "Z": 0.00},
					 {"Seq": 62, "X": 357.42, "Y": 0.00, "Z": 0.00},
					 {"Seq": 63, "X": 358.67, "Y": 0.00, "Z": 0.00},
					 {"Seq": 64, "X": 359.92, "Y": 0.00, "Z": 0.00},
					 {"Seq": 65, "X": 0.00, "Y": 0.00, "Z": 0.00},
					 {"Seq": 66, "X": 0.00, "Y": 0.00, "Z": 0.00},
					 {"Seq": 67, "X": 0.00, "Y": 0.00, "Z": 0.00},
					 {"Seq": 68, "X": 0.00, "Y": 0.00, "Z": 0.00},
					 {"Seq": 69, "X": 0.00, "Y": 0.00, "Z": 0.00},
					 {"Seq": 70, "X": 0.00, "Y": 0.00, "Z": 0.00},
					 {"Seq": 71, "X": 0.00, "Y": 0.00, "Z": 0.00},
					 {"Seq": 72, "X": 0.00, "Y": 0.00, "Z": 0.00},
					 {"Seq": 73, "X": 0.00, "Y": 0.00, "Z": 0.00},
					 {"Seq": 74, "X": 0.00, "Y": 0.00, "Z": 0.00},
					 {"Seq": 75, "X": 0.00, "Y": 0.00, "Z": 0.00},
					 {"Seq": 76, "X": 0.00, "Y": 0.00, "Z": 0.00},
					 {"Seq": 77, "X": 0.00, "Y": 0.00, "Z": 0.00},
					 {"Seq": 78, "X": 0.00, "Y": 0.00, "Z": 0.00},
					 {"Seq": 79, "X": 0.00, "Y": 0.00, "Z": 0.00},
					 {"Seq": 80, "X": 0.00, "Y": 0.00, "Z": 0.00},
					 {"Seq": 81, "X": 0.00, "Y": 0.00, "Z": 0.00},
					 {"Seq": 82, "X": 0.00, "Y": 0.00, "Z": 0.00},
					 {"Seq": 83, "X": 0.00, "Y": 0.00, "Z": 0.00},
					 {"Seq": 84, "X": 0.00, "Y": 0.00, "Z": 0.00},
					 {"Seq": 85, "X": 0.00, "Y": 0.00, "Z": 0.00},
					 {"Seq": 86, "X": 0.00, "Y": 0.00, "Z": 0.00},
					 {"Seq": 87, "X": 0.00, "Y": 0.00, "Z": 0.00},
					 {"Seq": 88, "X": 0.00, "Y": 0.00, "Z": 0.00},
					 {"Seq": 89, "X": 0.00, "Y": 0.00, "Z": 0.00},
					 {"Seq": 90, "X": 0.00, "Y": 0.00, "Z": 0.00},
					 {"Seq": 91, "X": 0.00, "Y": 0.00, "Z": 0.00},
					 {"Seq": 92, "X": 0.00, "Y": 0.00, "Z": 0.00},
					 {"Seq": 93, "X": 0.00, "Y": 0.00, "Z": 0.00},
					 {"Seq": 94, "X": 0.00, "Y": 0.00, "Z": 0.00},
					 {"Seq": 95, "X": 0.00, "Y": 0.00, "Z": 0.00},
					 {"Seq": 96, "X": 0.00, "Y": 0.00, "Z": 0.00},
					 {"Seq": 97, "X": 0.00, "Y": 0.00, "Z": 0.00},
					 {"Seq": 98, "X": 0.00, "Y": 0.00, "Z": 0.00},
					 {"Seq": 99, "X": 0.00, "Y": 0.00, "Z": 0.00},
					 {"Seq": 100, "X": 0.00, "Y": 0.00, "Z": 0.00},
					 {"Seq": 101, "X": 0.00, "Y": 0.00, "Z": 0.00},
					 {"Seq": 102, "X": 0.00, "Y": 0.00, "Z": 0.00},
					 {"Seq": 103, "X": 0.00, "Y": 0.00, "Z": 0.00},
					 {"Seq": 104, "X": 0.00, "Y": 0.00, "Z": 0.00},
					 {"Seq": 105, "X": 0.00, "Y": 0.00, "Z": 0.00},
					 {"Seq": 106, "X": 0.00, "Y": 0.00, "Z": 0.00},
					 {"Seq": 107, "X": 0.00, "Y": 0.00, "Z": 0.00},
					 {"Seq": 108, "X": 0.00, "Y": 0.00, "Z": 0.00},
					 {"Seq": 109, "X": 0.00, "Y": 0.00, "Z": 0.00},
					 {"Seq": 110, "X": 0.00, "Y": 0.00, "Z": 0.00},
					 {"Seq": 111, "X": 0.00, "Y": 0.00, "Z": 0.00},
					 {"Seq": 112, "X": 0.00, "Y": 0.00, "Z": 0.00},
					 {"Seq": 113, "X": 0.00, "Y": 0.00, "Z": 0.00},
					 {"Seq": 114, "X": 0.00, "Y": 0.00, "Z": 0.00},
					 {"Seq": 115, "X": 0.00, "Y": 0.00, "Z": 0.00},
					 {"Seq": 116, "X": 0.00, "Y": 0.00, "Z": 0.00},
					 {"Seq": 117, "X": 0.00, "Y": 0.00, "Z": 0.00},
					 {"Seq": 118, "X": 0.00, "Y": 0.00, "Z": 0.00},
					 {"Seq": 119, "X": 0.00, "Y": 0.00, "Z": 0.00},
					 {"Seq": 120, "X": 0.00, "Y": 0.00, "Z": 0.00},
					 {"Seq": 121, "X": 0.00, "Y": 0.00, "Z": 0.00},
					 {"Seq": 122, "X": 0.00, "Y": 0.00, "Z": 0.00},
					 {"Seq": 123, "X": 0.00, "Y": 0.00, "Z": 0.00},
					 {"Seq": 124, "X": 0.00, "Y": 0.00, "Z": 0.00},
					 {"Seq": 125, "X": 0.00, "Y": 0.00, "Z": 0.00},
					 {"Seq": 126, "X": 0.00, "Y": 0.00, "Z": 0.00},
					 {"Seq": 127, "X": 0.00, "Y": 0.00, "Z": 0.00},
					 {"Seq": 128, "X": 0.00, "Y": 0.00, "Z": 0.00},
					 {"Seq": 129, "X": 0.00, "Y": 0.00, "Z": 0.00},
					 {"Seq": 130, "X": 0.00, "Y": 0.00, "Z": 0.00},
					 {"Seq": 131, "X": 0.00, "Y": 0.00, "Z": 0.00},
					 {"Seq": 132, "X": 0.00, "Y": 0.00, "Z": 0.00},
					 {"Seq": 133, "X": 0.00, "Y": 0.00, "Z": 0.00},
					 {"Seq": 134, "X": 0.00, "Y": 0.00, "Z": 0.00},
					 {"Seq": 135, "X": 0.00, "Y": 0.00, "Z": 0.00},
					 {"Seq": 136, "X": 0.00, "Y": 0.00, "Z": 0.00},
					 {"Seq": 137, "X": 0.00, "Y": 0.00, "Z": 0.00},
					 {"Seq": 138, "X": 0.00, "Y": 0.00, "Z": 0.00},
					 {"Seq": 139, "X": 0.00, "Y": 0.00, "Z": 0.00},
					 {"Seq": 140, "X": 0.00, "Y": 0.00, "Z": 0.00},
					 {"Seq": 141, "X": 0.00, "Y": 0.00, "Z": 0.00},
					 {"Seq": 142, "X": 0.00, "Y": 0.00, "Z": 0.00},
					 {"Seq": 143, "X": 0.00, "Y": 0.00, "Z": 0.00},
					 {"Seq": 144, "X": 0.00, "Y": 0.00, "Z": 0.00},
					 {"Seq": 145, "X": 0.00, "Y": 0.00, "Z": 0.00},
					 {"Seq": 146, "X": 0.00, "Y": 0.00, "Z": 0.00},
					 {"Seq": 147, "X": 0.00, "Y": 0.00, "Z": 0.00},
					 {"Seq": 148, "X": 0.00, "Y": 0.00, "Z": 0.00},
					 {"Seq": 149, "X": 0.00, "Y": 0.00, "Z": 0.00},
					 {"Seq": 150, "X": 0.00, "Y": 0.00, "Z": 0.00},
					 {"Seq": 151, "X": 0.00, "Y": 0.00, "Z": 0.00},
					 {"Seq": 152, "X": 0.00, "Y": 0.00, "Z": 0.00},
					 {"Seq": 153, "X": 0.00, "Y": 0.00, "Z": 0.00},
					 {"Seq": 154, "X": 0.00, "Y": 0.00, "Z": 0.00},
					 {"Seq": 155, "X": 0.00, "Y": 0.00, "Z": 0.00},
					 {"Seq": 156, "X": 0.00, "Y": 0.00, "Z": 0.00},
					 {"Seq": 157, "X": 0.00, "Y": 0.00, "Z": 0.00},
					 {"Seq": 158, "X": 0.00, "Y": 0.00, "Z": 0.00},
					 {"Seq": 159, "X": 0.00, "Y": 0.00, "Z": 0.00},
					 {"Seq": 160, "X": 0.00, "Y": 0.00, "Z": 0.00},
					 {"Seq": 161, "X": 0.00, "Y": 0.00, "Z": 0.00},
					 {"Seq": 162, "X": 0.00, "Y": 0.00, "Z": 0.00},
					 {"Seq": 163, "X": 0.00, "Y": 0.00, "Z": 0.00},
					 {"Seq": 164, "X": 0.00, "Y": 0.00, "Z": 0.00},
					 {"Seq": 165, "X": 0.00, "Y": 0.00, "Z": 0.00},
					 {"Seq": 166, "X": 0.00, "Y": 0.00, "Z": 0.00},
					 {"Seq": 167, "X": 0.00, "Y": 0.00, "Z": 0.00},
					 {"Seq": 168, "X": 0.00, "Y": 0.00, "Z": 0.00},
					 {"Seq": 169, "X": 0.00, "Y": 0.00, "Z": 0.00},
					 {"Seq": 170, "X": 0.00, "Y": 0.00, "Z": 0.00},
					 {"Seq": 171, "X": 0.00, "Y": 0.00, "Z": 0.00},
					 {"Seq": 172, "X": 0.00, "Y": 0.00, "Z": 0.00},
					 {"Seq": 173, "X": 0.00, "Y": 0.00, "Z": 0.00},
					 {"Seq": 174, "X": 0.00, "Y": 0.00, "Z": 0.00},
					 {"Seq": 175, "X": 0.00, "Y": 0.00, "Z": 0.00},
					 {"Seq": 176, "X": 0.00, "Y": 0.00, "Z": 0.00},
					 {"Seq": 177, "X": 0.00, "Y": 0.00, "Z": 0.00},
					 {"Seq": 178, "X": 0.00, "Y": 0.00, "Z": 0.00},
					 {"Seq": 179, "X": 0.00, "Y": 0.00, "Z": 0.00},
					 {"Seq": 180, "X": 0.00, "Y": 0.00, "Z": 0.00},
					 {"Seq": 181, "X": 0.00, "Y": 0.00, "Z": 0.00},
					 {"Seq": 182, "X": 0.00, "Y": 0.00, "Z": 0.00},
					 {"Seq": 183, "X": 0.00, "Y": 0.00, "Z": 0.00},
					 {"Seq": 184, "X": 0.00, "Y": 0.00, "Z": 0.00},
					 {"Seq": 185, "X": 0.00, "Y": 0.00, "Z": 0.00},
					 {"Seq": 186, "X": 0.00, "Y": 0.00, "Z": 0.00},
					 {"Seq": 187, "X": 0.00, "Y": 0.00, "Z": 0.00},
					 {"Seq": 188, "X": 0.00, "Y": 0.00, "Z": 0.00},
					 {"Seq": 189, "X": 0.00, "Y": 0.00, "Z": 0.00},
					 {"Seq": 190, "X": 0.00, "Y": 0.00, "Z": 0.00},
					 {"Seq": 191, "X": 0.00, "Y": 0.00, "Z": 0.00},
					 {"Seq": 192, "X": 0.00, "Y": 0.00, "Z": 0.00},
					 {"Seq": 193, "X": 0.00, "Y": 0.00, "Z": 0.00},
					 {"Seq": 194, "X": 0.00, "Y": 0.00, "Z": 0.00},
					 {"Seq": 195, "X": 0.00, "Y": 0.00, "Z": 0.00},
					 {"Seq": 196, "X": 0.00, "Y": 0.00, "Z": 0.00},
					 {"Seq": 197, "X": 5.16, "Y": 0.00, "Z": 0.00},
					 {"Seq": 198, "X": 11.58, "Y": 0.00, "Z": 0.00},
					 {"Seq": 199, "X": 18.00, "Y": 0.00, "Z": 0.00},
					 {"Seq": 200, "X": 24.42, "Y": 0.00, "Z": 0.00},
					 {"Seq": 201, "X": 30.84, "Y": 0.00, "Z": 0.00},
					 {"Seq": 202, "X": 37.27, "Y": 0.00, "Z": 0.00},
					 {"Seq": 203, "X": 43.69, "Y": 0.00, "Z": 0.00},
					 {"Seq": 204, "X": 50.11, "Y": 0.00, "Z": 0.00},
					 {"Seq": 205, "X": 56.53, "Y": 0.00, "Z": 0.00},
					 {"Seq": 206, "X": 62.95, "Y": 0.00, "Z": 0.00},
					 {"Seq": 207, "X": 69.38, "Y": 0.00, "Z": 0.00},
					 {"Seq": 208, "X": 75.80, "Y": 0.00, "Z": 0.00},
					 {"Seq": 209, "X": 82.22, "Y": 0.00, "Z": 0.00},
					 {"Seq": 210, "X": 88.64, "Y": 0.00, "Z": 0.00},
					 {"Seq": 211, "X": 90.00, "Y": 0.00, "Z": 0.00},
					 {"Seq": 212, "X": 90.00, "Y": 0.00, "Z": 0.00},
					 {"Seq": 213, "X": 90.00, "Y": 0.00, "Z": 0.00},
					 {"Seq": 214, "X": 90.00, "Y": 0.00, "Z": 0.00},
					 {"Seq": 215, "X": 90.00, "Y": 0.00, "Z": 0.00},
					 {"Seq": 216, "X": 90.00, "Y": 0.00, "Z": 0.00},
					 {"Seq": 217, "X": 90.00, "Y": 0.00, "Z": 0.00}
					 ] 
				}
,				 "XRotation": { 
					"Val": 0.00
					 }, 
				 "YRotation": { 
					"Val": 0.00
					 }, 
				 "ZRotation": { 
					"Val": 0.00
					 }, 
				 "Opacity": { 
					"Val": 100.00
					 } 
			}
		}

	},
	 {"LayName": "w01_time.png", "LayWidth": 661.000000, "LayHeight": 244.000000, "LayID": 117, "ParentID": 0, "LayIn": 0.00, "LayDur": 7.27, "CompIn": 0.00, "CompDur": 7.27, "NumEffects": 0,
		"SourcePath": "C:/Data/Projects/2010103DProjects/P2_LandscapeSweet_Lite/Taipei_01/taipei_time.png",
		"Parameters":{
			"Transform":{
				 "AnchorPoint": { 
					"X": -0.23, "Y": 2.01, "Z": 0.00
					 }, 
				 "Position": { 
					"X": -80.00, "Y": 520.00, "Z": 200.00
					 }, 
				 "Scale": { 
					"X": 100.00, "Y": 100.00, "Z": 100.00
					 }, 
				 "Orientation": { 
					"Keyframes":[ 
					 { "Seq": 0, 	"X": 245.00, "Y": 0.00, "Z": 0.00	},
					 { "Seq": 1, 	"X": 10.00, "Y": 0.00, "Z": 0.00	},
					 { "Seq": 2, 	"X": 350.00, "Y": 0.00, "Z": 0.00	},
					 { "Seq": 3, 	"X": 5.00, "Y": 0.00, "Z": 0.00	},
					 { "Seq": 4, 	"X": 355.00, "Y": 0.00, "Z": 0.00	},
					 { "Seq": 5, 	"X": 0.00, "Y": 0.00, "Z": 0.00	},
					 { "Seq": 6, 	"X": 0.00, "Y": 0.00, "Z": 0.00	},
					 { "Seq": 7, 	"X": 90.00, "Y": 0.00, "Z": 0.00	}
					 ], 
					"Frames":[ 
					 {"Seq": 0, "X": 245.00, "Y": 0.00, "Z": 0.00},
					 {"Seq": 1, "X": 245.00, "Y": 0.00, "Z": 0.00},
					 {"Seq": 2, "X": 245.00, "Y": 0.00, "Z": 0.00},
					 {"Seq": 3, "X": 245.00, "Y": 0.00, "Z": 0.00},
					 {"Seq": 4, "X": 245.00, "Y": 0.00, "Z": 0.00},
					 {"Seq": 5, "X": 245.00, "Y": 0.00, "Z": 0.00},
					 {"Seq": 6, "X": 245.00, "Y": 0.00, "Z": 0.00},
					 {"Seq": 7, "X": 245.00, "Y": 0.00, "Z": 0.00},
					 {"Seq": 8, "X": 245.00, "Y": 0.00, "Z": 0.00},
					 {"Seq": 9, "X": 245.00, "Y": 0.00, "Z": 0.00},
					 {"Seq": 10, "X": 245.00, "Y": 0.00, "Z": 0.00},
					 {"Seq": 11, "X": 245.00, "Y": 0.00, "Z": 0.00},
					 {"Seq": 12, "X": 245.00, "Y": 0.00, "Z": 0.00},
					 {"Seq": 13, "X": 245.00, "Y": 0.00, "Z": 0.00},
					 {"Seq": 14, "X": 245.00, "Y": 0.00, "Z": 0.00},
					 {"Seq": 15, "X": 245.00, "Y": 0.00, "Z": 0.00},
					 {"Seq": 16, "X": 245.00, "Y": 0.00, "Z": 0.00},
					 {"Seq": 17, "X": 245.00, "Y": 0.00, "Z": 0.00},
					 {"Seq": 18, "X": 245.00, "Y": 0.00, "Z": 0.00},
					 {"Seq": 19, "X": 245.00, "Y": 0.00, "Z": 0.00},
					 {"Seq": 20, "X": 245.00, "Y": 0.00, "Z": 0.00},
					 {"Seq": 21, "X": 245.00, "Y": 0.00, "Z": 0.00},
					 {"Seq": 22, "X": 245.00, "Y": 0.00, "Z": 0.00},
					 {"Seq": 23, "X": 245.00, "Y": 0.00, "Z": 0.00},
					 {"Seq": 24, "X": 245.00, "Y": 0.00, "Z": 0.00},
					 {"Seq": 25, "X": 245.00, "Y": 0.00, "Z": 0.00},
					 {"Seq": 26, "X": 245.00, "Y": 0.00, "Z": 0.00},
					 {"Seq": 27, "X": 245.00, "Y": 0.00, "Z": 0.00},
					 {"Seq": 28, "X": 245.00, "Y": 0.00, "Z": 0.00},
					 {"Seq": 29, "X": 245.00, "Y": 0.00, "Z": 0.00},
					 {"Seq": 30, "X": 245.00, "Y": 0.00, "Z": 0.00},
					 {"Seq": 31, "X": 245.00, "Y": 0.00, "Z": 0.00},
					 {"Seq": 32, "X": 245.00, "Y": 0.00, "Z": 0.00},
					 {"Seq": 33, "X": 245.00, "Y": 0.00, "Z": 0.00},
					 {"Seq": 34, "X": 250.74, "Y": 0.00, "Z": 0.00},
					 {"Seq": 35, "X": 256.69, "Y": 0.00, "Z": 0.00},
					 {"Seq": 36, "X": 262.63, "Y": 0.00, "Z": 0.00},
					 {"Seq": 37, "X": 268.59, "Y": 0.00, "Z": 0.00},
					 {"Seq": 38, "X": 274.53, "Y": 0.00, "Z": 0.00},
					 {"Seq": 39, "X": 280.48, "Y": 0.00, "Z": 0.00},
					 {"Seq": 40, "X": 286.42, "Y": 0.00, "Z": 0.00},
					 {"Seq": 41, "X": 292.37, "Y": 0.00, "Z": 0.00},
					 {"Seq": 42, "X": 298.32, "Y": 0.00, "Z": 0.00},
					 {"Seq": 43, "X": 304.26, "Y": 0.00, "Z": 0.00},
					 {"Seq": 44, "X": 310.21, "Y": 0.00, "Z": 0.00},
					 {"Seq": 45, "X": 316.15, "Y": 0.00, "Z": 0.00},
					 {"Seq": 46, "X": 322.10, "Y": 0.00, "Z": 0.00},
					 {"Seq": 47, "X": 328.05, "Y": 0.00, "Z": 0.00},
					 {"Seq": 48, "X": 334.00, "Y": 0.00, "Z": 0.00},
					 {"Seq": 49, "X": 339.94, "Y": 0.00, "Z": 0.00},
					 {"Seq": 50, "X": 345.89, "Y": 0.00, "Z": 0.00},
					 {"Seq": 51, "X": 351.83, "Y": 0.00, "Z": 0.00},
					 {"Seq": 52, "X": 357.78, "Y": 0.00, "Z": 0.00},
					 {"Seq": 53, "X": 3.73, "Y": 0.00, "Z": 0.00},
					 {"Seq": 54, "X": 9.67, "Y": 0.00, "Z": 0.00},
					 {"Seq": 55, "X": 5.28, "Y": 0.00, "Z": 0.00},
					 {"Seq": 56, "X": 0.29, "Y": 0.00, "Z": 0.00},
					 {"Seq": 57, "X": 355.29, "Y": 0.00, "Z": 0.00},
					 {"Seq": 58, "X": 350.29, "Y": 0.00, "Z": 0.00},
					 {"Seq": 59, "X": 353.52, "Y": 0.00, "Z": 0.00},
					 {"Seq": 60, "X": 357.27, "Y": 0.00, "Z": 0.00},
					 {"Seq": 61, "X": 1.02, "Y": 0.00, "Z": 0.00},
					 {"Seq": 62, "X": 4.77, "Y": 0.00, "Z": 0.00},
					 {"Seq": 63, "X": 2.66, "Y": 0.00, "Z": 0.00},
					 {"Seq": 64, "X": 0.16, "Y": 0.00, "Z": 0.00},
					 {"Seq": 65, "X": 357.67, "Y": 0.00, "Z": 0.00},
					 {"Seq": 66, "X": 355.17, "Y": 0.00, "Z": 0.00},
					 {"Seq": 67, "X": 356.17, "Y": 0.00, "Z": 0.00},
					 {"Seq": 68, "X": 357.41, "Y": 0.00, "Z": 0.00},
					 {"Seq": 69, "X": 358.66, "Y": 0.00, "Z": 0.00},
					 {"Seq": 70, "X": 359.91, "Y": 0.00, "Z": 0.00},
					 {"Seq": 71, "X": 0.00, "Y": 0.00, "Z": 0.00},
					 {"Seq": 72, "X": 0.00, "Y": 0.00, "Z": 0.00},
					 {"Seq": 73, "X": 0.00, "Y": 0.00, "Z": 0.00},
					 {"Seq": 74, "X": 0.00, "Y": 0.00, "Z": 0.00},
					 {"Seq": 75, "X": 0.00, "Y": 0.00, "Z": 0.00},
					 {"Seq": 76, "X": 0.00, "Y": 0.00, "Z": 0.00},
					 {"Seq": 77, "X": 0.00, "Y": 0.00, "Z": 0.00},
					 {"Seq": 78, "X": 0.00, "Y": 0.00, "Z": 0.00},
					 {"Seq": 79, "X": 0.00, "Y": 0.00, "Z": 0.00},
					 {"Seq": 80, "X": 0.00, "Y": 0.00, "Z": 0.00},
					 {"Seq": 81, "X": 0.00, "Y": 0.00, "Z": 0.00},
					 {"Seq": 82, "X": 0.00, "Y": 0.00, "Z": 0.00},
					 {"Seq": 83, "X": 0.00, "Y": 0.00, "Z": 0.00},
					 {"Seq": 84, "X": 0.00, "Y": 0.00, "Z": 0.00},
					 {"Seq": 85, "X": 0.00, "Y": 0.00, "Z": 0.00},
					 {"Seq": 86, "X": 0.00, "Y": 0.00, "Z": 0.00},
					 {"Seq": 87, "X": 0.00, "Y": 0.00, "Z": 0.00},
					 {"Seq": 88, "X": 0.00, "Y": 0.00, "Z": 0.00},
					 {"Seq": 89, "X": 0.00, "Y": 0.00, "Z": 0.00},
					 {"Seq": 90, "X": 0.00, "Y": 0.00, "Z": 0.00},
					 {"Seq": 91, "X": 0.00, "Y": 0.00, "Z": 0.00},
					 {"Seq": 92, "X": 0.00, "Y": 0.00, "Z": 0.00},
					 {"Seq": 93, "X": 0.00, "Y": 0.00, "Z": 0.00},
					 {"Seq": 94, "X": 0.00, "Y": 0.00, "Z": 0.00},
					 {"Seq": 95, "X": 0.00, "Y": 0.00, "Z": 0.00},
					 {"Seq": 96, "X": 0.00, "Y": 0.00, "Z": 0.00},
					 {"Seq": 97, "X": 0.00, "Y": 0.00, "Z": 0.00},
					 {"Seq": 98, "X": 0.00, "Y": 0.00, "Z": 0.00},
					 {"Seq": 99, "X": 0.00, "Y": 0.00, "Z": 0.00},
					 {"Seq": 100, "X": 0.00, "Y": 0.00, "Z": 0.00},
					 {"Seq": 101, "X": 0.00, "Y": 0.00, "Z": 0.00},
					 {"Seq": 102, "X": 0.00, "Y": 0.00, "Z": 0.00},
					 {"Seq": 103, "X": 0.00, "Y": 0.00, "Z": 0.00},
					 {"Seq": 104, "X": 0.00, "Y": 0.00, "Z": 0.00},
					 {"Seq": 105, "X": 0.00, "Y": 0.00, "Z": 0.00},
					 {"Seq": 106, "X": 0.00, "Y": 0.00, "Z": 0.00},
					 {"Seq": 107, "X": 0.00, "Y": 0.00, "Z": 0.00},
					 {"Seq": 108, "X": 0.00, "Y": 0.00, "Z": 0.00},
					 {"Seq": 109, "X": 0.00, "Y": 0.00, "Z": 0.00},
					 {"Seq": 110, "X": 0.00, "Y": 0.00, "Z": 0.00},
					 {"Seq": 111, "X": 0.00, "Y": 0.00, "Z": 0.00},
					 {"Seq": 112, "X": 0.00, "Y": 0.00, "Z": 0.00},
					 {"Seq": 113, "X": 0.00, "Y": 0.00, "Z": 0.00},
					 {"Seq": 114, "X": 0.00, "Y": 0.00, "Z": 0.00},
					 {"Seq": 115, "X": 0.00, "Y": 0.00, "Z": 0.00},
					 {"Seq": 116, "X": 0.00, "Y": 0.00, "Z": 0.00},
					 {"Seq": 117, "X": 0.00, "Y": 0.00, "Z": 0.00},
					 {"Seq": 118, "X": 0.00, "Y": 0.00, "Z": 0.00},
					 {"Seq": 119, "X": 0.00, "Y": 0.00, "Z": 0.00},
					 {"Seq": 120, "X": 0.00, "Y": 0.00, "Z": 0.00},
					 {"Seq": 121, "X": 0.00, "Y": 0.00, "Z": 0.00},
					 {"Seq": 122, "X": 0.00, "Y": 0.00, "Z": 0.00},
					 {"Seq": 123, "X": 0.00, "Y": 0.00, "Z": 0.00},
					 {"Seq": 124, "X": 0.00, "Y": 0.00, "Z": 0.00},
					 {"Seq": 125, "X": 0.00, "Y": 0.00, "Z": 0.00},
					 {"Seq": 126, "X": 0.00, "Y": 0.00, "Z": 0.00},
					 {"Seq": 127, "X": 0.00, "Y": 0.00, "Z": 0.00},
					 {"Seq": 128, "X": 0.00, "Y": 0.00, "Z": 0.00},
					 {"Seq": 129, "X": 0.00, "Y": 0.00, "Z": 0.00},
					 {"Seq": 130, "X": 0.00, "Y": 0.00, "Z": 0.00},
					 {"Seq": 131, "X": 0.00, "Y": 0.00, "Z": 0.00},
					 {"Seq": 132, "X": 0.00, "Y": 0.00, "Z": 0.00},
					 {"Seq": 133, "X": 0.00, "Y": 0.00, "Z": 0.00},
					 {"Seq": 134, "X": 0.00, "Y": 0.00, "Z": 0.00},
					 {"Seq": 135, "X": 0.00, "Y": 0.00, "Z": 0.00},
					 {"Seq": 136, "X": 0.00, "Y": 0.00, "Z": 0.00},
					 {"Seq": 137, "X": 0.00, "Y": 0.00, "Z": 0.00},
					 {"Seq": 138, "X": 0.00, "Y": 0.00, "Z": 0.00},
					 {"Seq": 139, "X": 0.00, "Y": 0.00, "Z": 0.00},
					 {"Seq": 140, "X": 0.00, "Y": 0.00, "Z": 0.00},
					 {"Seq": 141, "X": 0.00, "Y": 0.00, "Z": 0.00},
					 {"Seq": 142, "X": 0.00, "Y": 0.00, "Z": 0.00},
					 {"Seq": 143, "X": 0.00, "Y": 0.00, "Z": 0.00},
					 {"Seq": 144, "X": 0.00, "Y": 0.00, "Z": 0.00},
					 {"Seq": 145, "X": 0.00, "Y": 0.00, "Z": 0.00},
					 {"Seq": 146, "X": 0.00, "Y": 0.00, "Z": 0.00},
					 {"Seq": 147, "X": 0.00, "Y": 0.00, "Z": 0.00},
					 {"Seq": 148, "X": 0.00, "Y": 0.00, "Z": 0.00},
					 {"Seq": 149, "X": 0.00, "Y": 0.00, "Z": 0.00},
					 {"Seq": 150, "X": 0.00, "Y": 0.00, "Z": 0.00},
					 {"Seq": 151, "X": 0.00, "Y": 0.00, "Z": 0.00},
					 {"Seq": 152, "X": 0.00, "Y": 0.00, "Z": 0.00},
					 {"Seq": 153, "X": 0.00, "Y": 0.00, "Z": 0.00},
					 {"Seq": 154, "X": 0.00, "Y": 0.00, "Z": 0.00},
					 {"Seq": 155, "X": 0.00, "Y": 0.00, "Z": 0.00},
					 {"Seq": 156, "X": 0.00, "Y": 0.00, "Z": 0.00},
					 {"Seq": 157, "X": 0.00, "Y": 0.00, "Z": 0.00},
					 {"Seq": 158, "X": 0.00, "Y": 0.00, "Z": 0.00},
					 {"Seq": 159, "X": 0.00, "Y": 0.00, "Z": 0.00},
					 {"Seq": 160, "X": 0.00, "Y": 0.00, "Z": 0.00},
					 {"Seq": 161, "X": 0.00, "Y": 0.00, "Z": 0.00},
					 {"Seq": 162, "X": 0.00, "Y": 0.00, "Z": 0.00},
					 {"Seq": 163, "X": 0.00, "Y": 0.00, "Z": 0.00},
					 {"Seq": 164, "X": 0.00, "Y": 0.00, "Z": 0.00},
					 {"Seq": 165, "X": 0.00, "Y": 0.00, "Z": 0.00},
					 {"Seq": 166, "X": 0.00, "Y": 0.00, "Z": 0.00},
					 {"Seq": 167, "X": 0.00, "Y": 0.00, "Z": 0.00},
					 {"Seq": 168, "X": 0.00, "Y": 0.00, "Z": 0.00},
					 {"Seq": 169, "X": 0.00, "Y": 0.00, "Z": 0.00},
					 {"Seq": 170, "X": 0.00, "Y": 0.00, "Z": 0.00},
					 {"Seq": 171, "X": 0.00, "Y": 0.00, "Z": 0.00},
					 {"Seq": 172, "X": 0.00, "Y": 0.00, "Z": 0.00},
					 {"Seq": 173, "X": 0.00, "Y": 0.00, "Z": 0.00},
					 {"Seq": 174, "X": 0.00, "Y": 0.00, "Z": 0.00},
					 {"Seq": 175, "X": 0.00, "Y": 0.00, "Z": 0.00},
					 {"Seq": 176, "X": 0.00, "Y": 0.00, "Z": 0.00},
					 {"Seq": 177, "X": 0.00, "Y": 0.00, "Z": 0.00},
					 {"Seq": 178, "X": 0.00, "Y": 0.00, "Z": 0.00},
					 {"Seq": 179, "X": 0.00, "Y": 0.00, "Z": 0.00},
					 {"Seq": 180, "X": 0.00, "Y": 0.00, "Z": 0.00},
					 {"Seq": 181, "X": 0.00, "Y": 0.00, "Z": 0.00},
					 {"Seq": 182, "X": 0.00, "Y": 0.00, "Z": 0.00},
					 {"Seq": 183, "X": 0.00, "Y": 0.00, "Z": 0.00},
					 {"Seq": 184, "X": 0.00, "Y": 0.00, "Z": 0.00},
					 {"Seq": 185, "X": 0.00, "Y": 0.00, "Z": 0.00},
					 {"Seq": 186, "X": 0.00, "Y": 0.00, "Z": 0.00},
					 {"Seq": 187, "X": 0.00, "Y": 0.00, "Z": 0.00},
					 {"Seq": 188, "X": 0.00, "Y": 0.00, "Z": 0.00},
					 {"Seq": 189, "X": 0.00, "Y": 0.00, "Z": 0.00},
					 {"Seq": 190, "X": 0.00, "Y": 0.00, "Z": 0.00},
					 {"Seq": 191, "X": 0.00, "Y": 0.00, "Z": 0.00},
					 {"Seq": 192, "X": 0.00, "Y": 0.00, "Z": 0.00},
					 {"Seq": 193, "X": 0.00, "Y": 0.00, "Z": 0.00},
					 {"Seq": 194, "X": 0.00, "Y": 0.00, "Z": 0.00},
					 {"Seq": 195, "X": 0.00, "Y": 0.00, "Z": 0.00},
					 {"Seq": 196, "X": 0.00, "Y": 0.00, "Z": 0.00},
					 {"Seq": 197, "X": 0.00, "Y": 0.00, "Z": 0.00},
					 {"Seq": 198, "X": 0.00, "Y": 0.00, "Z": 0.00},
					 {"Seq": 199, "X": 0.00, "Y": 0.00, "Z": 0.00},
					 {"Seq": 200, "X": 5.13, "Y": 0.00, "Z": 0.00},
					 {"Seq": 201, "X": 11.56, "Y": 0.00, "Z": 0.00},
					 {"Seq": 202, "X": 17.98, "Y": 0.00, "Z": 0.00},
					 {"Seq": 203, "X": 24.40, "Y": 0.00, "Z": 0.00},
					 {"Seq": 204, "X": 30.83, "Y": 0.00, "Z": 0.00},
					 {"Seq": 205, "X": 37.25, "Y": 0.00, "Z": 0.00},
					 {"Seq": 206, "X": 43.67, "Y": 0.00, "Z": 0.00},
					 {"Seq": 207, "X": 50.09, "Y": 0.00, "Z": 0.00},
					 {"Seq": 208, "X": 56.52, "Y": 0.00, "Z": 0.00},
					 {"Seq": 209, "X": 62.94, "Y": 0.00, "Z": 0.00},
					 {"Seq": 210, "X": 69.36, "Y": 0.00, "Z": 0.00},
					 {"Seq": 211, "X": 75.78, "Y": 0.00, "Z": 0.00},
					 {"Seq": 212, "X": 82.21, "Y": 0.00, "Z": 0.00},
					 {"Seq": 213, "X": 88.63, "Y": 0.00, "Z": 0.00},
					 {"Seq": 214, "X": 90.00, "Y": 0.00, "Z": 0.00},
					 {"Seq": 215, "X": 90.00, "Y": 0.00, "Z": 0.00},
					 {"Seq": 216, "X": 90.00, "Y": 0.00, "Z": 0.00},
					 {"Seq": 217, "X": 90.00, "Y": 0.00, "Z": 0.00}
					 ] 
				}
,				 "XRotation": { 
					"Val": 0.00
					 }, 
				 "YRotation": { 
					"Val": 0.00
					 }, 
				 "ZRotation": { 
					"Val": 0.00
					 }, 
				 "Opacity": { 
					"Val": 100.00
					 } 
			}
		}

	}
]
}
]}
}

